%YAML 1.1
%TAG !u! tag:unity3d.com,2011:
--- !u!1001 &100100000
Prefab:
  m_ObjectHideFlags: 1
  serializedVersion: 2
  m_Modification:
    m_TransformParent: {fileID: 0}
    m_Modifications: []
    m_RemovedComponents: []
  m_ParentPrefab: {fileID: 0}
  m_RootGameObject: {fileID: 1627172767261646}
  m_IsPrefabParent: 1
--- !u!1 &1108987535451848
GameObject:
  m_ObjectHideFlags: 0
  m_PrefabParentObject: {fileID: 0}
  m_PrefabInternal: {fileID: 100100000}
  serializedVersion: 5
  m_Component:
  - component: {fileID: 4312567623615136}
  - component: {fileID: 114493756100452922}
  m_Layer: 0
  m_Name: BabySpiderBoss4
  m_TagString: Untagged
  m_Icon: {fileID: 0}
  m_NavMeshLayer: 0
  m_StaticEditorFlags: 0
  m_IsActive: 1
--- !u!1 &1391356630081904
GameObject:
  m_ObjectHideFlags: 0
  m_PrefabParentObject: {fileID: 0}
  m_PrefabInternal: {fileID: 100100000}
  serializedVersion: 5
  m_Component:
  - component: {fileID: 4189533389204308}
  - component: {fileID: 114292213843259124}
  m_Layer: 0
  m_Name: BabySpiderBoss4
  m_TagString: Untagged
  m_Icon: {fileID: 0}
  m_NavMeshLayer: 0
  m_StaticEditorFlags: 0
  m_IsActive: 1
--- !u!1 &1411408093850310
GameObject:
  m_ObjectHideFlags: 0
  m_PrefabParentObject: {fileID: 0}
  m_PrefabInternal: {fileID: 100100000}
  serializedVersion: 5
  m_Component:
  - component: {fileID: 4266260576763744}
  - component: {fileID: 114167720614731982}
  m_Layer: 0
  m_Name: BabySpiderBoss4
  m_TagString: Untagged
  m_Icon: {fileID: 0}
  m_NavMeshLayer: 0
  m_StaticEditorFlags: 0
  m_IsActive: 1
--- !u!1 &1627172767261646
GameObject:
  m_ObjectHideFlags: 0
  m_PrefabParentObject: {fileID: 0}
  m_PrefabInternal: {fileID: 100100000}
  serializedVersion: 5
  m_Component:
  - component: {fileID: 4834492813241960}
  - component: {fileID: 114722610088401134}
  m_Layer: 0
  m_Name: Wave Boss Cua FreeWave
  m_TagString: Untagged
  m_Icon: {fileID: 0}
  m_NavMeshLayer: 0
  m_StaticEditorFlags: 0
  m_IsActive: 1
--- !u!1 &1667590431735640
GameObject:
  m_ObjectHideFlags: 0
  m_PrefabParentObject: {fileID: 0}
  m_PrefabInternal: {fileID: 100100000}
  serializedVersion: 5
  m_Component:
  - component: {fileID: 4759753005874740}
  - component: {fileID: 114192440790641630}
  m_Layer: 0
  m_Name: BabySpiderBoss4
  m_TagString: Untagged
  m_Icon: {fileID: 0}
  m_NavMeshLayer: 0
  m_StaticEditorFlags: 0
  m_IsActive: 1
--- !u!1 &1888607567419488
GameObject:
  m_ObjectHideFlags: 0
  m_PrefabParentObject: {fileID: 0}
  m_PrefabInternal: {fileID: 100100000}
  serializedVersion: 5
  m_Component:
  - component: {fileID: 4662653097183908}
  - component: {fileID: 114855042864624592}
  m_Layer: 0
  m_Name: BabySpiderBoss4
  m_TagString: Untagged
  m_Icon: {fileID: 0}
  m_NavMeshLayer: 0
  m_StaticEditorFlags: 0
  m_IsActive: 1
--- !u!4 &4189533389204308
Transform:
  m_ObjectHideFlags: 1
  m_PrefabParentObject: {fileID: 0}
  m_PrefabInternal: {fileID: 100100000}
  m_GameObject: {fileID: 1391356630081904}
  m_LocalRotation: {x: 0, y: 0, z: 0.2588191, w: 0.9659258}
  m_LocalPosition: {x: 0, y: 0, z: 0}
  m_LocalScale: {x: 1, y: 1, z: 1}
  m_Children: []
  m_Father: {fileID: 4834492813241960}
  m_RootOrder: 1
  m_LocalEulerAnglesHint: {x: 0, y: 0, z: 30}
--- !u!4 &4266260576763744
Transform:
  m_ObjectHideFlags: 1
  m_PrefabParentObject: {fileID: 0}
  m_PrefabInternal: {fileID: 100100000}
  m_GameObject: {fileID: 1411408093850310}
  m_LocalRotation: {x: 0, y: 0, z: -0.5, w: 0.8660254}
  m_LocalPosition: {x: 0, y: 0, z: 0}
  m_LocalScale: {x: 1, y: 1, z: 1}
  m_Children: []
  m_Father: {fileID: 4834492813241960}
  m_RootOrder: 4
  m_LocalEulerAnglesHint: {x: 0, y: 0, z: -60}
--- !u!4 &4312567623615136
Transform:
  m_ObjectHideFlags: 1
  m_PrefabParentObject: {fileID: 0}
  m_PrefabInternal: {fileID: 100100000}
  m_GameObject: {fileID: 1108987535451848}
  m_LocalRotation: {x: 0, y: 0, z: -0.258819, w: 0.9659259}
  m_LocalPosition: {x: 0, y: 0, z: 0}
  m_LocalScale: {x: 1, y: 1, z: 1}
  m_Children: []
  m_Father: {fileID: 4834492813241960}
  m_RootOrder: 3
  m_LocalEulerAnglesHint: {x: 0, y: 0, z: -30}
--- !u!4 &4662653097183908
Transform:
  m_ObjectHideFlags: 1
  m_PrefabParentObject: {fileID: 0}
  m_PrefabInternal: {fileID: 100100000}
  m_GameObject: {fileID: 1888607567419488}
  m_LocalRotation: {x: 0, y: 0, z: 0, w: 1}
  m_LocalPosition: {x: 0, y: 0, z: 0}
  m_LocalScale: {x: 1, y: 1, z: 1}
  m_Children: []
  m_Father: {fileID: 4834492813241960}
  m_RootOrder: 2
  m_LocalEulerAnglesHint: {x: 0, y: 0, z: 0}
--- !u!4 &4759753005874740
Transform:
  m_ObjectHideFlags: 1
  m_PrefabParentObject: {fileID: 0}
  m_PrefabInternal: {fileID: 100100000}
  m_GameObject: {fileID: 1667590431735640}
  m_LocalRotation: {x: 0, y: 0, z: 0.5, w: 0.8660254}
  m_LocalPosition: {x: 0, y: 0, z: 0}
  m_LocalScale: {x: 1, y: 1, z: 1}
  m_Children: []
  m_Father: {fileID: 4834492813241960}
  m_RootOrder: 0
  m_LocalEulerAnglesHint: {x: 0, y: 0, z: 60}
--- !u!4 &4834492813241960
Transform:
  m_ObjectHideFlags: 1
  m_PrefabParentObject: {fileID: 0}
  m_PrefabInternal: {fileID: 100100000}
  m_GameObject: {fileID: 1627172767261646}
  m_LocalRotation: {x: -0, y: -0, z: -0, w: 1}
  m_LocalPosition: {x: 0, y: 0, z: 0}
  m_LocalScale: {x: 1, y: 1, z: 1}
  m_Children:
  - {fileID: 4759753005874740}
  - {fileID: 4189533389204308}
  - {fileID: 4662653097183908}
  - {fileID: 4312567623615136}
  - {fileID: 4266260576763744}
  m_Father: {fileID: 0}
  m_RootOrder: 0
  m_LocalEulerAnglesHint: {x: 0, y: 0, z: 0}
--- !u!114 &114167720614731982
MonoBehaviour:
  m_ObjectHideFlags: 1
  m_PrefabParentObject: {fileID: 0}
  m_PrefabInternal: {fileID: 100100000}
  m_GameObject: {fileID: 1411408093850310}
  m_Enabled: 1
  m_EditorHideFlags: 0
  m_Script: {fileID: 11500000, guid: d2f5c863969a4fe4b8ac206ac7afb055, type: 3}
  m_Name: 
  m_EditorClassIdentifier: 
  path: {fileID: 114521364027536524, guid: 3374b33a5e0e1cb428ec9a23864a7f04, type: 2}
  timeToBegin: 0
  timeToEnd: -1
  timeToNextEnemy: 1
  totalEnemy: 0
  target: {fileID: 0}
  followTarget: 0
  followTargetLerp: 1
  followSpeed: 2
  spawnInTarget: 1
  listMiniTurn:
  - enemyPrefab: {fileID: 1545851746400868, guid: ced08174eb762364e9eeda491c860e92,
      type: 2}
    properties: []
    pointAndAction:
    - listAcitonName:
      - DropItem
      - ChangeSpeed
      - Warning
      type: Point = X
      x: 1
      actionName: ChangeSpeed
    number: 0
  newSpeed: 5
  timePauseAction: 3
  newPath: {fileID: 0}
  posStartPathNew: {x: 0, y: 0, z: 0}
  syncAnimation: 0
  enemyStartByNumber: 1
  number: 1
  enemyStartByPosition: 0
  startPosition: []
--- !u!114 &114192440790641630
MonoBehaviour:
  m_ObjectHideFlags: 1
  m_PrefabParentObject: {fileID: 0}
  m_PrefabInternal: {fileID: 100100000}
  m_GameObject: {fileID: 1667590431735640}
  m_Enabled: 1
  m_EditorHideFlags: 0
  m_Script: {fileID: 11500000, guid: d2f5c863969a4fe4b8ac206ac7afb055, type: 3}
  m_Name: 
  m_EditorClassIdentifier: 
  path: {fileID: 114521364027536524, guid: 3374b33a5e0e1cb428ec9a23864a7f04, type: 2}
  timeToBegin: 0
  timeToEnd: -1
  timeToNextEnemy: 1
  totalEnemy: 0
  target: {fileID: 0}
  followTarget: 0
  followTargetLerp: 1
  followSpeed: 2
  spawnInTarget: 1
  listMiniTurn:
  - enemyPrefab: {fileID: 1545851746400868, guid: ced08174eb762364e9eeda491c860e92,
      type: 2}
    properties: []
    pointAndAction:
    - listAcitonName:
      - DropItem
      - ChangeSpeed
      - Warning
      type: Point = X
      x: 1
      actionName: ChangeSpeed
    number: 0
  newSpeed: 4
  timePauseAction: 3
  newPath: {fileID: 0}
  posStartPathNew: {x: 0, y: 0, z: 0}
  syncAnimation: 0
  enemyStartByNumber: 1
  number: 1
  enemyStartByPosition: 0
  startPosition: []
--- !u!114 &114292213843259124
MonoBehaviour:
  m_ObjectHideFlags: 1
  m_PrefabParentObject: {fileID: 0}
  m_PrefabInternal: {fileID: 100100000}
  m_GameObject: {fileID: 1391356630081904}
  m_Enabled: 1
  m_EditorHideFlags: 0
  m_Script: {fileID: 11500000, guid: d2f5c863969a4fe4b8ac206ac7afb055, type: 3}
  m_Name: 
  m_EditorClassIdentifier: 
  path: {fileID: 114748934755896202, guid: b720c63e96bedc24c9d3151f97f21017, type: 2}
  timeToBegin: 0
  timeToEnd: -1
  timeToNextEnemy: 1
  totalEnemy: 0
  target: {fileID: 0}
  followTarget: 0
  followTargetLerp: 1
  followSpeed: 2
  spawnInTarget: 1
  listMiniTurn:
  - enemyPrefab: {fileID: 1545851746400868, guid: ced08174eb762364e9eeda491c860e92,
      type: 2}
    properties: []
    pointAndAction:
    - listAcitonName:
      - DropItem
      - ChangeSpeed
      - Warning
      type: Point = X
      x: 1
      actionName: ChangeSpeed
    number: 0
  newSpeed: 5
  timePauseAction: 3
  newPath: {fileID: 0}
  posStartPathNew: {x: 0, y: 0, z: 0}
  syncAnimation: 0
  enemyStartByNumber: 1
  number: 1
  enemyStartByPosition: 0
  startPosition: []
--- !u!114 &114493756100452922
MonoBehaviour:
  m_ObjectHideFlags: 1
  m_PrefabParentObject: {fileID: 0}
  m_PrefabInternal: {fileID: 100100000}
  m_GameObject: {fileID: 1108987535451848}
  m_Enabled: 1
  m_EditorHideFlags: 0
  m_Script: {fileID: 11500000, guid: d2f5c863969a4fe4b8ac206ac7afb055, type: 3}
  m_Name: 
  m_EditorClassIdentifier: 
  path: {fileID: 114748934755896202, guid: b720c63e96bedc24c9d3151f97f21017, type: 2}
  timeToBegin: 0
  timeToEnd: -1
  timeToNextEnemy: 1
  totalEnemy: 0
  target: {fileID: 0}
  followTarget: 0
  followTargetLerp: 1
  followSpeed: 2
  spawnInTarget: 1
  listMiniTurn:
  - enemyPrefab: {fileID: 1545851746400868, guid: ced08174eb762364e9eeda491c860e92,
      type: 2}
    properties: []
    pointAndAction:
    - listAcitonName:
      - DropItem
      - ChangeSpeed
      - Warning
      type: Point = X
      x: 1
      actionName: ChangeSpeed
    number: 0
  newSpeed: 6
  timePauseAction: 3
  newPath: {fileID: 0}
  posStartPathNew: {x: 0, y: 0, z: 0}
  syncAnimation: 0
  enemyStartByNumber: 1
  number: 1
  enemyStartByPosition: 0
  startPosition: []
--- !u!114 &114722610088401134
MonoBehaviour:
  m_ObjectHideFlags: 1
  m_PrefabParentObject: {fileID: 0}
  m_PrefabInternal: {fileID: 100100000}
  m_GameObject: {fileID: 1627172767261646}
  m_Enabled: 1
  m_EditorHideFlags: 0
  m_Script: {fileID: 11500000, guid: f3f26bfd1a81c6e42885fe1e8ac3a851, type: 3}
  m_Name: 
  m_EditorClassIdentifier: 
--- !u!114 &114855042864624592
MonoBehaviour:
  m_ObjectHideFlags: 1
  m_PrefabParentObject: {fileID: 0}
  m_PrefabInternal: {fileID: 100100000}
  m_GameObject: {fileID: 1888607567419488}
  m_Enabled: 1
  m_EditorHideFlags: 0
  m_Script: {fileID: 11500000, guid: d2f5c863969a4fe4b8ac206ac7afb055, type: 3}
  m_Name: 
  m_EditorClassIdentifier: 
  path: {fileID: 114521364027536524, guid: 3374b33a5e0e1cb428ec9a23864a7f04, type: 2}
  timeToBegin: 0
  timeToEnd: -1
  timeToNextEnemy: 1
  totalEnemy: 0
  target: {fileID: 0}
  followTarget: 0
  followTargetLerp: 1
  followSpeed: 2
  spawnInTarget: 1
  listMiniTurn:
  - enemyPrefab: {fileID: 1545851746400868, guid: ced08174eb762364e9eeda491c860e92,
      type: 2}
    properties: []
    pointAndAction:
    - listAcitonName:
      - DropItem
      - ChangeSpeed
      - Warning
      type: Point = X
      x: 1
      actionName: ChangeSpeed
    number: 0
  newSpeed: 4
  timePauseAction: 3
  newPath: {fileID: 0}
  posStartPathNew: {x: 0, y: 0, z: 0}
  syncAnimation: 0
  enemyStartByNumber: 1
  number: 1
  enemyStartByPosition: 0
  startPosition: []
