%YAML 1.1
%TAG !u! tag:unity3d.com,2011:
--- !u!1001 &100100000
Prefab:
  m_ObjectHideFlags: 1
  serializedVersion: 2
  m_Modification:
    m_TransformParent: {fileID: 0}
    m_Modifications: []
    m_RemovedComponents: []
  m_SourcePrefab: {fileID: 0}
  m_RootGameObject: {fileID: 1252189168105364}
  m_IsPrefabAsset: 1
--- !u!1 &1252189168105364
GameObject:
  m_ObjectHideFlags: 0
  m_CorrespondingSourceObject: {fileID: 0}
  m_PrefabInternal: {fileID: 100100000}
  serializedVersion: 6
  m_Component:
  - component: {fileID: 4169814954602934}
  - component: {fileID: 114917990603831080}
  m_Layer: 0
  m_Name: vipsystem
  m_TagString: Untagged
  m_Icon: {fileID: 0}
  m_NavMeshLayer: 0
  m_StaticEditorFlags: 0
  m_IsActive: 1
--- !u!4 &4169814954602934
Transform:
  m_ObjectHideFlags: 1
  m_CorrespondingSourceObject: {fileID: 0}
  m_PrefabInternal: {fileID: 100100000}
  m_GameObject: {fileID: 1252189168105364}
  m_LocalRotation: {x: 0, y: 0, z: 0, w: 1}
  m_LocalPosition: {x: 0, y: 0, z: 0}
  m_LocalScale: {x: 1, y: 1, z: 1}
  m_Children: []
  m_Father: {fileID: 0}
  m_RootOrder: 0
  m_LocalEulerAnglesHint: {x: 0, y: 0, z: 0}
--- !u!114 &114917990603831080
MonoBehaviour:
  m_ObjectHideFlags: 1
  m_CorrespondingSourceObject: {fileID: 0}
  m_PrefabInternal: {fileID: 100100000}
  m_GameObject: {fileID: 1252189168105364}
  m_Enabled: 1
  m_EditorHideFlags: 0
  m_Script: {fileID: 11500000, guid: 4d0c51bb0b6e93049af5e88f93826e3b, type: 3}
  m_Name: 
  m_EditorClassIdentifier: 
  material: {fileID: 0}
  mSprites:
  - name: Benefit_titler
    x: 278
    y: 45
    width: 352
    height: 79
    borderLeft: 0
    borderRight: 0
    borderTop: 0
    borderBottom: 0
    paddingLeft: 0
    paddingRight: 0
    paddingTop: 0
    paddingBottom: 0
  - name: btn_VIP
    x: 278
    y: 137
    width: 84
    height: 87
    borderLeft: 0
    borderRight: 0
    borderTop: 0
    borderBottom: 0
    paddingLeft: 0
    paddingRight: 0
    paddingTop: 0
    paddingBottom: 0
  - name: Icon__VIP_0
    x: 568
    y: 254
    width: 262
    height: 226
    borderLeft: 0
    borderRight: 0
    borderTop: 0
    borderBottom: 0
    paddingLeft: 38
    paddingRight: 36
    paddingTop: 60
    paddingBottom: 50
  - name: Icon__VIP_1
    x: 0
    y: 8
    width: 278
    height: 226
    borderLeft: 0
    borderRight: 0
    borderTop: 0
    borderBottom: 0
    paddingLeft: 30
    paddingRight: 28
    paddingTop: 60
    paddingBottom: 50
  - name: Icon__VIP_2
    x: 0
    y: 234
    width: 278
    height: 230
    borderLeft: 0
    borderRight: 0
    borderTop: 0
    borderBottom: 0
    paddingLeft: 30
    paddingRight: 28
    paddingTop: 56
    paddingBottom: 50
  - name: Icon__VIP_3
    x: 290
    y: 224
    width: 278
    height: 258
    borderLeft: 0
    borderRight: 0
    borderTop: 0
    borderBottom: 0
    paddingLeft: 30
    paddingRight: 28
    paddingTop: 44
    paddingBottom: 34
  - name: Icon__VIP_4
    x: 310
    y: 482
    width: 290
    height: 258
    borderLeft: 0
    borderRight: 0
    borderTop: 0
    borderBottom: 0
    paddingLeft: 24
    paddingRight: 22
    paddingTop: 44
    paddingBottom: 34
  - name: Icon__VIP_5
    x: 0
    y: 464
    width: 290
    height: 258
    borderLeft: 0
    borderRight: 0
    borderTop: 0
    borderBottom: 0
    paddingLeft: 24
    paddingRight: 22
    paddingTop: 44
    paddingBottom: 34
  - name: Icon__VIP_6
    x: 608
    y: 480
    width: 290
    height: 270
    borderLeft: 0
    borderRight: 0
    borderTop: 0
    borderBottom: 0
    paddingLeft: 24
    paddingRight: 22
    paddingTop: 32
    paddingBottom: 34
  - name: Icon__VIP_7
    x: 608
    y: 750
    width: 298
    height: 274
    borderLeft: 0
    borderRight: 0
    borderTop: 0
    borderBottom: 0
    paddingLeft: 20
    paddingRight: 18
    paddingTop: 32
    paddingBottom: 30
  - name: Icon__VIP_8
    x: 310
    y: 740
    width: 298
    height: 284
    borderLeft: 0
    borderRight: 0
    borderTop: 0
    borderBottom: 0
    paddingLeft: 20
    paddingRight: 18
    paddingTop: 22
    paddingBottom: 30
  - name: Icon__VIP_9
    x: 0
    y: 722
    width: 310
    height: 302
    borderLeft: 0
    borderRight: 0
    borderTop: 0
    borderBottom: 0
    paddingLeft: 14
    paddingRight: 12
    paddingTop: 12
    paddingBottom: 22
  - name: Nametag_v1
    x: 630
    y: 24
    width: 41
    height: 40
    borderLeft: 0
    borderRight: 0
    borderTop: 0
    borderBottom: 0
    paddingLeft: 0
    paddingRight: 0
    paddingTop: 0
    paddingBottom: 0
  - name: Nametag_v2
    x: 319
    y: 5
    width: 41
    height: 40
    borderLeft: 0
    borderRight: 0
    borderTop: 0
    borderBottom: 0
    paddingLeft: 0
    paddingRight: 0
    paddingTop: 0
    paddingBottom: 0
  - name: Nametag_v3
    x: 278
    y: 5
    width: 41
    height: 40
    borderLeft: 0
    borderRight: 0
    borderTop: 0
    borderBottom: 0
    paddingLeft: 0
    paddingRight: 0
    paddingTop: 0
    paddingBottom: 0
  - name: Nametag_v4
    x: 360
    y: 5
    width: 41
    height: 40
    borderLeft: 0
    borderRight: 0
    borderTop: 0
    borderBottom: 0
    paddingLeft: 0
    paddingRight: 0
    paddingTop: 0
    paddingBottom: 0
  - name: Nametag_v5
    x: 483
    y: 5
    width: 41
    height: 40
    borderLeft: 0
    borderRight: 0
    borderTop: 0
    borderBottom: 0
    paddingLeft: 0
    paddingRight: 0
    paddingTop: 0
    paddingBottom: 0
  - name: Nametag_v6
    x: 442
    y: 5
    width: 41
    height: 40
    borderLeft: 0
    borderRight: 0
    borderTop: 0
    borderBottom: 0
    paddingLeft: 0
    paddingRight: 0
    paddingTop: 0
    paddingBottom: 0
  - name: Nametag_v7
    x: 401
    y: 5
    width: 41
    height: 40
    borderLeft: 0
    borderRight: 0
    borderTop: 0
    borderBottom: 0
    paddingLeft: 0
    paddingRight: 0
    paddingTop: 0
    paddingBottom: 0
  - name: Nametag_v8
    x: 506
    y: 184
    width: 41
    height: 40
    borderLeft: 0
    borderRight: 0
    borderTop: 0
    borderBottom: 0
    paddingLeft: 0
    paddingRight: 0
    paddingTop: 0
    paddingBottom: 0
  - name: Nametag_v9
    x: 446
    y: 127
    width: 41
    height: 40
    borderLeft: 0
    borderRight: 0
    borderTop: 0
    borderBottom: 0
    paddingLeft: 0
    paddingRight: 0
    paddingTop: 0
    paddingBottom: 0
  - name: Nametag_vX
    x: 487
    y: 127
    width: 41
    height: 40
    borderLeft: 0
    borderRight: 0
    borderTop: 0
    borderBottom: 0
    paddingLeft: 0
    paddingRight: 0
    paddingTop: 0
    paddingBottom: 0
  - name: Progress_piece_load_empty
    x: 568
    y: 124
    width: 365
    height: 130
    borderLeft: 0
    borderRight: 0
    borderTop: 0
    borderBottom: 0
    paddingLeft: 0
    paddingRight: 0
    paddingTop: 0
    paddingBottom: 0
  - name: Progress_piece_load_fill
    x: 630
    y: 64
    width: 359
    height: 60
    borderLeft: 0
    borderRight: 0
    borderTop: 0
    borderBottom: 0
    paddingLeft: 0
    paddingRight: 0
    paddingTop: 0
    paddingBottom: 0
  - name: VIP__check
    x: 528
    y: 158
    width: 28
    height: 26
    borderLeft: 0
    borderRight: 0
    borderTop: 0
    borderBottom: 0
    paddingLeft: 0
    paddingRight: 0
    paddingTop: 0
    paddingBottom: 0
  - name: VIP_arrow_left
    x: 476
    y: 167
    width: 30
    height: 57
    borderLeft: 0
    borderRight: 0
    borderTop: 0
    borderBottom: 0
    paddingLeft: 0
    paddingRight: 0
    paddingTop: 0
    paddingBottom: 0
  - name: VIP_arrow_right
    x: 446
    y: 167
    width: 30
    height: 57
    borderLeft: 0
    borderRight: 0
    borderTop: 0
    borderBottom: 0
    paddingLeft: 0
    paddingRight: 0
    paddingTop: 0
    paddingBottom: 0
  - name: VIP_dotlist
    x: 547
    y: 206
    width: 18
    height: 18
    borderLeft: 0
    borderRight: 0
    borderTop: 0
    borderBottom: 0
    paddingLeft: 4
    paddingRight: 6
    paddingTop: 4
    paddingBottom: 4
  - name: VIP_Gift_Box
    x: 362
    y: 158
    width: 84
    height: 66
    borderLeft: 0
    borderRight: 0
    borderTop: 0
    borderBottom: 0
    paddingLeft: 0
    paddingRight: 0
    paddingTop: 0
    paddingBottom: 0
  mPixelSize: 1
  mReplacement: {fileID: 11400000, guid: da7df61647252f24ab72d3fe48fe3200, type: 2}
  mCoordinates: 0
  sprites: []
