%YAML 1.1
%TAG !u! tag:unity3d.com,2011:
--- !u!1001 &100100000
Prefab:
  m_ObjectHideFlags: 1
  serializedVersion: 2
  m_Modification:
    m_TransformParent: {fileID: 0}
    m_Modifications: []
    m_RemovedComponents: []
  m_ParentPrefab: {fileID: 0}
  m_RootGameObject: {fileID: 1721692660976324}
  m_IsPrefabParent: 1
--- !u!1 &1721692660976324
GameObject:
  m_ObjectHideFlags: 0
  m_PrefabParentObject: {fileID: 0}
  m_PrefabInternal: {fileID: 100100000}
  serializedVersion: 5
  m_Component:
  - component: {fileID: 4923861583410302}
  - component: {fileID: 114627648763653938}
  m_Layer: 11
  m_Name: SecondaryWeaponController
  m_TagString: Untagged
  m_Icon: {fileID: 0}
  m_NavMeshLayer: 0
  m_StaticEditorFlags: 0
  m_IsActive: 1
--- !u!4 &4923861583410302
Transform:
  m_ObjectHideFlags: 1
  m_PrefabParentObject: {fileID: 0}
  m_PrefabInternal: {fileID: 100100000}
  m_GameObject: {fileID: 1721692660976324}
  m_LocalRotation: {x: -0, y: -0, z: -0, w: 1}
  m_LocalPosition: {x: 0, y: 0, z: 0}
  m_LocalScale: {x: 1, y: 1, z: 1}
  m_Children: []
  m_Father: {fileID: 0}
  m_RootOrder: 0
  m_LocalEulerAnglesHint: {x: 0, y: 0, z: 0}
--- !u!114 &114627648763653938
MonoBehaviour:
  m_ObjectHideFlags: 1
  m_PrefabParentObject: {fileID: 0}
  m_PrefabInternal: {fileID: 100100000}
  m_GameObject: {fileID: 1721692660976324}
  m_Enabled: 1
  m_EditorHideFlags: 0
  m_Script: {fileID: 11500000, guid: cec359b0831c3794aa8cedd803515c59, type: 3}
  m_Name: 
  m_EditorClassIdentifier: 
  listSecondaryWeapon:
  - {fileID: 1924192768406174, guid: c18d332c7842c834caa1c40c6092c935, type: 2}
  - {fileID: 1365149799538984, guid: 96791cb0ca2cb41458e58f275e39ade5, type: 2}
  - {fileID: 1968688643417710, guid: cb814dc3407752447b95d1b98bab8647, type: 2}
  - {fileID: 1441911756284536, guid: c5bbf08fd5c6d96419b007ec068e5129, type: 2}
