%YAML 1.1
%TAG !u! tag:unity3d.com,2011:
--- !u!1001 &100100000
Prefab:
  m_ObjectHideFlags: 1
  serializedVersion: 2
  m_Modification:
    m_TransformParent: {fileID: 0}
    m_Modifications: []
    m_RemovedComponents: []
  m_ParentPrefab: {fileID: 0}
  m_RootGameObject: {fileID: 1968809933188590}
  m_IsPrefabParent: 1
--- !u!1 &1968809933188590
GameObject:
  m_ObjectHideFlags: 0
  m_PrefabParentObject: {fileID: 0}
  m_PrefabInternal: {fileID: 100100000}
  serializedVersion: 5
  m_Component:
  - component: {fileID: 4095342791717212}
  - component: {fileID: 114574323318014118}
  m_Layer: 11
  m_Name: WingmanController
  m_TagString: Untagged
  m_Icon: {fileID: 0}
  m_NavMeshLayer: 0
  m_StaticEditorFlags: 0
  m_IsActive: 1
--- !u!4 &4095342791717212
Transform:
  m_ObjectHideFlags: 1
  m_PrefabParentObject: {fileID: 0}
  m_PrefabInternal: {fileID: 100100000}
  m_GameObject: {fileID: 1968809933188590}
  m_LocalRotation: {x: -0, y: -0, z: -0, w: 1}
  m_LocalPosition: {x: 0, y: 0, z: 0}
  m_LocalScale: {x: 1, y: 1, z: 1}
  m_Children: []
  m_Father: {fileID: 0}
  m_RootOrder: 0
  m_LocalEulerAnglesHint: {x: 0, y: 0, z: 0}
--- !u!114 &114574323318014118
MonoBehaviour:
  m_ObjectHideFlags: 1
  m_PrefabParentObject: {fileID: 0}
  m_PrefabInternal: {fileID: 100100000}
  m_GameObject: {fileID: 1968809933188590}
  m_Enabled: 1
  m_EditorHideFlags: 0
  m_Script: {fileID: 11500000, guid: c1ac1303e52f4324fad66a94813ea026, type: 3}
  m_Name: 
  m_EditorClassIdentifier: 
  wingmanSpeed: 18
  playerTrans: {fileID: 0}
  listWingmanPrefab:
  - {fileID: 1526756706925924, guid: c8acd0b3a940c8140a63edb47d593974, type: 2}
  - {fileID: 1216847094612340, guid: 579ffa2e4ea5bdb4da40f64372d618d4, type: 2}
  - {fileID: 1684341892823236, guid: d8094f430c05c554cb816137b0d66686, type: 2}
  - {fileID: 1099448185618196, guid: ef07faa849b9f5849bec2b0476dba9a6, type: 2}
  - {fileID: 1430822102165536, guid: 9b275394024efb846913db81d070455d, type: 2}
