%YAML 1.1
%TAG !u! tag:unity3d.com,2011:
--- !u!114 &11400000
MonoBehaviour:
  m_ObjectHideFlags: 0
  m_PrefabParentObject: {fileID: 0}
  m_PrefabInternal: {fileID: 0}
  m_GameObject: {fileID: 0}
  m_Enabled: 1
  m_EditorHideFlags: 0
  m_Script: {fileID: 11500000, guid: 41cb500cf0f58e74f9a52a8af931edde, type: 3}
  m_Name: -tk2d
  m_EditorClassIdentifier: 
  version: 4
  spriteAnimationIndex:
  - assetGUID: 18a39674a9b14f54b97497254e83b349
    dataGUID: 
    managed: 0
    loadable: 0
  - assetGUID: 68cc4da10d501f9439d1507a1a2c46c1
    dataGUID: 
    managed: 0
    loadable: 0
  - assetGUID: eba2002e1b52e457f811082cb3edaa4d
    dataGUID: 
    managed: 0
    loadable: 0
  - assetGUID: df5017fe61af2d84e8eff04b01f522e6
    dataGUID: 
    managed: 0
    loadable: 0
  - assetGUID: 9a8881e93f6ca934f97ec51bc1e72a62
    dataGUID: 
    managed: 0
    loadable: 0
  - assetGUID: 55754075af4c7c44da254aa5d0cf6329
    dataGUID: 
    managed: 0
    loadable: 0
  - assetGUID: 0244648b5c166eb47b4cab5edf6790fc
    dataGUID: 
    managed: 0
    loadable: 0
  - assetGUID: 8ed256ee4e5353d46ae966b7638967a9
    dataGUID: 
    managed: 0
    loadable: 0
  - assetGUID: 4015dadc87a359048bcfb5ea092c89c5
    dataGUID: 
    managed: 0
    loadable: 0
  - assetGUID: 2a198f1c481edcd4bb2e6f1e895d2181
    dataGUID: 
    managed: 0
    loadable: 0
  - assetGUID: ae625d95fb537204eb012631b8eec084
    dataGUID: 
    managed: 0
    loadable: 0
  - assetGUID: 0b448bea0afecaa47a8df3ab35ed7c0b
    dataGUID: 
    managed: 0
    loadable: 0
  - assetGUID: 74fb17a5dc85d7f4c95f177c4981d170
    dataGUID: 
    managed: 0
    loadable: 0
  - assetGUID: 38c5f21ea09e85842ae23c71c30666d6
    dataGUID: 
    managed: 0
    loadable: 0
  - assetGUID: 2f873c50cab30914688d91050f93df06
    dataGUID: 
    managed: 0
    loadable: 0
  - assetGUID: 5c8e4f67aae49a6428b82d2a8b97f26b
    dataGUID: 
    managed: 0
    loadable: 0
  - assetGUID: a02ca54cdbc67f74fa53855a52d3c946
    dataGUID: 
    managed: 0
    loadable: 0
  - assetGUID: 01c7b418c9086dc4680deccf340e068d
    dataGUID: 
    managed: 0
    loadable: 0
  - assetGUID: 21cd0ef6ccd019f4ea438e37204d29fb
    dataGUID: 
    managed: 0
    loadable: 0
  - assetGUID: af91f92a81f5e3f438a90be7adb97d75
    dataGUID: 
    managed: 0
    loadable: 0
  - assetGUID: 6d2d8a3d121d0514fa1975e7ccc2c787
    dataGUID: 
    managed: 0
    loadable: 0
  - assetGUID: 37ce9c0379f87ed41bd99fdef3c93552
    dataGUID: 
    managed: 0
    loadable: 0
  - assetGUID: 9c4f72e7c893e804894ad1e298b46254
    dataGUID: 
    managed: 0
    loadable: 0
  - assetGUID: 542dab021365a7241b12bc1f45bc1bf2
    dataGUID: 
    managed: 0
    loadable: 0
  - assetGUID: c5bfc18556f69984eb8a66e84df4b55a
    dataGUID: 
    managed: 0
    loadable: 0
  - assetGUID: 3e51efef49ed8b9419bfc3b88c20eeec
    dataGUID: 
    managed: 0
    loadable: 0
  - assetGUID: d50e3d84d20ac7440a859548e6963679
    dataGUID: 
    managed: 0
    loadable: 0
  - assetGUID: 94ff4eebc35993940aa264334344200d
    dataGUID: 
    managed: 0
    loadable: 0
  - assetGUID: 403eb70f137dd7b4eb96d796dc113660
    dataGUID: 
    managed: 0
    loadable: 0
  - assetGUID: ea9c73511bd8d7845b306df0237701b1
    dataGUID: 
    managed: 0
    loadable: 0
  - assetGUID: 4d3c43d0ddb17f44ca165dabf7fbffd9
    dataGUID: 
    managed: 0
    loadable: 0
  - assetGUID: c8a9f9bf22267674d9d6f8505d5a6a11
    dataGUID: 
    managed: 0
    loadable: 0
  - assetGUID: c08a637d971bbae4eb6171b708bf716c
    dataGUID: 
    managed: 0
    loadable: 0
  - assetGUID: 869743ab9bc50194f8ed6b4b2d52f1d9
    dataGUID: 
    managed: 0
    loadable: 0
  - assetGUID: d93eefcef9905204696ae3ccdcb5c2a9
    dataGUID: 
    managed: 0
    loadable: 0
  fontIndex:
  - assetGUID: 696edcc0ae48b72449b2be1a439a7afb
    dataGUID: fb1b97eccf6db514999d1605baf017e5
    managed: 0
    loadable: 0
  - assetGUID: d54d053b1eb9f435ba39d0a7275f7576
    dataGUID: 00d50654c71944d04960d88e3c352cc1
    managed: 0
    loadable: 0
  - assetGUID: 622b62f4ce4054167ba7243119b7143c
    dataGUID: dc5e8cfc5fff846d7a573bb8f5960093
    managed: 0
    loadable: 0
  - assetGUID: f6e659f74eb1b461b9ba3f6418086bbb
    dataGUID: cb3bf0ad5e92744d6856da9a7d5a3125
    managed: 0
    loadable: 0
  - assetGUID: fb27360d8fb77b54796797df700f8494
    dataGUID: d0bed0c8673a61c4697c220f2d967b5c
    managed: 0
    loadable: 0
  - assetGUID: a8ad276700c2f1349ab3a521aea6e360
    dataGUID: 4cf6ae508c630874bb0518737f2c3023
    managed: 0
    loadable: 0
  spriteCollectionIndex:
  - name: Galaxian2017
    spriteCollectionGUID: f276991382d0bb14da746e56084c3fbc
    spriteCollectionDataGUID: f484c540913ba554ab939be1e0efde68
    spriteNames:
    - boss_healbar_filled
    - boss_healbar_border
    - enemy_healbar_border
    - enemy_healbar_filled
    spriteTextureGUIDs:
    - 1b3911eb3e8446f458b04c7351ae40ab
    - 7d3d8b75328987e4e8f39c3c0328d76b
    - 363508cd7ff021245b45f4e761a10c75
    - e9a11d39d2b5a84439ce3975802fed59
    spriteTextureTimeStamps:
    - 1544622515
    - 1544622515
    - 1544622515
    - 1544622515
    managedSpriteCollection: 0
    loadable: 0
    assetName: 
    version: 3
