%YAML 1.1
%TAG !u! tag:unity3d.com,2011:
--- !u!74 &7400000
AnimationClip:
  m_ObjectHideFlags: 0
  m_PrefabParentObject: {fileID: 0}
  m_PrefabInternal: {fileID: 0}
  m_Name: SeahourseCrabAlienIdle
  serializedVersion: 6
  m_Legacy: 0
  m_Compressed: 0
  m_UseHighQualityCurve: 1
  m_RotationCurves: []
  m_CompressedRotationCurves: []
  m_EulerCurves: []
  m_PositionCurves: []
  m_ScaleCurves: []
  m_FloatCurves: []
  m_PPtrCurves:
  - curve:
    - time: 0
      value: {fileID: 21300000, guid: 54683b029b397624da7548b5b4fc0095, type: 3}
    - time: 0.16666667
      value: {fileID: 21300000, guid: 028333ac2617a2348aaded69c9a6d6d7, type: 3}
    - time: 0.33333334
      value: {fileID: 21300000, guid: 0a4a293184f5199499f06828f0a50c3d, type: 3}
    - time: 0.5
      value: {fileID: 21300000, guid: 43d09607b3f449748b07a4a69c0b3135, type: 3}
    - time: 0.6666667
      value: {fileID: 21300000, guid: dd65866bf1d4a8049b7ea5df0f674fd0, type: 3}
    - time: 0.8333333
      value: {fileID: 21300000, guid: 4ba2dfbb9782b2f4da2caaa5cf0f8a52, type: 3}
    attribute: m_Sprite
    path: 
    classID: 212
    script: {fileID: 0}
  m_SampleRate: 6
  m_WrapMode: 0
  m_Bounds:
    m_Center: {x: 0, y: 0, z: 0}
    m_Extent: {x: 0, y: 0, z: 0}
  m_ClipBindingConstant:
    genericBindings:
    - serializedVersion: 2
      path: 0
      attribute: 0
      script: {fileID: 0}
      typeID: 212
      customType: 23
      isPPtrCurve: 1
    pptrCurveMapping:
    - {fileID: 21300000, guid: 54683b029b397624da7548b5b4fc0095, type: 3}
    - {fileID: 21300000, guid: 028333ac2617a2348aaded69c9a6d6d7, type: 3}
    - {fileID: 21300000, guid: 0a4a293184f5199499f06828f0a50c3d, type: 3}
    - {fileID: 21300000, guid: 43d09607b3f449748b07a4a69c0b3135, type: 3}
    - {fileID: 21300000, guid: dd65866bf1d4a8049b7ea5df0f674fd0, type: 3}
    - {fileID: 21300000, guid: 4ba2dfbb9782b2f4da2caaa5cf0f8a52, type: 3}
  m_AnimationClipSettings:
    serializedVersion: 2
    m_AdditiveReferencePoseClip: {fileID: 0}
    m_AdditiveReferencePoseTime: 0
    m_StartTime: 0
    m_StopTime: 1
    m_OrientationOffsetY: 0
    m_Level: 0
    m_CycleOffset: 0
    m_HasAdditiveReferencePose: 0
    m_LoopTime: 1
    m_LoopBlend: 0
    m_LoopBlendOrientation: 0
    m_LoopBlendPositionY: 0
    m_LoopBlendPositionXZ: 0
    m_KeepOriginalOrientation: 0
    m_KeepOriginalPositionY: 1
    m_KeepOriginalPositionXZ: 0
    m_HeightFromFeet: 0
    m_Mirror: 0
  m_EditorCurves: []
  m_EulerEditorCurves: []
  m_HasGenericRootTransform: 0
  m_HasMotionFloatCurves: 0
  m_GenerateMotionCurves: 0
  m_Events: []
