%YAML 1.1
%TAG !u! tag:unity3d.com,2011:
--- !u!74 &7400000
AnimationClip:
  m_ObjectHideFlags: 0
  m_CorrespondingSourceObject: {fileID: 0}
  m_PrefabInternal: {fileID: 0}
  m_Name: Mirror_Idle_Red
  serializedVersion: 6
  m_Legacy: 0
  m_Compressed: 0
  m_UseHighQualityCurve: 1
  m_RotationCurves: []
  m_CompressedRotationCurves: []
  m_EulerCurves: []
  m_PositionCurves: []
  m_ScaleCurves: []
  m_FloatCurves: []
  m_PPtrCurves:
  - curve:
    - time: 0
      value: {fileID: 21300000, guid: 2d72fd277a4fd5d41850bc4d75e982b2, type: 3}
    - time: 0.125
      value: {fileID: 21300000, guid: fa762ee8c11712b4dbcbdfc06c3e7e79, type: 3}
    - time: 0.25
      value: {fileID: 21300000, guid: 960840c4c17a1734eafc0f660246ab62, type: 3}
    - time: 0.375
      value: {fileID: 21300000, guid: 270060f5bc54fe7489ab415974043f0d, type: 3}
    - time: 0.5
      value: {fileID: 21300000, guid: b454f004c519cd447a200c3a17700e3a, type: 3}
    - time: 0.625
      value: {fileID: 21300000, guid: 1cab7105b67ec1040b714b03a81ef95e, type: 3}
    - time: 0.75
      value: {fileID: 21300000, guid: 714439b70c9ef83449cc994d2e1e073a, type: 3}
    - time: 0.875
      value: {fileID: 21300000, guid: 3d4e02e83f367834489ff84f6c76e977, type: 3}
    attribute: m_Sprite
    path: 
    classID: 212
    script: {fileID: 0}
  m_SampleRate: 8
  m_WrapMode: 0
  m_Bounds:
    m_Center: {x: 0, y: 0, z: 0}
    m_Extent: {x: 0, y: 0, z: 0}
  m_ClipBindingConstant:
    genericBindings:
    - serializedVersion: 2
      path: 0
      attribute: 0
      script: {fileID: 0}
      typeID: 212
      customType: 23
      isPPtrCurve: 1
    pptrCurveMapping:
    - {fileID: 21300000, guid: 2d72fd277a4fd5d41850bc4d75e982b2, type: 3}
    - {fileID: 21300000, guid: fa762ee8c11712b4dbcbdfc06c3e7e79, type: 3}
    - {fileID: 21300000, guid: 960840c4c17a1734eafc0f660246ab62, type: 3}
    - {fileID: 21300000, guid: 270060f5bc54fe7489ab415974043f0d, type: 3}
    - {fileID: 21300000, guid: b454f004c519cd447a200c3a17700e3a, type: 3}
    - {fileID: 21300000, guid: 1cab7105b67ec1040b714b03a81ef95e, type: 3}
    - {fileID: 21300000, guid: 714439b70c9ef83449cc994d2e1e073a, type: 3}
    - {fileID: 21300000, guid: 3d4e02e83f367834489ff84f6c76e977, type: 3}
  m_AnimationClipSettings:
    serializedVersion: 2
    m_AdditiveReferencePoseClip: {fileID: 0}
    m_AdditiveReferencePoseTime: 0
    m_StartTime: 0
    m_StopTime: 1
    m_OrientationOffsetY: 0
    m_Level: 0
    m_CycleOffset: 0
    m_HasAdditiveReferencePose: 0
    m_LoopTime: 1
    m_LoopBlend: 0
    m_LoopBlendOrientation: 0
    m_LoopBlendPositionY: 0
    m_LoopBlendPositionXZ: 0
    m_KeepOriginalOrientation: 0
    m_KeepOriginalPositionY: 1
    m_KeepOriginalPositionXZ: 0
    m_HeightFromFeet: 0
    m_Mirror: 0
  m_EditorCurves: []
  m_EulerEditorCurves: []
  m_HasGenericRootTransform: 0
  m_HasMotionFloatCurves: 0
  m_GenerateMotionCurves: 0
  m_Events: []
