%YAML 1.1
%TAG !u! tag:unity3d.com,2011:
--- !u!74 &7400000
AnimationClip:
  m_ObjectHideFlags: 0
  m_PrefabParentObject: {fileID: 0}
  m_PrefabInternal: {fileID: 0}
  m_Name: ItemLazer
  serializedVersion: 6
  m_Legacy: 0
  m_Compressed: 0
  m_UseHighQualityCurve: 1
  m_RotationCurves: []
  m_CompressedRotationCurves: []
  m_EulerCurves: []
  m_PositionCurves: []
  m_ScaleCurves: []
  m_FloatCurves: []
  m_PPtrCurves:
  - curve:
    - time: 0
      value: {fileID: 21300000, guid: 29abe8dcc8ff5184f975c008ed0c82c1, type: 3}
    - time: 0.8888889
      value: {fileID: 21300000, guid: 29abe8dcc8ff5184f975c008ed0c82c1, type: 3}
    - time: 1
      value: {fileID: 21300000, guid: 29abe8dcc8ff5184f975c008ed0c82c1, type: 3}
    - time: 1.1111112
      value: {fileID: 21300000, guid: 8f097a53685003641bfae9dfcef8b52b, type: 3}
    - time: 1.2222222
      value: {fileID: 21300000, guid: 80517d53b5d64f74ba403692cb9e6189, type: 3}
    - time: 1.3333334
      value: {fileID: 21300000, guid: 57ec711827c7cf840a89c37b39d0a7be, type: 3}
    - time: 1.4444444
      value: {fileID: 21300000, guid: 1151654a4e55e9d40b3f22536777e7eb, type: 3}
    - time: 1.5555556
      value: {fileID: 21300000, guid: 03ae8eacac71d604e9ddec3fcad7bf53, type: 3}
    - time: 1.6666666
      value: {fileID: 21300000, guid: 622256c93cb87c24e936b6b91f69e780, type: 3}
    - time: 1.7777778
      value: {fileID: 21300000, guid: d42347065618530418c517c6159cdc11, type: 3}
    - time: 1.8888888
      value: {fileID: 21300000, guid: 81c692702c9285146b3559717957c19a, type: 3}
    attribute: m_Sprite
    path: 
    classID: 212
    script: {fileID: 0}
  m_SampleRate: 9
  m_WrapMode: 0
  m_Bounds:
    m_Center: {x: 0, y: 0, z: 0}
    m_Extent: {x: 0, y: 0, z: 0}
  m_ClipBindingConstant:
    genericBindings:
    - serializedVersion: 2
      path: 0
      attribute: 0
      script: {fileID: 0}
      typeID: 212
      customType: 23
      isPPtrCurve: 1
    pptrCurveMapping:
    - {fileID: 21300000, guid: 29abe8dcc8ff5184f975c008ed0c82c1, type: 3}
    - {fileID: 21300000, guid: 29abe8dcc8ff5184f975c008ed0c82c1, type: 3}
    - {fileID: 21300000, guid: 29abe8dcc8ff5184f975c008ed0c82c1, type: 3}
    - {fileID: 21300000, guid: 8f097a53685003641bfae9dfcef8b52b, type: 3}
    - {fileID: 21300000, guid: 80517d53b5d64f74ba403692cb9e6189, type: 3}
    - {fileID: 21300000, guid: 57ec711827c7cf840a89c37b39d0a7be, type: 3}
    - {fileID: 21300000, guid: 1151654a4e55e9d40b3f22536777e7eb, type: 3}
    - {fileID: 21300000, guid: 03ae8eacac71d604e9ddec3fcad7bf53, type: 3}
    - {fileID: 21300000, guid: 622256c93cb87c24e936b6b91f69e780, type: 3}
    - {fileID: 21300000, guid: d42347065618530418c517c6159cdc11, type: 3}
    - {fileID: 21300000, guid: 81c692702c9285146b3559717957c19a, type: 3}
  m_AnimationClipSettings:
    serializedVersion: 2
    m_AdditiveReferencePoseClip: {fileID: 0}
    m_AdditiveReferencePoseTime: 0
    m_StartTime: 0
    m_StopTime: 2
    m_OrientationOffsetY: 0
    m_Level: 0
    m_CycleOffset: 0
    m_HasAdditiveReferencePose: 0
    m_LoopTime: 1
    m_LoopBlend: 0
    m_LoopBlendOrientation: 0
    m_LoopBlendPositionY: 0
    m_LoopBlendPositionXZ: 0
    m_KeepOriginalOrientation: 0
    m_KeepOriginalPositionY: 1
    m_KeepOriginalPositionXZ: 0
    m_HeightFromFeet: 0
    m_Mirror: 0
  m_EditorCurves: []
  m_EulerEditorCurves: []
  m_HasGenericRootTransform: 0
  m_HasMotionFloatCurves: 0
  m_GenerateMotionCurves: 0
  m_Events: []
