%YAML 1.1
%TAG !u! tag:unity3d.com,2011:
--- !u!1001 &100100000
Prefab:
  m_ObjectHideFlags: 1
  serializedVersion: 2
  m_Modification:
    m_TransformParent: {fileID: 0}
    m_Modifications: []
    m_RemovedComponents: []
  m_SourcePrefab: {fileID: 0}
  m_RootGameObject: {fileID: 1027119285122798}
  m_IsPrefabAsset: 1
--- !u!1 &1027119285122798
GameObject:
  m_ObjectHideFlags: 0
  m_CorrespondingSourceObject: {fileID: 0}
  m_PrefabInternal: {fileID: 100100000}
  serializedVersion: 6
  m_Component:
  - component: {fileID: 4414867879857122}
  - component: {fileID: 114510999176320802}
  m_Layer: 0
  m_Name: WaveCacheTournament
  m_TagString: Untagged
  m_Icon: {fileID: 0}
  m_NavMeshLayer: 0
  m_StaticEditorFlags: 0
  m_IsActive: 1
--- !u!4 &4414867879857122
Transform:
  m_ObjectHideFlags: 1
  m_CorrespondingSourceObject: {fileID: 0}
  m_PrefabInternal: {fileID: 100100000}
  m_GameObject: {fileID: 1027119285122798}
  m_LocalRotation: {x: -0, y: -0, z: -0, w: 1}
  m_LocalPosition: {x: 0, y: 0, z: 0}
  m_LocalScale: {x: 1, y: 1, z: 1}
  m_Children: []
  m_Father: {fileID: 0}
  m_RootOrder: 0
  m_LocalEulerAnglesHint: {x: 0, y: 0, z: 0}
--- !u!114 &114510999176320802
MonoBehaviour:
  m_ObjectHideFlags: 1
  m_CorrespondingSourceObject: {fileID: 0}
  m_PrefabInternal: {fileID: 100100000}
  m_GameObject: {fileID: 1027119285122798}
  m_Enabled: 1
  m_EditorHideFlags: 0
  m_Script: {fileID: 11500000, guid: e8bd4a4ef695a4a0bad18c007751e5ca, type: 3}
  m_Name: 
  m_EditorClassIdentifier: 
  serializationData:
    SerializedFormat: 2
    SerializedBytes: 
    ReferencedUnityObjects: []
    SerializedBytesString: 
    Prefab: {fileID: 0}
    PrefabModificationsReferencedUnityObjects: []
    PrefabModifications: []
    SerializationNodes: []
  isEndless: 0
  background: {fileID: 1701668113693432, guid: 174752bcd83ff04489195b4b8e57c0d8, type: 2}
  levelManager: {fileID: 0}
  zigZags:
  - zigzag: 1,2,3,4
    coeff: 1
  - zigzag: 5,6,7,8
    coeff: 1.25
  - zigzag: 9,10,11,12
    coeff: 1
  - zigzag: 13,14,15,16
    coeff: 1.25
  wavePrefabos:
  - hardLevel: 1
    gos:
    - {fileID: 1623692948932496, guid: 5b8d348c9d636bf43be32c957d8cbbc0, type: 2}
    - {fileID: 1018115694247656, guid: 97892de4679951046ac8db977b77150c, type: 2}
    - {fileID: 1694928323241784, guid: 7835e8fa8da1f514a8c04cd46267706a, type: 2}
    - {fileID: 1366326109392018, guid: a8a0923f80a1bf14aad84a2c63f59585, type: 2}
    - {fileID: 1174735164152710, guid: fc1fff2e6df2ff947b86a2df3dc5c745, type: 2}
    - {fileID: 1586462031955870, guid: ee619a9fa1cb4c04597e14799d3896b6, type: 2}
  - hardLevel: 2
    gos:
    - {fileID: 1474176928164656, guid: fe0e9d7846a88844c9beeda4fcf54701, type: 2}
    - {fileID: 1174735164152710, guid: 862972841b8c1cb48a2dc5e92c3e4417, type: 2}
    - {fileID: 1586462031955870, guid: 2a1e26cbcdc146943ad469da0a5fb207, type: 2}
    - {fileID: 1315759512264858, guid: a7a0965d6c2bce64a8addec1c571ead7, type: 2}
    - {fileID: 1487638275745154, guid: d9a230d49499d1147a84cf0804b0f4e0, type: 2}
    - {fileID: 1793076428116138, guid: 7db4333cde40e2347a7f175ec24eaeb8, type: 2}
    - {fileID: 1517506862848970, guid: 217cdc8662943ac4f9e29570b928e427, type: 2}
  - hardLevel: 3
    gos:
    - {fileID: 1704196826371784, guid: 23f4efb5f2e305343a6d668779698d56, type: 2}
    - {fileID: 1142130820088500, guid: 789184620492d7f46b9a5f26b18f9cf2, type: 2}
    - {fileID: 1286094092935836, guid: e908d3bcbb1710a4e81d46f144d3fe5c, type: 2}
    - {fileID: 1349607550605356, guid: 9913ecf80d5ba8e40bc4c2b41554f973, type: 2}
    - {fileID: 1168590010913034, guid: 3c9090885c7648e41a42be8ab3b28062, type: 2}
    - {fileID: 1737538825963154, guid: c2087a08d357a0e4483f00c782c02be7, type: 2}
    - {fileID: 1704196826371784, guid: 258cba666e9b6da428fa98ddc3f4a908, type: 2}
  - hardLevel: 4
    gos:
    - {fileID: 1277510841974748, guid: 68a48a0a88b4d7849a139bc02a1f4d31, type: 2}
    - {fileID: 1657761495198390, guid: 483a91a495ef60148b99715e277c0340, type: 2}
    - {fileID: 1669611747017662, guid: 4170bba61da9e4e449ca8e102bd4a2c6, type: 2}
    - {fileID: 1594250540487982, guid: 612a0ff0a8f8e264aac0aa1ac33fdcdd, type: 2}
    - {fileID: 1753155695923268, guid: 86b38340bccc0664faa1842b467a7d02, type: 2}
    - {fileID: 1333849093325150, guid: 13af3b66ffc2bf04f83df9f2413e98d9, type: 2}
  - hardLevel: 5
    gos:
    - {fileID: 1674681030012640, guid: c5fac8f13f4b75c4396e2a65b14b4da8, type: 2}
    - {fileID: 1741118615309698, guid: 9b90bf5b0b8e6094ab09a1d55dc3abfd, type: 2}
    - {fileID: 1237339973238846, guid: a505467f27cf1024c8ca62f1f0cc965e, type: 2}
    - {fileID: 1853839783662220, guid: 1933a2ee99cf4c04983dd47b259d89e0, type: 2}
    - {fileID: 1392545209747822, guid: a33391eb38f7bdb4b8da0fe4a425a639, type: 2}
    - {fileID: 1556452746669842, guid: 4e4987dd6835ad64482e9c7540e12954, type: 2}
  - hardLevel: 6
    gos:
    - {fileID: 1286094092935836, guid: fc8be96fb24efd7478645fefb5c76dac, type: 2}
    - {fileID: 1142130820088500, guid: 1bb80b5376e00bf40929a7bb5e4e3afa, type: 2}
    - {fileID: 1564548029540934, guid: 5acd0b3927def074bb28ea37be3d1501, type: 2}
    - {fileID: 1394765775193556, guid: 5df7c66b352195244901f28c73004e90, type: 2}
    - {fileID: 1673022366247892, guid: cb07509b53619ef4f9282081a01ee58e, type: 2}
    - {fileID: 1861585243114058, guid: b28b85c3fe794ad4e829a5cea664d1c7, type: 2}
  - hardLevel: 7
    gos:
    - {fileID: 1523748183480204, guid: a33199af6b2bb714bb55669e38930a58, type: 2}
    - {fileID: 1456476824553378, guid: 1b1f8dcadee4a5e4ba2dbd44d763a3cb, type: 2}
    - {fileID: 1699293171044198, guid: 0a19926b44b7cb1468915742b51d46b4, type: 2}
    - {fileID: 1449269808049160, guid: 5b5c13035da084a46a5b380a5c43f7e3, type: 2}
    - {fileID: 1590805439134378, guid: e54f965799cdaf1468bc182d1c508cf9, type: 2}
  - hardLevel: 8
    gos:
    - {fileID: 1245260238550318, guid: 86f46fd6d7836fb4cbd63efa6c57f617, type: 2}
    - {fileID: 1542269041113108, guid: a11e67a9473a8fe40a72c59be469a862, type: 2}
    - {fileID: 1263509966376480, guid: 0554b6d32ae74ac44a069bba0782a01d, type: 2}
    - {fileID: 1561283865344884, guid: a2700f6c1a3e3e946b277b33168c69fd, type: 2}
    - {fileID: 1023438389067120, guid: 6fcaa1d91363a1a4c83e2fb6349ff6fd, type: 2}
    - {fileID: 1171330462801840, guid: 2c7aed01d44030044a6badf7549e8b1d, type: 2}
  - hardLevel: 9
    gos:
    - {fileID: 1551793695308806, guid: b8dac429bcc28794f8fcd3c379d905fa, type: 2}
    - {fileID: 1036509130909746, guid: 459cecc8b7ed0ce4aa751bda49a97bdf, type: 2}
    - {fileID: 1134363297161120, guid: d97f6a70dc2582340a075edd20832b16, type: 2}
  - hardLevel: 10
    gos:
    - {fileID: 1573215085689962, guid: 140c5413c1707094987aaa44c4e0f709, type: 2}
    - {fileID: 1163899235541846, guid: 01cc2b19ac62c1a4e96d5db871264859, type: 2}
    - {fileID: 1570441792887736, guid: 457b02620af94a947bb9cd7141bf3aa9, type: 2}
    - {fileID: 1298557745925226, guid: 7d22d6e6dfb8ec3498f6330e940c868f, type: 2}
    - {fileID: 1701185318492686, guid: 450c8bf7f748cc14a8d1f233059d9f17, type: 2}
    - {fileID: 1308589025020932, guid: bda05d1b732e45f4d9d669ecffcb5624, type: 2}
    - {fileID: 1102739785135942, guid: 4d1dc9b139a7b7a439674a52701ed9e3, type: 2}
  - hardLevel: 11
    gos:
    - {fileID: 1024973260912728, guid: ecb5f09c797fa4c4aa4c92c720ff603d, type: 2}
    - {fileID: 1662679146705146, guid: 49df68d699c196040b9ef733470240c8, type: 2}
    - {fileID: 1197869845453784, guid: 19ab2a469e206d54f8fccf38c2fb3edb, type: 2}
    - {fileID: 1956199858045798, guid: 0c191edc19adc2642b57bf32fa5dac2b, type: 2}
    - {fileID: 1342065566062178, guid: d91a8e18b5921774988927006fcc6161, type: 2}
    - {fileID: 1597323342072622, guid: 260014879ca2e6f4a9cc2708574fb3dd, type: 2}
  - hardLevel: 12
    gos:
    - {fileID: 1439702073247860, guid: de4b221d7ef45024db628af77417406e, type: 2}
    - {fileID: 1033046259070254, guid: 2bf9126c1574bb9459f044cd93f9d38b, type: 2}
    - {fileID: 1756299015561702, guid: 7fd8797d7391dd94ab00ff477f16b5c2, type: 2}
    - {fileID: 1458040407387926, guid: 7548f3f0e1965ca45ad0f6171cb4e909, type: 2}
    - {fileID: 1870798926481258, guid: 21b654fd8bc52a348b08fb6c7511ae6b, type: 2}
    - {fileID: 1902474532132724, guid: f5aa9c4da11cf7c4f9385d82e453bd56, type: 2}
    - {fileID: 1894322912414104, guid: e47c70edb441a204dbf7c44c1bf437e8, type: 2}
  - hardLevel: 13
    gos:
    - {fileID: 1156928896023478, guid: fa099f6ffbd4478469da4df6d9c2c779, type: 2}
    - {fileID: 1961055524730032, guid: 358e4719d976eb541a27068ddf258fdf, type: 2}
    - {fileID: 1901087233499280, guid: 193a811a3bade234aaceb8de2513f056, type: 2}
    - {fileID: 1445657498399104, guid: e1df78ddfcf2ae040986ea111c0b3874, type: 2}
    - {fileID: 1559009727682640, guid: 98a04901db8942742985353b49b73435, type: 2}
    - {fileID: 1967096079542870, guid: 7b6bb32f126e41e4bb6b91cde9709dae, type: 2}
  - hardLevel: 14
    gos:
    - {fileID: 1989746593552012, guid: 5c0f04a3766090743b67c40bd4f583da, type: 2}
    - {fileID: 1034721177988366, guid: 4a08fbb502f93614db5545a2bbd9ce1c, type: 2}
    - {fileID: 1801931998867248, guid: c1dab471ba2b5f3418319672555c928c, type: 2}
    - {fileID: 1207220349784736, guid: 9be4f1d95f39b4c42b6204d5e2fceeba, type: 2}
    - {fileID: 1413500026669970, guid: 312d70be93de98f42aa24a4149a2513f, type: 2}
    - {fileID: 1696423323601758, guid: f865de13a67646844b29522e72239ebc, type: 2}
    - {fileID: 1082246328150194, guid: 240667156f7de29428dfb5c177b98907, type: 2}
  - hardLevel: 15
    gos:
    - {fileID: 1962204210231834, guid: 8a720b131925c2542a71483aa4fea6e8, type: 2}
    - {fileID: 1002131706897538, guid: b326cd41d8421da438a365d5f8995265, type: 2}
    - {fileID: 1592364991376498, guid: 04ff616fa0e285e448ea675c152497b1, type: 2}
    - {fileID: 1610620993032318, guid: 67c131cbecb875e459a1074204a942a4, type: 2}
    - {fileID: 1438133145748830, guid: f47083905ff9e6e46816de0d12fe1ebb, type: 2}
    - {fileID: 1768131816282306, guid: e7ebb2339f6e9c4498f89488861a2074, type: 2}
    - {fileID: 1316936212629494, guid: a264f93497508064da7033446ba55df9, type: 2}
  - hardLevel: 16
    gos:
    - {fileID: 1024973260912728, guid: ecb5f09c797fa4c4aa4c92c720ff603d, type: 2}
    - {fileID: 1662679146705146, guid: 49df68d699c196040b9ef733470240c8, type: 2}
    - {fileID: 1197869845453784, guid: 19ab2a469e206d54f8fccf38c2fb3edb, type: 2}
    - {fileID: 1956199858045798, guid: 0c191edc19adc2642b57bf32fa5dac2b, type: 2}
    - {fileID: 1342065566062178, guid: d91a8e18b5921774988927006fcc6161, type: 2}
    - {fileID: 1597323342072622, guid: 260014879ca2e6f4a9cc2708574fb3dd, type: 2}
  MAX_INIT_WAVE: 20
  limitOfEnemy: []
