%YAML 1.1
%TAG !u! tag:unity3d.com,2011:
--- !u!1001 &100100000
Prefab:
  m_ObjectHideFlags: 1
  serializedVersion: 2
  m_Modification:
    m_TransformParent: {fileID: 0}
    m_Modifications: []
    m_RemovedComponents: []
  m_ParentPrefab: {fileID: 0}
  m_RootGameObject: {fileID: 1087400915180300}
  m_IsPrefabParent: 1
--- !u!1 &1087400915180300
GameObject:
  m_ObjectHideFlags: 0
  m_PrefabParentObject: {fileID: 0}
  m_PrefabInternal: {fileID: 100100000}
  serializedVersion: 5
  m_Component:
  - component: {fileID: 4572481434240782}
  m_Layer: 0
  m_Name: PvPLevelManagerBronze
  m_TagString: Untagged
  m_Icon: {fileID: 0}
  m_NavMeshLayer: 0
  m_StaticEditorFlags: 0
  m_IsActive: 1
--- !u!1 &1118030830769126
GameObject:
  m_ObjectHideFlags: 0
  m_PrefabParentObject: {fileID: 0}
  m_PrefabInternal: {fileID: 100100000}
  serializedVersion: 5
  m_Component:
  - component: {fileID: 4644134462008732}
  - component: {fileID: 114891157050335058}
  m_Layer: 0
  m_Name: WaveCache1Bronze
  m_TagString: Untagged
  m_Icon: {fileID: 0}
  m_NavMeshLayer: 0
  m_StaticEditorFlags: 0
  m_IsActive: 1
--- !u!1 &1785275572090680
GameObject:
  m_ObjectHideFlags: 0
  m_PrefabParentObject: {fileID: 0}
  m_PrefabInternal: {fileID: 100100000}
  serializedVersion: 5
  m_Component:
  - component: {fileID: 4060751505471212}
  - component: {fileID: 114872547951214138}
  - component: {fileID: 114148250448841168}
  m_Layer: 0
  m_Name: LevelManager
  m_TagString: Untagged
  m_Icon: {fileID: 0}
  m_NavMeshLayer: 0
  m_StaticEditorFlags: 0
  m_IsActive: 1
--- !u!1 &1956151786754202
GameObject:
  m_ObjectHideFlags: 1
  m_PrefabParentObject: {fileID: 0}
  m_PrefabInternal: {fileID: 100100000}
  serializedVersion: 5
  m_Component:
  - component: {fileID: 4543842717876818}
  - component: {fileID: 114632338946561028}
  m_Layer: 0
  m_Name: W_0
  m_TagString: Untagged
  m_Icon: {fileID: 0}
  m_NavMeshLayer: 0
  m_StaticEditorFlags: 0
  m_IsActive: 1
--- !u!4 &4060751505471212
Transform:
  m_ObjectHideFlags: 1
  m_PrefabParentObject: {fileID: 0}
  m_PrefabInternal: {fileID: 100100000}
  m_GameObject: {fileID: 1785275572090680}
  m_LocalRotation: {x: -0, y: -0, z: -0, w: 1}
  m_LocalPosition: {x: 0.15159358, y: -0.022542385, z: -0.04340419}
  m_LocalScale: {x: 1, y: 1, z: 1}
  m_Children:
  - {fileID: 4543842717876818}
  m_Father: {fileID: 4572481434240782}
  m_RootOrder: 0
  m_LocalEulerAnglesHint: {x: 0, y: 0, z: 0}
--- !u!4 &4543842717876818
Transform:
  m_ObjectHideFlags: 1
  m_PrefabParentObject: {fileID: 0}
  m_PrefabInternal: {fileID: 100100000}
  m_GameObject: {fileID: 1956151786754202}
  m_LocalRotation: {x: -0, y: -0, z: -0, w: 1}
  m_LocalPosition: {x: 0, y: 0, z: 0}
  m_LocalScale: {x: 1, y: 1, z: 1}
  m_Children: []
  m_Father: {fileID: 4060751505471212}
  m_RootOrder: 0
  m_LocalEulerAnglesHint: {x: 0, y: 0, z: 0}
--- !u!4 &4572481434240782
Transform:
  m_ObjectHideFlags: 1
  m_PrefabParentObject: {fileID: 0}
  m_PrefabInternal: {fileID: 100100000}
  m_GameObject: {fileID: 1087400915180300}
  m_LocalRotation: {x: -0, y: -0, z: -0, w: 1}
  m_LocalPosition: {x: -0.15159358, y: 0.022542385, z: 0.04340419}
  m_LocalScale: {x: 1, y: 1, z: 1}
  m_Children:
  - {fileID: 4060751505471212}
  - {fileID: 4644134462008732}
  m_Father: {fileID: 0}
  m_RootOrder: 0
  m_LocalEulerAnglesHint: {x: 0, y: 0, z: 0}
--- !u!4 &4644134462008732
Transform:
  m_ObjectHideFlags: 1
  m_PrefabParentObject: {fileID: 0}
  m_PrefabInternal: {fileID: 100100000}
  m_GameObject: {fileID: 1118030830769126}
  m_LocalRotation: {x: -0, y: -0, z: -0, w: 1}
  m_LocalPosition: {x: 0, y: 0, z: 0}
  m_LocalScale: {x: 1, y: 1, z: 1}
  m_Children: []
  m_Father: {fileID: 4572481434240782}
  m_RootOrder: 1
  m_LocalEulerAnglesHint: {x: 0, y: 0, z: 0}
--- !u!114 &114148250448841168
MonoBehaviour:
  m_ObjectHideFlags: 1
  m_PrefabParentObject: {fileID: 0}
  m_PrefabInternal: {fileID: 100100000}
  m_GameObject: {fileID: 1785275572090680}
  m_Enabled: 1
  m_EditorHideFlags: 0
  m_Script: {fileID: 11500000, guid: 82e2d5ab99c12c241a7647524f4fe753, type: 3}
  m_Name: 
  m_EditorClassIdentifier: 
--- !u!114 &114632338946561028
MonoBehaviour:
  m_ObjectHideFlags: 1
  m_PrefabParentObject: {fileID: 0}
  m_PrefabInternal: {fileID: 100100000}
  m_GameObject: {fileID: 1956151786754202}
  m_Enabled: 1
  m_EditorHideFlags: 0
  m_Script: {fileID: 11500000, guid: fc7a5de42f2567642b9024df07f4b5dd, type: 3}
  m_Name: 
  m_EditorClassIdentifier: 
  StartTurnAsync: 0
  mTM: []
--- !u!114 &114872547951214138
MonoBehaviour:
  m_ObjectHideFlags: 1
  m_PrefabParentObject: {fileID: 0}
  m_PrefabInternal: {fileID: 100100000}
  m_GameObject: {fileID: 1785275572090680}
  m_Enabled: 1
  m_EditorHideFlags: 0
  m_Script: {fileID: 11500000, guid: 3c340694319fad54f869c3e6449c8ecf, type: 3}
  m_Name: 
  m_EditorClassIdentifier: 
  m_AliveEnemy: 0
  m_TotalEnemyHp: 0
  currentWave: 0
--- !u!114 &114891157050335058
MonoBehaviour:
  m_ObjectHideFlags: 1
  m_PrefabParentObject: {fileID: 0}
  m_PrefabInternal: {fileID: 100100000}
  m_GameObject: {fileID: 1118030830769126}
  m_Enabled: 1
  m_EditorHideFlags: 0
  m_Script: {fileID: 11500000, guid: e8bd4a4ef695a4a0bad18c007751e5ca, type: 3}
  m_Name: 
  m_EditorClassIdentifier: 
  serializationData:
    SerializedFormat: 2
    SerializedBytes: 
    ReferencedUnityObjects: []
    SerializedBytesString: 
    Prefab: {fileID: 0}
    PrefabModificationsReferencedUnityObjects: []
    PrefabModifications: []
    SerializationNodes: []
  isEndless: 1
  background: {fileID: 1475880150091292, guid: 0d5d0a31fcd155549aaaec69ac5000d8, type: 2}
  levelManager: {fileID: 114872547951214138}
  zigZags:
  - zigzag: 1,2,3,4
    coeff: 1
  - zigzag: 5,6,7,8
    coeff: 1
  - zigzag: 9,10,11
    coeff: 1
  - zigzag: 12,13
    coeff: 1
  - zigzag: 11,13
    coeff: 1
  - zigzag: 12,13
    coeff: 1
  - zigzag: 11,13
    coeff: 1
  - zigzag: 12,13
    coeff: 1
  - zigzag: 11,13
    coeff: 1
  - zigzag: 12,13
    coeff: 1
  wavePrefabos:
  - hardLevel: 1
    gos:
    - {fileID: 1670275164927366, guid: fdeca96bf692c024c96ab57ce7f889be, type: 2}
    - {fileID: 1187950247817914, guid: e11c86177a0b12e438710501dcfa3e43, type: 2}
    - {fileID: 1784845661997310, guid: 2f4eac4928942ce4aa6b579374ced003, type: 2}
  - hardLevel: 2
    gos:
    - {fileID: 1257387185702638, guid: 225671c3fff8cdb489f112613d5a2037, type: 2}
    - {fileID: 1767220776810254, guid: d487af746a0035e4ab509bffba72f71d, type: 2}
    - {fileID: 1721072992877390, guid: b1b98444b047f624b826c83bce0e0124, type: 2}
  - hardLevel: 3
    gos:
    - {fileID: 1168528796751526, guid: 4da46647594cdad48b33753033d8d65d, type: 2}
    - {fileID: 1685917563299462, guid: b33d6346a60584f42b8752ba011be57b, type: 2}
    - {fileID: 1643322517988994, guid: 7b3c9073cc620244792844ecebec70ca, type: 2}
  - hardLevel: 4
    gos:
    - {fileID: 1709474712667500, guid: 818c109ad83a3de45b7416c4a84449ed, type: 2}
    - {fileID: 1231556877545318, guid: 9ac244c1f9a5615488b2411a1e54b4f2, type: 2}
    - {fileID: 1885248308964384, guid: c66f85121f24b5e4c9a40d6c2a57e35a, type: 2}
    - {fileID: 1709474712667500, guid: 0db44c9282e6ff3488e79aa9feda655e, type: 2}
    - {fileID: 1709474712667500, guid: 1dd502fe67e9d9b4a8dbf6bf6e2529dd, type: 2}
    - {fileID: 1709474712667500, guid: d1b47718a9c849e4c9c6141c3f43eaf1, type: 2}
  - hardLevel: 5
    gos:
    - {fileID: 1122613198168426, guid: d32321a91d10c7b40845e828db62faaf, type: 2}
    - {fileID: 1040136170236674, guid: 57cd073f625cc3d408f817e6c9cb9008, type: 2}
    - {fileID: 1643322517988994, guid: 7b3c9073cc620244792844ecebec70ca, type: 2}
  - hardLevel: 6
    gos:
    - {fileID: 1775674367049676, guid: 99712863f03d5ac4490d31f41145935f, type: 2}
    - {fileID: 1255777992457028, guid: f577c1511c5f6924882d78dc59944cd1, type: 2}
    - {fileID: 1033106594431514, guid: f37931ea9a2c69e438e37b9540fc5bc4, type: 2}
  - hardLevel: 7
    gos:
    - {fileID: 1728375559667668, guid: e3997fd6b6f4a444a9fa7a92fc9f4ef6, type: 2}
    - {fileID: 1262429748952672, guid: 6c2c994b981d62a42be252d9d5645f06, type: 2}
    - {fileID: 1140369319269136, guid: 8348458a3f45f0b4ba397bc0462544fd, type: 2}
  - hardLevel: 8
    gos:
    - {fileID: 1451596884859392, guid: 54cbccbe1f799cc4fa1a7d739ff83be7, type: 2}
    - {fileID: 1428723869536930, guid: e50dbeacc9f420b4887da6a814473575, type: 2}
    - {fileID: 1865802735438006, guid: 1940879e7d9ca714ea4cb732131abdbb, type: 2}
    - {fileID: 1709474712667500, guid: cc881f3c4647ea246b3cecfa264ba516, type: 2}
    - {fileID: 1709474712667500, guid: d8ef39e5ce7cb494cbd9f1dea8192503, type: 2}
    - {fileID: 1709474712667500, guid: 174d45bbeec2a2147b8c3af9461397cb, type: 2}
  - hardLevel: 9
    gos:
    - {fileID: 1518971116423216, guid: 7b8a4e266daf1c247858e0844157794c, type: 2}
    - {fileID: 1609412901095004, guid: 70d96dc70ad4b0147b1c4f7a7675c62f, type: 2}
    - {fileID: 1919434820902168, guid: adc8d9cea8fcf2c4a9d23a9711f439b6, type: 2}
  - hardLevel: 10
    gos:
    - {fileID: 1538646048578284, guid: 386e119e8bf191b469f6ffc6fb4b6eb3, type: 2}
    - {fileID: 1787131599207624, guid: cfd4bd202769cc843884551eb6f42df9, type: 2}
    - {fileID: 1772078301576248, guid: 5af217dacf16f17438cae407718e5e5d, type: 2}
  - hardLevel: 11
    gos:
    - {fileID: 1089008797177576, guid: 7010a37246497c84b9d31812724f4cbc, type: 2}
    - {fileID: 1861896399036154, guid: 5bd628e6cf6a95b438149dc33353ea70, type: 2}
    - {fileID: 1275390251797508, guid: 140cd1c1bd449764198b76b3115cf908, type: 2}
  - hardLevel: 12
    gos:
    - {fileID: 1825554654249986, guid: 6fa99e3e1a2f9bf4290525d15f7fc8db, type: 2}
    - {fileID: 1273711227111660, guid: cd4c384b35851584cb511d12bb41eefe, type: 2}
    - {fileID: 1275390251797508, guid: 140cd1c1bd449764198b76b3115cf908, type: 2}
  - hardLevel: 13
    gos:
    - {fileID: 1117608442404302, guid: fd316b4e6ee939742be9c25797a0ccdb, type: 2}
    - {fileID: 1460293305433776, guid: 0e2ec070888b4a944b796877c4096cff, type: 2}
    - {fileID: 1150257841687816, guid: bc57aa5fa25a53d4fa6972c08b9bc907, type: 2}
    - {fileID: 1150257841687816, guid: 3c9262bffd202cb418b418495c2ea94b, type: 2}
    - {fileID: 1117608442404302, guid: 1004e566c5f1a7749a878a0a91fdce37, type: 2}
    - {fileID: 1460293305433776, guid: a7a3404307ec64c4e9742ec061a57b4c, type: 2}
