%YAML 1.1
%TAG !u! tag:unity3d.com,2011:
--- !u!29 &1
OcclusionCullingSettings:
  m_ObjectHideFlags: 0
  serializedVersion: 2
  m_OcclusionBakeSettings:
    smallestOccluder: 5
    smallestHole: 0.25
    backfaceThreshold: 100
  m_SceneGUID: 00000000000000000000000000000000
  m_OcclusionCullingData: {fileID: 0}
--- !u!104 &2
RenderSettings:
  m_ObjectHideFlags: 0
  serializedVersion: 8
  m_Fog: 0
  m_FogColor: {r: 0.5, g: 0.5, b: 0.5, a: 1}
  m_FogMode: 3
  m_FogDensity: 0.01
  m_LinearFogStart: 0
  m_LinearFogEnd: 300
  m_AmbientSkyColor: {r: 0.2, g: 0.2, b: 0.2, a: 1}
  m_AmbientEquatorColor: {r: 0.2, g: 0.2, b: 0.2, a: 1}
  m_AmbientGroundColor: {r: 0.2, g: 0.2, b: 0.2, a: 1}
  m_AmbientIntensity: 1
  m_AmbientMode: 3
  m_SubtractiveShadowColor: {r: 0.42, g: 0.478, b: 0.627, a: 1}
  m_SkyboxMaterial: {fileID: 0}
  m_HaloStrength: 0.5
  m_FlareStrength: 1
  m_FlareFadeSpeed: 3
  m_HaloTexture: {fileID: 0}
  m_SpotCookie: {fileID: 10001, guid: 0000000000000000e000000000000000, type: 0}
  m_DefaultReflectionMode: 0
  m_DefaultReflectionResolution: 128
  m_ReflectionBounces: 1
  m_ReflectionIntensity: 1
  m_CustomReflection: {fileID: 0}
  m_Sun: {fileID: 0}
  m_IndirectSpecularColor: {r: 0, g: 0, b: 0, a: 1}
--- !u!157 &4
LightmapSettings:
  m_ObjectHideFlags: 0
  serializedVersion: 11
  m_GIWorkflowMode: 1
  m_GISettings:
    serializedVersion: 2
    m_BounceScale: 1
    m_IndirectOutputScale: 1
    m_AlbedoBoost: 1
    m_TemporalCoherenceThreshold: 1
    m_EnvironmentLightingMode: 0
    m_EnableBakedLightmaps: 1
    m_EnableRealtimeLightmaps: 0
  m_LightmapEditorSettings:
    serializedVersion: 9
    m_Resolution: 1
    m_BakeResolution: 50
    m_TextureWidth: 1024
    m_TextureHeight: 1024
    m_AO: 0
    m_AOMaxDistance: 1
    m_CompAOExponent: 0
    m_CompAOExponentDirect: 0
    m_Padding: 2
    m_LightmapParameters: {fileID: 0}
    m_LightmapsBakeMode: 1
    m_TextureCompression: 0
    m_FinalGather: 0
    m_FinalGatherFiltering: 1
    m_FinalGatherRayCount: 1024
    m_ReflectionCompression: 2
    m_MixedBakeMode: 1
    m_BakeBackend: 0
    m_PVRSampling: 1
    m_PVRDirectSampleCount: 32
    m_PVRSampleCount: 500
    m_PVRBounces: 2
    m_PVRFilterTypeDirect: 0
    m_PVRFilterTypeIndirect: 0
    m_PVRFilterTypeAO: 0
    m_PVRFilteringMode: 1
    m_PVRCulling: 1
    m_PVRFilteringGaussRadiusDirect: 1
    m_PVRFilteringGaussRadiusIndirect: 5
    m_PVRFilteringGaussRadiusAO: 2
    m_PVRFilteringAtrousPositionSigmaDirect: 0.5
    m_PVRFilteringAtrousPositionSigmaIndirect: 2
    m_PVRFilteringAtrousPositionSigmaAO: 1
    m_ShowResolutionOverlay: 1
  m_LightingDataAsset: {fileID: 0}
  m_UseShadowmask: 1
--- !u!196 &5
NavMeshSettings:
  serializedVersion: 2
  m_ObjectHideFlags: 0
  m_BuildSettings:
    serializedVersion: 2
    agentTypeID: 0
    agentRadius: 0.5
    agentHeight: 2
    agentSlope: 45
    agentClimb: 0.4
    ledgeDropHeight: 0
    maxJumpAcrossDistance: 0
    minRegionArea: 2
    manualCellSize: 0
    cellSize: 0.16666666
    manualTileSize: 0
    tileSize: 256
    accuratePlacement: 0
    debug:
      m_Flags: 0
  m_NavMeshData: {fileID: 0}
--- !u!1 &39170298
GameObject:
  m_ObjectHideFlags: 0
  m_PrefabParentObject: {fileID: 0}
  m_PrefabInternal: {fileID: 0}
  serializedVersion: 5
  m_Component:
  - component: {fileID: 39170299}
  - component: {fileID: 39170300}
  m_Layer: 0
  m_Name: ItemPool
  m_TagString: Untagged
  m_Icon: {fileID: 0}
  m_NavMeshLayer: 0
  m_StaticEditorFlags: 0
  m_IsActive: 1
--- !u!4 &39170299
Transform:
  m_ObjectHideFlags: 0
  m_PrefabParentObject: {fileID: 0}
  m_PrefabInternal: {fileID: 0}
  m_GameObject: {fileID: 39170298}
  m_LocalRotation: {x: -0, y: -0, z: -0, w: 1}
  m_LocalPosition: {x: 0, y: 0, z: 0}
  m_LocalScale: {x: 1, y: 1, z: 1}
  m_Children: []
  m_Father: {fileID: 2139410602}
  m_RootOrder: 2
  m_LocalEulerAnglesHint: {x: 0, y: 0, z: 0}
--- !u!114 &39170300
MonoBehaviour:
  m_ObjectHideFlags: 0
  m_PrefabParentObject: {fileID: 0}
  m_PrefabInternal: {fileID: 0}
  m_GameObject: {fileID: 39170298}
  m_Enabled: 1
  m_EditorHideFlags: 0
  m_Script: {fileID: 11500000, guid: 59dfbc0f4f3a98b4ebf4ad40fc3f43aa, type: 3}
  m_Name: 
  m_EditorClassIdentifier: 
  poolName: ItemPool
  matchPoolScale: 0
  matchPoolLayer: 0
  dontReparent: 0
  _dontDestroyOnLoad: 0
  logMessages: 0
  _perPrefabPoolOptions: []
  maxParticleDespawnTime: 300
--- !u!1001 &62082116
Prefab:
  m_ObjectHideFlags: 0
  serializedVersion: 2
  m_Modification:
    m_TransformParent: {fileID: 0}
    m_Modifications:
    - target: {fileID: 224061845191301312, guid: d22d6bedcec38c542b87100079f4bed8,
        type: 2}
      propertyPath: m_RootOrder
      value: 4
      objectReference: {fileID: 0}
    - target: {fileID: 224061845191301312, guid: d22d6bedcec38c542b87100079f4bed8,
        type: 2}
      propertyPath: m_LocalPosition.x
      value: 0
      objectReference: {fileID: 0}
    - target: {fileID: 224061845191301312, guid: d22d6bedcec38c542b87100079f4bed8,
        type: 2}
      propertyPath: m_LocalPosition.y
      value: 0
      objectReference: {fileID: 0}
    - target: {fileID: 224061845191301312, guid: d22d6bedcec38c542b87100079f4bed8,
        type: 2}
      propertyPath: m_LocalPosition.z
      value: 0
      objectReference: {fileID: 0}
    - target: {fileID: 224061845191301312, guid: d22d6bedcec38c542b87100079f4bed8,
        type: 2}
      propertyPath: m_LocalRotation.x
      value: 0
      objectReference: {fileID: 0}
    - target: {fileID: 224061845191301312, guid: d22d6bedcec38c542b87100079f4bed8,
        type: 2}
      propertyPath: m_LocalRotation.y
      value: 0
      objectReference: {fileID: 0}
    - target: {fileID: 224061845191301312, guid: d22d6bedcec38c542b87100079f4bed8,
        type: 2}
      propertyPath: m_LocalRotation.z
      value: 0
      objectReference: {fileID: 0}
    - target: {fileID: 224061845191301312, guid: d22d6bedcec38c542b87100079f4bed8,
        type: 2}
      propertyPath: m_LocalRotation.w
      value: 1
      objectReference: {fileID: 0}
    - target: {fileID: 224061845191301312, guid: d22d6bedcec38c542b87100079f4bed8,
        type: 2}
      propertyPath: m_RootOrder
      value: 4
      objectReference: {fileID: 0}
    - target: {fileID: 224061845191301312, guid: d22d6bedcec38c542b87100079f4bed8,
        type: 2}
      propertyPath: m_AnchoredPosition.x
      value: 0
      objectReference: {fileID: 0}
    - target: {fileID: 224061845191301312, guid: d22d6bedcec38c542b87100079f4bed8,
        type: 2}
      propertyPath: m_AnchoredPosition.y
      value: 0
      objectReference: {fileID: 0}
    - target: {fileID: 224061845191301312, guid: d22d6bedcec38c542b87100079f4bed8,
        type: 2}
      propertyPath: m_SizeDelta.x
      value: 0
      objectReference: {fileID: 0}
    - target: {fileID: 224061845191301312, guid: d22d6bedcec38c542b87100079f4bed8,
        type: 2}
      propertyPath: m_SizeDelta.y
      value: 0
      objectReference: {fileID: 0}
    - target: {fileID: 224061845191301312, guid: d22d6bedcec38c542b87100079f4bed8,
        type: 2}
      propertyPath: m_AnchorMin.x
      value: 0
      objectReference: {fileID: 0}
    - target: {fileID: 224061845191301312, guid: d22d6bedcec38c542b87100079f4bed8,
        type: 2}
      propertyPath: m_AnchorMin.y
      value: 0
      objectReference: {fileID: 0}
    - target: {fileID: 224061845191301312, guid: d22d6bedcec38c542b87100079f4bed8,
        type: 2}
      propertyPath: m_AnchorMax.x
      value: 0
      objectReference: {fileID: 0}
    - target: {fileID: 224061845191301312, guid: d22d6bedcec38c542b87100079f4bed8,
        type: 2}
      propertyPath: m_AnchorMax.y
      value: 0
      objectReference: {fileID: 0}
    - target: {fileID: 224061845191301312, guid: d22d6bedcec38c542b87100079f4bed8,
        type: 2}
      propertyPath: m_Pivot.x
      value: 0
      objectReference: {fileID: 0}
    - target: {fileID: 224061845191301312, guid: d22d6bedcec38c542b87100079f4bed8,
        type: 2}
      propertyPath: m_Pivot.y
      value: 0
      objectReference: {fileID: 0}
    - target: {fileID: 224653449641950868, guid: d22d6bedcec38c542b87100079f4bed8,
        type: 2}
      propertyPath: m_AnchorMin.y
      value: 0
      objectReference: {fileID: 0}
    - target: {fileID: 224653449641950868, guid: d22d6bedcec38c542b87100079f4bed8,
        type: 2}
      propertyPath: m_AnchorMax.y
      value: 0
      objectReference: {fileID: 0}
    - target: {fileID: 224653449641950868, guid: d22d6bedcec38c542b87100079f4bed8,
        type: 2}
      propertyPath: m_AnchoredPosition.x
      value: 0
      objectReference: {fileID: 0}
    - target: {fileID: 224653449641950868, guid: d22d6bedcec38c542b87100079f4bed8,
        type: 2}
      propertyPath: m_AnchoredPosition.y
      value: 0
      objectReference: {fileID: 0}
    - target: {fileID: 224653449641950868, guid: d22d6bedcec38c542b87100079f4bed8,
        type: 2}
      propertyPath: m_SizeDelta.x
      value: 0
      objectReference: {fileID: 0}
    - target: {fileID: 224653449641950868, guid: d22d6bedcec38c542b87100079f4bed8,
        type: 2}
      propertyPath: m_SizeDelta.y
      value: 0
      objectReference: {fileID: 0}
    - target: {fileID: 224720023345110788, guid: d22d6bedcec38c542b87100079f4bed8,
        type: 2}
      propertyPath: m_AnchorMin.y
      value: 0
      objectReference: {fileID: 0}
    - target: {fileID: 224720023345110788, guid: d22d6bedcec38c542b87100079f4bed8,
        type: 2}
      propertyPath: m_AnchorMax.y
      value: 0
      objectReference: {fileID: 0}
    - target: {fileID: 224720023345110788, guid: d22d6bedcec38c542b87100079f4bed8,
        type: 2}
      propertyPath: m_AnchoredPosition.x
      value: 0
      objectReference: {fileID: 0}
    - target: {fileID: 224720023345110788, guid: d22d6bedcec38c542b87100079f4bed8,
        type: 2}
      propertyPath: m_AnchoredPosition.y
      value: 0
      objectReference: {fileID: 0}
    - target: {fileID: 224720023345110788, guid: d22d6bedcec38c542b87100079f4bed8,
        type: 2}
      propertyPath: m_SizeDelta.x
      value: 0
      objectReference: {fileID: 0}
    - target: {fileID: 224720023345110788, guid: d22d6bedcec38c542b87100079f4bed8,
        type: 2}
      propertyPath: m_SizeDelta.y
      value: 0
      objectReference: {fileID: 0}
    - target: {fileID: 224906548045055362, guid: d22d6bedcec38c542b87100079f4bed8,
        type: 2}
      propertyPath: m_AnchorMin.y
      value: 0
      objectReference: {fileID: 0}
    - target: {fileID: 224906548045055362, guid: d22d6bedcec38c542b87100079f4bed8,
        type: 2}
      propertyPath: m_AnchorMax.y
      value: 0
      objectReference: {fileID: 0}
    - target: {fileID: 224906548045055362, guid: d22d6bedcec38c542b87100079f4bed8,
        type: 2}
      propertyPath: m_AnchoredPosition.x
      value: 0
      objectReference: {fileID: 0}
    - target: {fileID: 224906548045055362, guid: d22d6bedcec38c542b87100079f4bed8,
        type: 2}
      propertyPath: m_AnchoredPosition.y
      value: 0
      objectReference: {fileID: 0}
    - target: {fileID: 224906548045055362, guid: d22d6bedcec38c542b87100079f4bed8,
        type: 2}
      propertyPath: m_SizeDelta.x
      value: 0
      objectReference: {fileID: 0}
    - target: {fileID: 224906548045055362, guid: d22d6bedcec38c542b87100079f4bed8,
        type: 2}
      propertyPath: m_SizeDelta.y
      value: 0
      objectReference: {fileID: 0}
    - target: {fileID: 224534645670927254, guid: d22d6bedcec38c542b87100079f4bed8,
        type: 2}
      propertyPath: m_AnchorMin.y
      value: 0
      objectReference: {fileID: 0}
    - target: {fileID: 224534645670927254, guid: d22d6bedcec38c542b87100079f4bed8,
        type: 2}
      propertyPath: m_AnchorMax.y
      value: 0
      objectReference: {fileID: 0}
    - target: {fileID: 224534645670927254, guid: d22d6bedcec38c542b87100079f4bed8,
        type: 2}
      propertyPath: m_AnchoredPosition.x
      value: 0
      objectReference: {fileID: 0}
    - target: {fileID: 224534645670927254, guid: d22d6bedcec38c542b87100079f4bed8,
        type: 2}
      propertyPath: m_AnchoredPosition.y
      value: 0
      objectReference: {fileID: 0}
    - target: {fileID: 224534645670927254, guid: d22d6bedcec38c542b87100079f4bed8,
        type: 2}
      propertyPath: m_SizeDelta.x
      value: 0
      objectReference: {fileID: 0}
    - target: {fileID: 224534645670927254, guid: d22d6bedcec38c542b87100079f4bed8,
        type: 2}
      propertyPath: m_SizeDelta.y
      value: 0
      objectReference: {fileID: 0}
    - target: {fileID: 224103685428187994, guid: d22d6bedcec38c542b87100079f4bed8,
        type: 2}
      propertyPath: m_AnchorMin.y
      value: 0
      objectReference: {fileID: 0}
    - target: {fileID: 224103685428187994, guid: d22d6bedcec38c542b87100079f4bed8,
        type: 2}
      propertyPath: m_AnchorMax.y
      value: 0
      objectReference: {fileID: 0}
    - target: {fileID: 224103685428187994, guid: d22d6bedcec38c542b87100079f4bed8,
        type: 2}
      propertyPath: m_AnchoredPosition.x
      value: 0
      objectReference: {fileID: 0}
    - target: {fileID: 224103685428187994, guid: d22d6bedcec38c542b87100079f4bed8,
        type: 2}
      propertyPath: m_AnchoredPosition.y
      value: 0
      objectReference: {fileID: 0}
    - target: {fileID: 224103685428187994, guid: d22d6bedcec38c542b87100079f4bed8,
        type: 2}
      propertyPath: m_SizeDelta.x
      value: 0
      objectReference: {fileID: 0}
    - target: {fileID: 224103685428187994, guid: d22d6bedcec38c542b87100079f4bed8,
        type: 2}
      propertyPath: m_SizeDelta.y
      value: 0
      objectReference: {fileID: 0}
    - target: {fileID: 224948817728407330, guid: d22d6bedcec38c542b87100079f4bed8,
        type: 2}
      propertyPath: m_AnchorMin.y
      value: 0
      objectReference: {fileID: 0}
    - target: {fileID: 224948817728407330, guid: d22d6bedcec38c542b87100079f4bed8,
        type: 2}
      propertyPath: m_AnchorMax.y
      value: 0
      objectReference: {fileID: 0}
    - target: {fileID: 224948817728407330, guid: d22d6bedcec38c542b87100079f4bed8,
        type: 2}
      propertyPath: m_AnchoredPosition.x
      value: 0
      objectReference: {fileID: 0}
    - target: {fileID: 224948817728407330, guid: d22d6bedcec38c542b87100079f4bed8,
        type: 2}
      propertyPath: m_AnchoredPosition.y
      value: 0
      objectReference: {fileID: 0}
    - target: {fileID: 224948817728407330, guid: d22d6bedcec38c542b87100079f4bed8,
        type: 2}
      propertyPath: m_SizeDelta.x
      value: 0
      objectReference: {fileID: 0}
    - target: {fileID: 224948817728407330, guid: d22d6bedcec38c542b87100079f4bed8,
        type: 2}
      propertyPath: m_SizeDelta.y
      value: 0
      objectReference: {fileID: 0}
    - target: {fileID: 224650886841632828, guid: d22d6bedcec38c542b87100079f4bed8,
        type: 2}
      propertyPath: m_AnchorMin.y
      value: 0
      objectReference: {fileID: 0}
    - target: {fileID: 224650886841632828, guid: d22d6bedcec38c542b87100079f4bed8,
        type: 2}
      propertyPath: m_AnchorMax.y
      value: 0
      objectReference: {fileID: 0}
    - target: {fileID: 224650886841632828, guid: d22d6bedcec38c542b87100079f4bed8,
        type: 2}
      propertyPath: m_AnchoredPosition.x
      value: 0
      objectReference: {fileID: 0}
    - target: {fileID: 224650886841632828, guid: d22d6bedcec38c542b87100079f4bed8,
        type: 2}
      propertyPath: m_AnchoredPosition.y
      value: 0
      objectReference: {fileID: 0}
    - target: {fileID: 224650886841632828, guid: d22d6bedcec38c542b87100079f4bed8,
        type: 2}
      propertyPath: m_SizeDelta.x
      value: 0
      objectReference: {fileID: 0}
    - target: {fileID: 224650886841632828, guid: d22d6bedcec38c542b87100079f4bed8,
        type: 2}
      propertyPath: m_SizeDelta.y
      value: 0
      objectReference: {fileID: 0}
    - target: {fileID: 224099548938885232, guid: d22d6bedcec38c542b87100079f4bed8,
        type: 2}
      propertyPath: m_AnchorMin.y
      value: 0
      objectReference: {fileID: 0}
    - target: {fileID: 224099548938885232, guid: d22d6bedcec38c542b87100079f4bed8,
        type: 2}
      propertyPath: m_AnchorMax.y
      value: 0
      objectReference: {fileID: 0}
    - target: {fileID: 224099548938885232, guid: d22d6bedcec38c542b87100079f4bed8,
        type: 2}
      propertyPath: m_AnchoredPosition.x
      value: 0
      objectReference: {fileID: 0}
    - target: {fileID: 224099548938885232, guid: d22d6bedcec38c542b87100079f4bed8,
        type: 2}
      propertyPath: m_AnchoredPosition.y
      value: 0
      objectReference: {fileID: 0}
    - target: {fileID: 224099548938885232, guid: d22d6bedcec38c542b87100079f4bed8,
        type: 2}
      propertyPath: m_SizeDelta.x
      value: 0
      objectReference: {fileID: 0}
    - target: {fileID: 224099548938885232, guid: d22d6bedcec38c542b87100079f4bed8,
        type: 2}
      propertyPath: m_SizeDelta.y
      value: 0
      objectReference: {fileID: 0}
    - target: {fileID: 224169321328826908, guid: d22d6bedcec38c542b87100079f4bed8,
        type: 2}
      propertyPath: m_AnchorMin.y
      value: 0
      objectReference: {fileID: 0}
    - target: {fileID: 224169321328826908, guid: d22d6bedcec38c542b87100079f4bed8,
        type: 2}
      propertyPath: m_AnchorMax.y
      value: 0
      objectReference: {fileID: 0}
    - target: {fileID: 224169321328826908, guid: d22d6bedcec38c542b87100079f4bed8,
        type: 2}
      propertyPath: m_AnchoredPosition.x
      value: 0
      objectReference: {fileID: 0}
    - target: {fileID: 224169321328826908, guid: d22d6bedcec38c542b87100079f4bed8,
        type: 2}
      propertyPath: m_AnchoredPosition.y
      value: 0
      objectReference: {fileID: 0}
    - target: {fileID: 224169321328826908, guid: d22d6bedcec38c542b87100079f4bed8,
        type: 2}
      propertyPath: m_SizeDelta.x
      value: 0
      objectReference: {fileID: 0}
    - target: {fileID: 224169321328826908, guid: d22d6bedcec38c542b87100079f4bed8,
        type: 2}
      propertyPath: m_SizeDelta.y
      value: 0
      objectReference: {fileID: 0}
    - target: {fileID: 224525646659409728, guid: d22d6bedcec38c542b87100079f4bed8,
        type: 2}
      propertyPath: m_AnchorMin.y
      value: 0
      objectReference: {fileID: 0}
    - target: {fileID: 224525646659409728, guid: d22d6bedcec38c542b87100079f4bed8,
        type: 2}
      propertyPath: m_AnchorMax.y
      value: 0
      objectReference: {fileID: 0}
    - target: {fileID: 224525646659409728, guid: d22d6bedcec38c542b87100079f4bed8,
        type: 2}
      propertyPath: m_AnchoredPosition.x
      value: 0
      objectReference: {fileID: 0}
    - target: {fileID: 224525646659409728, guid: d22d6bedcec38c542b87100079f4bed8,
        type: 2}
      propertyPath: m_AnchoredPosition.y
      value: 0
      objectReference: {fileID: 0}
    - target: {fileID: 224525646659409728, guid: d22d6bedcec38c542b87100079f4bed8,
        type: 2}
      propertyPath: m_SizeDelta.x
      value: 0
      objectReference: {fileID: 0}
    - target: {fileID: 224525646659409728, guid: d22d6bedcec38c542b87100079f4bed8,
        type: 2}
      propertyPath: m_SizeDelta.y
      value: 0
      objectReference: {fileID: 0}
    - target: {fileID: 224495935214676728, guid: d22d6bedcec38c542b87100079f4bed8,
        type: 2}
      propertyPath: m_AnchorMin.y
      value: 0
      objectReference: {fileID: 0}
    - target: {fileID: 224495935214676728, guid: d22d6bedcec38c542b87100079f4bed8,
        type: 2}
      propertyPath: m_AnchorMax.y
      value: 0
      objectReference: {fileID: 0}
    - target: {fileID: 224495935214676728, guid: d22d6bedcec38c542b87100079f4bed8,
        type: 2}
      propertyPath: m_AnchoredPosition.x
      value: 0
      objectReference: {fileID: 0}
    - target: {fileID: 224495935214676728, guid: d22d6bedcec38c542b87100079f4bed8,
        type: 2}
      propertyPath: m_AnchoredPosition.y
      value: 0
      objectReference: {fileID: 0}
    - target: {fileID: 224495935214676728, guid: d22d6bedcec38c542b87100079f4bed8,
        type: 2}
      propertyPath: m_SizeDelta.x
      value: 0
      objectReference: {fileID: 0}
    - target: {fileID: 224495935214676728, guid: d22d6bedcec38c542b87100079f4bed8,
        type: 2}
      propertyPath: m_SizeDelta.y
      value: 0
      objectReference: {fileID: 0}
    - target: {fileID: 224347569891160644, guid: d22d6bedcec38c542b87100079f4bed8,
        type: 2}
      propertyPath: m_AnchorMin.y
      value: 0
      objectReference: {fileID: 0}
    - target: {fileID: 224347569891160644, guid: d22d6bedcec38c542b87100079f4bed8,
        type: 2}
      propertyPath: m_AnchorMax.y
      value: 0
      objectReference: {fileID: 0}
    - target: {fileID: 224347569891160644, guid: d22d6bedcec38c542b87100079f4bed8,
        type: 2}
      propertyPath: m_AnchoredPosition.x
      value: 0
      objectReference: {fileID: 0}
    - target: {fileID: 224347569891160644, guid: d22d6bedcec38c542b87100079f4bed8,
        type: 2}
      propertyPath: m_AnchoredPosition.y
      value: 0
      objectReference: {fileID: 0}
    - target: {fileID: 224347569891160644, guid: d22d6bedcec38c542b87100079f4bed8,
        type: 2}
      propertyPath: m_SizeDelta.x
      value: 0
      objectReference: {fileID: 0}
    - target: {fileID: 224347569891160644, guid: d22d6bedcec38c542b87100079f4bed8,
        type: 2}
      propertyPath: m_SizeDelta.y
      value: 0
      objectReference: {fileID: 0}
    m_RemovedComponents: []
  m_ParentPrefab: {fileID: 100100000, guid: d22d6bedcec38c542b87100079f4bed8, type: 2}
  m_IsPrefabParent: 0
--- !u!1001 &186401276
Prefab:
  m_ObjectHideFlags: 0
  serializedVersion: 2
  m_Modification:
    m_TransformParent: {fileID: 0}
    m_Modifications:
    - target: {fileID: 4748212497377218, guid: 0d5d0a31fcd155549aaaec69ac5000d8, type: 2}
      propertyPath: m_LocalPosition.x
      value: 0
      objectReference: {fileID: 0}
    - target: {fileID: 4748212497377218, guid: 0d5d0a31fcd155549aaaec69ac5000d8, type: 2}
      propertyPath: m_LocalPosition.y
      value: 0
      objectReference: {fileID: 0}
    - target: {fileID: 4748212497377218, guid: 0d5d0a31fcd155549aaaec69ac5000d8, type: 2}
      propertyPath: m_LocalPosition.z
      value: -10
      objectReference: {fileID: 0}
    - target: {fileID: 4748212497377218, guid: 0d5d0a31fcd155549aaaec69ac5000d8, type: 2}
      propertyPath: m_LocalRotation.x
      value: -0
      objectReference: {fileID: 0}
    - target: {fileID: 4748212497377218, guid: 0d5d0a31fcd155549aaaec69ac5000d8, type: 2}
      propertyPath: m_LocalRotation.y
      value: -0
      objectReference: {fileID: 0}
    - target: {fileID: 4748212497377218, guid: 0d5d0a31fcd155549aaaec69ac5000d8, type: 2}
      propertyPath: m_LocalRotation.z
      value: -0
      objectReference: {fileID: 0}
    - target: {fileID: 4748212497377218, guid: 0d5d0a31fcd155549aaaec69ac5000d8, type: 2}
      propertyPath: m_LocalRotation.w
      value: 1
      objectReference: {fileID: 0}
    - target: {fileID: 4748212497377218, guid: 0d5d0a31fcd155549aaaec69ac5000d8, type: 2}
      propertyPath: m_RootOrder
      value: 3
      objectReference: {fileID: 0}
    - target: {fileID: 1475880150091292, guid: 0d5d0a31fcd155549aaaec69ac5000d8, type: 2}
      propertyPath: m_IsActive
      value: 1
      objectReference: {fileID: 0}
    m_RemovedComponents: []
  m_ParentPrefab: {fileID: 100100000, guid: 0d5d0a31fcd155549aaaec69ac5000d8, type: 2}
  m_IsPrefabParent: 0
--- !u!1 &440890672
GameObject:
  m_ObjectHideFlags: 0
  m_PrefabParentObject: {fileID: 0}
  m_PrefabInternal: {fileID: 62082116}
  serializedVersion: 5
  m_Component:
  - component: {fileID: 440890673}
  m_Layer: 0
  m_Name: Missing Prefab
  m_TagString: Untagged
  m_Icon: {fileID: 0}
  m_NavMeshLayer: 0
  m_StaticEditorFlags: 0
  m_IsActive: 1
--- !u!4 &440890673
Transform:
  m_ObjectHideFlags: 0
  m_PrefabParentObject: {fileID: 0}
  m_PrefabInternal: {fileID: 62082116}
  m_GameObject: {fileID: 440890672}
  m_LocalRotation: {x: 0, y: 0, z: 0, w: 1}
  m_LocalPosition: {x: 0, y: 0, z: 0}
  m_LocalScale: {x: 1, y: 1, z: 1}
  m_Children: []
  m_Father: {fileID: 0}
  m_RootOrder: 5
  m_LocalEulerAnglesHint: {x: 0, y: 0, z: 0}
--- !u!1 &950768440
GameObject:
  m_ObjectHideFlags: 0
  m_PrefabParentObject: {fileID: 0}
  m_PrefabInternal: {fileID: 0}
  serializedVersion: 5
  m_Component:
  - component: {fileID: 950768441}
  - component: {fileID: 950768442}
  m_Layer: 0
  m_Name: PathPool
  m_TagString: Untagged
  m_Icon: {fileID: 0}
  m_NavMeshLayer: 0
  m_StaticEditorFlags: 0
  m_IsActive: 1
--- !u!4 &950768441
Transform:
  m_ObjectHideFlags: 0
  m_PrefabParentObject: {fileID: 0}
  m_PrefabInternal: {fileID: 0}
  m_GameObject: {fileID: 950768440}
  m_LocalRotation: {x: -0, y: -0, z: -0, w: 1}
  m_LocalPosition: {x: 0, y: 0, z: 0}
  m_LocalScale: {x: 1, y: 1, z: 1}
  m_Children: []
  m_Father: {fileID: 2139410602}
  m_RootOrder: 1
  m_LocalEulerAnglesHint: {x: 0, y: 0, z: 0}
--- !u!114 &950768442
MonoBehaviour:
  m_ObjectHideFlags: 0
  m_PrefabParentObject: {fileID: 0}
  m_PrefabInternal: {fileID: 0}
  m_GameObject: {fileID: 950768440}
  m_Enabled: 1
  m_EditorHideFlags: 0
  m_Script: {fileID: 11500000, guid: 59dfbc0f4f3a98b4ebf4ad40fc3f43aa, type: 3}
  m_Name: 
  m_EditorClassIdentifier: 
  poolName: PathPool
  matchPoolScale: 0
  matchPoolLayer: 0
  dontReparent: 0
  _dontDestroyOnLoad: 0
  logMessages: 0
  _perPrefabPoolOptions: []
  maxParticleDespawnTime: 300
--- !u!1001 &1125393130
Prefab:
  m_ObjectHideFlags: 0
  serializedVersion: 2
  m_Modification:
    m_TransformParent: {fileID: 0}
    m_Modifications:
    - target: {fileID: 4394629206474652, guid: 375290bf9380cad4db8cb7cc6f8e25cd, type: 2}
      propertyPath: m_LocalPosition.x
      value: 0
      objectReference: {fileID: 0}
    - target: {fileID: 4394629206474652, guid: 375290bf9380cad4db8cb7cc6f8e25cd, type: 2}
      propertyPath: m_LocalPosition.y
      value: 0
      objectReference: {fileID: 0}
    - target: {fileID: 4394629206474652, guid: 375290bf9380cad4db8cb7cc6f8e25cd, type: 2}
      propertyPath: m_LocalPosition.z
      value: 0
      objectReference: {fileID: 0}
    - target: {fileID: 4394629206474652, guid: 375290bf9380cad4db8cb7cc6f8e25cd, type: 2}
      propertyPath: m_LocalRotation.x
      value: -0
      objectReference: {fileID: 0}
    - target: {fileID: 4394629206474652, guid: 375290bf9380cad4db8cb7cc6f8e25cd, type: 2}
      propertyPath: m_LocalRotation.y
      value: -0
      objectReference: {fileID: 0}
    - target: {fileID: 4394629206474652, guid: 375290bf9380cad4db8cb7cc6f8e25cd, type: 2}
      propertyPath: m_LocalRotation.z
      value: -0
      objectReference: {fileID: 0}
    - target: {fileID: 4394629206474652, guid: 375290bf9380cad4db8cb7cc6f8e25cd, type: 2}
      propertyPath: m_LocalRotation.w
      value: 1
      objectReference: {fileID: 0}
    - target: {fileID: 4394629206474652, guid: 375290bf9380cad4db8cb7cc6f8e25cd, type: 2}
      propertyPath: m_RootOrder
      value: 0
      objectReference: {fileID: 0}
    - target: {fileID: 114569714708212366, guid: 375290bf9380cad4db8cb7cc6f8e25cd,
        type: 2}
      propertyPath: numItemPowerMaxList.Array.data[0]
      value: 4
      objectReference: {fileID: 0}
    - target: {fileID: 114569714708212366, guid: 375290bf9380cad4db8cb7cc6f8e25cd,
        type: 2}
      propertyPath: numCoinRevival
      value: 500
      objectReference: {fileID: 0}
    - target: {fileID: 114569714708212366, guid: 375290bf9380cad4db8cb7cc6f8e25cd,
        type: 2}
      propertyPath: numLoseLevelList.Array.data[0]
      value: 2
      objectReference: {fileID: 0}
    - target: {fileID: 114569714708212366, guid: 375290bf9380cad4db8cb7cc6f8e25cd,
        type: 2}
      propertyPath: numLoseLevelList.Array.data[1]
      value: 3
      objectReference: {fileID: 0}
    - target: {fileID: 114569714708212366, guid: 375290bf9380cad4db8cb7cc6f8e25cd,
        type: 2}
      propertyPath: numItemPowerMaxList.Array.data[1]
      value: 5
      objectReference: {fileID: 0}
    - target: {fileID: 114569714708212366, guid: 375290bf9380cad4db8cb7cc6f8e25cd,
        type: 2}
      propertyPath: numLoseLevelList.Array.data[2]
      value: 5
      objectReference: {fileID: 0}
    m_RemovedComponents: []
  m_ParentPrefab: {fileID: 100100000, guid: 375290bf9380cad4db8cb7cc6f8e25cd, type: 2}
  m_IsPrefabParent: 0
--- !u!1001 &1476838800
Prefab:
  m_ObjectHideFlags: 0
  serializedVersion: 2
  m_Modification:
    m_TransformParent: {fileID: 0}
    m_Modifications:
    - target: {fileID: 4572481434240782, guid: a695d70c2537a5f4d9aeb9026e44f156, type: 2}
      propertyPath: m_LocalPosition.x
      value: -0.15159358
      objectReference: {fileID: 0}
    - target: {fileID: 4572481434240782, guid: a695d70c2537a5f4d9aeb9026e44f156, type: 2}
      propertyPath: m_LocalPosition.y
      value: 0.022542385
      objectReference: {fileID: 0}
    - target: {fileID: 4572481434240782, guid: a695d70c2537a5f4d9aeb9026e44f156, type: 2}
      propertyPath: m_LocalPosition.z
      value: 0.04340419
      objectReference: {fileID: 0}
    - target: {fileID: 4572481434240782, guid: a695d70c2537a5f4d9aeb9026e44f156, type: 2}
      propertyPath: m_LocalRotation.x
      value: -0
      objectReference: {fileID: 0}
    - target: {fileID: 4572481434240782, guid: a695d70c2537a5f4d9aeb9026e44f156, type: 2}
      propertyPath: m_LocalRotation.y
      value: -0
      objectReference: {fileID: 0}
    - target: {fileID: 4572481434240782, guid: a695d70c2537a5f4d9aeb9026e44f156, type: 2}
      propertyPath: m_LocalRotation.z
      value: -0
      objectReference: {fileID: 0}
    - target: {fileID: 4572481434240782, guid: a695d70c2537a5f4d9aeb9026e44f156, type: 2}
      propertyPath: m_LocalRotation.w
      value: 1
      objectReference: {fileID: 0}
    - target: {fileID: 4572481434240782, guid: a695d70c2537a5f4d9aeb9026e44f156, type: 2}
      propertyPath: m_RootOrder
      value: 1
      objectReference: {fileID: 0}
    - target: {fileID: 114891157050335058, guid: a695d70c2537a5f4d9aeb9026e44f156,
        type: 2}
      propertyPath: serializationData.Prefab
      value: 
      objectReference: {fileID: 114891157050335058, guid: a695d70c2537a5f4d9aeb9026e44f156,
        type: 2}
    - target: {fileID: 114891157050335058, guid: a695d70c2537a5f4d9aeb9026e44f156,
        type: 2}
      propertyPath: serializationData.SerializedFormat
      value: 2
      objectReference: {fileID: 0}
    m_RemovedComponents: []
  m_ParentPrefab: {fileID: 100100000, guid: a695d70c2537a5f4d9aeb9026e44f156, type: 2}
  m_IsPrefabParent: 0
--- !u!1 &1634934044
GameObject:
  m_ObjectHideFlags: 0
  m_PrefabParentObject: {fileID: 0}
  m_PrefabInternal: {fileID: 0}
  serializedVersion: 5
  m_Component:
  - component: {fileID: 1634934045}
  - component: {fileID: 1634934046}
  m_Layer: 0
  m_Name: EnemyPool
  m_TagString: Untagged
  m_Icon: {fileID: 0}
  m_NavMeshLayer: 0
  m_StaticEditorFlags: 0
  m_IsActive: 1
--- !u!4 &1634934045
Transform:
  m_ObjectHideFlags: 0
  m_PrefabParentObject: {fileID: 0}
  m_PrefabInternal: {fileID: 0}
  m_GameObject: {fileID: 1634934044}
  m_LocalRotation: {x: -0, y: -0, z: -0, w: 1}
  m_LocalPosition: {x: 0, y: 0, z: 0}
  m_LocalScale: {x: 1, y: 1, z: 1}
  m_Children: []
  m_Father: {fileID: 2139410602}
  m_RootOrder: 0
  m_LocalEulerAnglesHint: {x: 0, y: 0, z: 0}
--- !u!114 &1634934046
MonoBehaviour:
  m_ObjectHideFlags: 0
  m_PrefabParentObject: {fileID: 0}
  m_PrefabInternal: {fileID: 0}
  m_GameObject: {fileID: 1634934044}
  m_Enabled: 1
  m_EditorHideFlags: 0
  m_Script: {fileID: 11500000, guid: 59dfbc0f4f3a98b4ebf4ad40fc3f43aa, type: 3}
  m_Name: 
  m_EditorClassIdentifier: 
  poolName: EnemyPool
  matchPoolScale: 0
  matchPoolLayer: 0
  dontReparent: 0
  _dontDestroyOnLoad: 0
  logMessages: 0
  _perPrefabPoolOptions: []
  maxParticleDespawnTime: 300
--- !u!1 &1825994862
GameObject:
  m_ObjectHideFlags: 0
  m_PrefabParentObject: {fileID: 0}
  m_PrefabInternal: {fileID: 0}
  serializedVersion: 5
  m_Component:
  - component: {fileID: 1825994863}
  - component: {fileID: 1825994864}
  m_Layer: 0
  m_Name: ExplosionPool
  m_TagString: Untagged
  m_Icon: {fileID: 0}
  m_NavMeshLayer: 0
  m_StaticEditorFlags: 0
  m_IsActive: 1
--- !u!4 &1825994863
Transform:
  m_ObjectHideFlags: 0
  m_PrefabParentObject: {fileID: 0}
  m_PrefabInternal: {fileID: 0}
  m_GameObject: {fileID: 1825994862}
  m_LocalRotation: {x: -0, y: -0, z: -0, w: 1}
  m_LocalPosition: {x: 0, y: 0, z: 0}
  m_LocalScale: {x: 1, y: 1, z: 1}
  m_Children: []
  m_Father: {fileID: 2139410602}
  m_RootOrder: 3
  m_LocalEulerAnglesHint: {x: 0, y: 0, z: 0}
--- !u!114 &1825994864
MonoBehaviour:
  m_ObjectHideFlags: 0
  m_PrefabParentObject: {fileID: 0}
  m_PrefabInternal: {fileID: 0}
  m_GameObject: {fileID: 1825994862}
  m_Enabled: 1
  m_EditorHideFlags: 0
  m_Script: {fileID: 11500000, guid: 59dfbc0f4f3a98b4ebf4ad40fc3f43aa, type: 3}
  m_Name: 
  m_EditorClassIdentifier: 
  poolName: ExplosionPool
  matchPoolScale: 0
  matchPoolLayer: 0
  dontReparent: 0
  _dontDestroyOnLoad: 0
  logMessages: 0
  _perPrefabPoolOptions: []
  maxParticleDespawnTime: 300
--- !u!1001 &2019528223
Prefab:
  m_ObjectHideFlags: 0
  serializedVersion: 2
  m_Modification:
    m_TransformParent: {fileID: 0}
    m_Modifications:
    - target: {fileID: 4535747268378662, guid: a244822a463fcf640af4546645166b8a, type: 2}
      propertyPath: m_LocalPosition.x
      value: 0
      objectReference: {fileID: 0}
    - target: {fileID: 4535747268378662, guid: a244822a463fcf640af4546645166b8a, type: 2}
      propertyPath: m_LocalPosition.y
      value: 0
      objectReference: {fileID: 0}
    - target: {fileID: 4535747268378662, guid: a244822a463fcf640af4546645166b8a, type: 2}
      propertyPath: m_LocalPosition.z
      value: 0
      objectReference: {fileID: 0}
    - target: {fileID: 4535747268378662, guid: a244822a463fcf640af4546645166b8a, type: 2}
      propertyPath: m_LocalRotation.x
      value: -0
      objectReference: {fileID: 0}
    - target: {fileID: 4535747268378662, guid: a244822a463fcf640af4546645166b8a, type: 2}
      propertyPath: m_LocalRotation.y
      value: -0
      objectReference: {fileID: 0}
    - target: {fileID: 4535747268378662, guid: a244822a463fcf640af4546645166b8a, type: 2}
      propertyPath: m_LocalRotation.z
      value: -0
      objectReference: {fileID: 0}
    - target: {fileID: 4535747268378662, guid: a244822a463fcf640af4546645166b8a, type: 2}
      propertyPath: m_LocalRotation.w
      value: 1
      objectReference: {fileID: 0}
    - target: {fileID: 4535747268378662, guid: a244822a463fcf640af4546645166b8a, type: 2}
      propertyPath: m_RootOrder
      value: 2
      objectReference: {fileID: 0}
    - target: {fileID: 1412947551304460, guid: a244822a463fcf640af4546645166b8a, type: 2}
      propertyPath: m_IsActive
      value: 1
      objectReference: {fileID: 0}
    - target: {fileID: 114972071772001774, guid: a244822a463fcf640af4546645166b8a,
        type: 2}
      propertyPath: playerDied
      value: 1
      objectReference: {fileID: 0}
    - target: {fileID: 114972071772001774, guid: a244822a463fcf640af4546645166b8a,
        type: 2}
      propertyPath: usingTestPlane1
      value: 0
      objectReference: {fileID: 0}
    - target: {fileID: 114972071772001774, guid: a244822a463fcf640af4546645166b8a,
        type: 2}
      propertyPath: testModePlayer
      value: 0
      objectReference: {fileID: 0}
    - target: {fileID: 114798132655532854, guid: a244822a463fcf640af4546645166b8a,
        type: 2}
      propertyPath: useTestGun
      value: 0
      objectReference: {fileID: 0}
    - target: {fileID: 114189464177642348, guid: a244822a463fcf640af4546645166b8a,
        type: 2}
      propertyPath: useTestWingman
      value: 0
      objectReference: {fileID: 0}
    m_RemovedComponents: []
  m_ParentPrefab: {fileID: 100100000, guid: a244822a463fcf640af4546645166b8a, type: 2}
  m_IsPrefabParent: 0
--- !u!1001 &2067393024
Prefab:
  m_ObjectHideFlags: 0
  serializedVersion: 2
  m_Modification:
    m_TransformParent: {fileID: 0}
    m_Modifications:
    - target: {fileID: 4892972129093898, guid: 46a1891d36c95bb458e5562c3db78253, type: 2}
      propertyPath: m_LocalPosition.x
      value: 0
      objectReference: {fileID: 0}
    - target: {fileID: 4892972129093898, guid: 46a1891d36c95bb458e5562c3db78253, type: 2}
      propertyPath: m_LocalPosition.y
      value: 0
      objectReference: {fileID: 0}
    - target: {fileID: 4892972129093898, guid: 46a1891d36c95bb458e5562c3db78253, type: 2}
      propertyPath: m_LocalPosition.z
      value: 0
      objectReference: {fileID: 0}
    - target: {fileID: 4892972129093898, guid: 46a1891d36c95bb458e5562c3db78253, type: 2}
      propertyPath: m_LocalRotation.x
      value: 0
      objectReference: {fileID: 0}
    - target: {fileID: 4892972129093898, guid: 46a1891d36c95bb458e5562c3db78253, type: 2}
      propertyPath: m_LocalRotation.y
      value: 0
      objectReference: {fileID: 0}
    - target: {fileID: 4892972129093898, guid: 46a1891d36c95bb458e5562c3db78253, type: 2}
      propertyPath: m_LocalRotation.z
      value: 0
      objectReference: {fileID: 0}
    - target: {fileID: 4892972129093898, guid: 46a1891d36c95bb458e5562c3db78253, type: 2}
      propertyPath: m_LocalRotation.w
      value: 1
      objectReference: {fileID: 0}
    - target: {fileID: 4892972129093898, guid: 46a1891d36c95bb458e5562c3db78253, type: 2}
      propertyPath: m_RootOrder
      value: 4
      objectReference: {fileID: 0}
    - target: {fileID: 33961934684816410, guid: 46a1891d36c95bb458e5562c3db78253,
        type: 2}
      propertyPath: m_Mesh
      value: 
      objectReference: {fileID: 0}
    - target: {fileID: 33201977604513306, guid: 46a1891d36c95bb458e5562c3db78253,
        type: 2}
      propertyPath: m_Mesh
      value: 
      objectReference: {fileID: 0}
    - target: {fileID: 33184389105355856, guid: 46a1891d36c95bb458e5562c3db78253,
        type: 2}
      propertyPath: m_Mesh
      value: 
      objectReference: {fileID: 0}
    - target: {fileID: 33369614977114070, guid: 46a1891d36c95bb458e5562c3db78253,
        type: 2}
      propertyPath: m_Mesh
      value: 
      objectReference: {fileID: 0}
    - target: {fileID: 33090144127985776, guid: 46a1891d36c95bb458e5562c3db78253,
        type: 2}
      propertyPath: m_Mesh
      value: 
      objectReference: {fileID: 0}
    - target: {fileID: 224325386413752394, guid: 46a1891d36c95bb458e5562c3db78253,
        type: 2}
      propertyPath: m_AnchoredPosition.y
      value: 31.080017
      objectReference: {fileID: 0}
    - target: {fileID: 4457924811529192, guid: 46a1891d36c95bb458e5562c3db78253, type: 2}
      propertyPath: m_LocalPosition.x
      value: 1
      objectReference: {fileID: 0}
    - target: {fileID: 4603867143406978, guid: 46a1891d36c95bb458e5562c3db78253, type: 2}
      propertyPath: m_LocalPosition.x
      value: 0
      objectReference: {fileID: 0}
    - target: {fileID: 4603867143406978, guid: 46a1891d36c95bb458e5562c3db78253, type: 2}
      propertyPath: m_LocalPosition.y
      value: 640
      objectReference: {fileID: 0}
    - target: {fileID: 4661587407112864, guid: 46a1891d36c95bb458e5562c3db78253, type: 2}
      propertyPath: m_LocalScale.x
      value: 0.0015625
      objectReference: {fileID: 0}
    - target: {fileID: 4661587407112864, guid: 46a1891d36c95bb458e5562c3db78253, type: 2}
      propertyPath: m_LocalScale.y
      value: 0.0015625
      objectReference: {fileID: 0}
    - target: {fileID: 4661587407112864, guid: 46a1891d36c95bb458e5562c3db78253, type: 2}
      propertyPath: m_LocalScale.z
      value: 0.0015625
      objectReference: {fileID: 0}
    - target: {fileID: 4606255545553500, guid: 46a1891d36c95bb458e5562c3db78253, type: 2}
      propertyPath: m_LocalPosition.y
      value: 542
      objectReference: {fileID: 0}
    - target: {fileID: 4011951173344170, guid: 46a1891d36c95bb458e5562c3db78253, type: 2}
      propertyPath: m_LocalPosition.y
      value: 6.3999996
      objectReference: {fileID: 0}
    - target: {fileID: 4861723322531328, guid: 46a1891d36c95bb458e5562c3db78253, type: 2}
      propertyPath: m_LocalPosition.y
      value: 641
      objectReference: {fileID: 0}
    - target: {fileID: 4072923713270400, guid: 46a1891d36c95bb458e5562c3db78253, type: 2}
      propertyPath: m_LocalPosition.y
      value: 6.3999996
      objectReference: {fileID: 0}
    - target: {fileID: 4043741085814290, guid: 46a1891d36c95bb458e5562c3db78253, type: 2}
      propertyPath: m_LocalPosition.y
      value: -6.3999996
      objectReference: {fileID: 0}
    - target: {fileID: 4380731063428618, guid: 46a1891d36c95bb458e5562c3db78253, type: 2}
      propertyPath: m_LocalPosition.y
      value: 640
      objectReference: {fileID: 0}
    - target: {fileID: 4768131710527636, guid: 46a1891d36c95bb458e5562c3db78253, type: 2}
      propertyPath: m_LocalPosition.y
      value: -6.3999996
      objectReference: {fileID: 0}
    - target: {fileID: 4788320657325932, guid: 46a1891d36c95bb458e5562c3db78253, type: 2}
      propertyPath: m_LocalPosition.y
      value: -6.3999996
      objectReference: {fileID: 0}
    - target: {fileID: 4504741391931170, guid: 46a1891d36c95bb458e5562c3db78253, type: 2}
      propertyPath: m_LocalPosition.y
      value: 6.3999996
      objectReference: {fileID: 0}
    - target: {fileID: 4380731063428618, guid: 46a1891d36c95bb458e5562c3db78253, type: 2}
      propertyPath: m_LocalPosition.x
      value: 0
      objectReference: {fileID: 0}
    m_RemovedComponents: []
  m_ParentPrefab: {fileID: 100100000, guid: 46a1891d36c95bb458e5562c3db78253, type: 2}
  m_IsPrefabParent: 0
--- !u!1 &2139410601
GameObject:
  m_ObjectHideFlags: 0
  m_PrefabParentObject: {fileID: 0}
  m_PrefabInternal: {fileID: 0}
  serializedVersion: 5
  m_Component:
  - component: {fileID: 2139410602}
  m_Layer: 0
  m_Name: Pool
  m_TagString: Untagged
  m_Icon: {fileID: 0}
  m_NavMeshLayer: 0
  m_StaticEditorFlags: 0
  m_IsActive: 1
--- !u!4 &2139410602
Transform:
  m_ObjectHideFlags: 0
  m_PrefabParentObject: {fileID: 0}
  m_PrefabInternal: {fileID: 0}
  m_GameObject: {fileID: 2139410601}
  m_LocalRotation: {x: 0, y: 0, z: 0, w: 1}
  m_LocalPosition: {x: 0, y: 0, z: 0}
  m_LocalScale: {x: 1, y: 1, z: 1}
  m_Children:
  - {fileID: 1634934045}
  - {fileID: 950768441}
  - {fileID: 39170299}
  - {fileID: 1825994863}
  m_Father: {fileID: 0}
  m_RootOrder: 6
  m_LocalEulerAnglesHint: {x: 0, y: 0, z: 0}
