%YAML 1.1
%TAG !u! tag:unity3d.com,2011:
--- !u!74 &7400000
AnimationClip:
  m_ObjectHideFlags: 0
  m_PrefabParentObject: {fileID: 0}
  m_PrefabInternal: {fileID: 0}
  m_Name: TitleGame
  serializedVersion: 6
  m_Legacy: 0
  m_Compressed: 0
  m_UseHighQualityCurve: 1
  m_RotationCurves: []
  m_CompressedRotationCurves: []
  m_EulerCurves: []
  m_PositionCurves: []
  m_ScaleCurves: []
  m_FloatCurves: []
  m_PPtrCurves:
  - curve:
    - time: 0
      value: {fileID: 21300000, guid: bba4e8230aa82c14ab72cb7cf29bd272, type: 3}
    - time: 0.11111111
      value: {fileID: 21300000, guid: d29f36c432b149c4f9623f1aa298978d, type: 3}
    - time: 0.22222222
      value: {fileID: 21300000, guid: 76fc5fb8f50f4df448a74fc7e0b0a73b, type: 3}
    - time: 0.33333334
      value: {fileID: 21300000, guid: df2230a956f5df342bac26dd173ea729, type: 3}
    - time: 0.44444445
      value: {fileID: 21300000, guid: a996ebaabb42b834b9a52e9b8ea5f7b9, type: 3}
    - time: 0.5555556
      value: {fileID: 21300000, guid: 97f93b4185259c440b588bcc6be61bb0, type: 3}
    - time: 0.6666667
      value: {fileID: 21300000, guid: 0fd3a43cac37c2f4ab692fc3f1ee2b2b, type: 3}
    - time: 0.7777778
      value: {fileID: 21300000, guid: bba4e8230aa82c14ab72cb7cf29bd272, type: 3}
    attribute: nextSprite
    path: 
    classID: 114
    script: {fileID: 11500000, guid: e96b31ce75e592f45a1cff563a4869db, type: 3}
  m_SampleRate: 9
  m_WrapMode: 0
  m_Bounds:
    m_Center: {x: 0, y: 0, z: 0}
    m_Extent: {x: 0, y: 0, z: 0}
  m_ClipBindingConstant:
    genericBindings:
    - serializedVersion: 2
      path: 0
      attribute: 3736194376
      script: {fileID: 11500000, guid: e96b31ce75e592f45a1cff563a4869db, type: 3}
      typeID: 114
      customType: 0
      isPPtrCurve: 1
    pptrCurveMapping:
    - {fileID: 21300000, guid: bba4e8230aa82c14ab72cb7cf29bd272, type: 3}
    - {fileID: 21300000, guid: d29f36c432b149c4f9623f1aa298978d, type: 3}
    - {fileID: 21300000, guid: 76fc5fb8f50f4df448a74fc7e0b0a73b, type: 3}
    - {fileID: 21300000, guid: df2230a956f5df342bac26dd173ea729, type: 3}
    - {fileID: 21300000, guid: a996ebaabb42b834b9a52e9b8ea5f7b9, type: 3}
    - {fileID: 21300000, guid: 97f93b4185259c440b588bcc6be61bb0, type: 3}
    - {fileID: 21300000, guid: 0fd3a43cac37c2f4ab692fc3f1ee2b2b, type: 3}
    - {fileID: 21300000, guid: bba4e8230aa82c14ab72cb7cf29bd272, type: 3}
  m_AnimationClipSettings:
    serializedVersion: 2
    m_AdditiveReferencePoseClip: {fileID: 0}
    m_AdditiveReferencePoseTime: 0
    m_StartTime: 0
    m_StopTime: 0.8888889
    m_OrientationOffsetY: 0
    m_Level: 0
    m_CycleOffset: 0
    m_HasAdditiveReferencePose: 0
    m_LoopTime: 1
    m_LoopBlend: 0
    m_LoopBlendOrientation: 0
    m_LoopBlendPositionY: 0
    m_LoopBlendPositionXZ: 0
    m_KeepOriginalOrientation: 0
    m_KeepOriginalPositionY: 1
    m_KeepOriginalPositionXZ: 0
    m_HeightFromFeet: 0
    m_Mirror: 0
  m_EditorCurves: []
  m_EulerEditorCurves: []
  m_HasGenericRootTransform: 0
  m_HasMotionFloatCurves: 0
  m_GenerateMotionCurves: 0
  m_Events: []
