%YAML 1.1
%TAG !u! tag:unity3d.com,2011:
--- !u!29 &1
OcclusionCullingSettings:
  m_ObjectHideFlags: 0
  serializedVersion: 2
  m_OcclusionBakeSettings:
    smallestOccluder: 5
    smallestHole: 0.25
    backfaceThreshold: 100
  m_SceneGUID: 00000000000000000000000000000000
  m_OcclusionCullingData: {fileID: 0}
--- !u!104 &2
RenderSettings:
  m_ObjectHideFlags: 0
  serializedVersion: 8
  m_Fog: 0
  m_FogColor: {r: 0.5, g: 0.5, b: 0.5, a: 1}
  m_FogMode: 3
  m_FogDensity: 0.01
  m_LinearFogStart: 0
  m_LinearFogEnd: 300
  m_AmbientSkyColor: {r: 0.212, g: 0.227, b: 0.259, a: 1}
  m_AmbientEquatorColor: {r: 0.114, g: 0.125, b: 0.133, a: 1}
  m_AmbientGroundColor: {r: 0.047, g: 0.043, b: 0.035, a: 1}
  m_AmbientIntensity: 1
  m_AmbientMode: 0
  m_SubtractiveShadowColor: {r: 0.42, g: 0.478, b: 0.627, a: 1}
  m_SkyboxMaterial: {fileID: 10304, guid: 0000000000000000f000000000000000, type: 0}
  m_HaloStrength: 0.5
  m_FlareStrength: 1
  m_FlareFadeSpeed: 3
  m_HaloTexture: {fileID: 0}
  m_SpotCookie: {fileID: 10001, guid: 0000000000000000e000000000000000, type: 0}
  m_DefaultReflectionMode: 0
  m_DefaultReflectionResolution: 128
  m_ReflectionBounces: 1
  m_ReflectionIntensity: 1
  m_CustomReflection: {fileID: 0}
  m_Sun: {fileID: 0}
  m_IndirectSpecularColor: {r: 0, g: 0, b: 0, a: 1}
--- !u!157 &3
LightmapSettings:
  m_ObjectHideFlags: 0
  serializedVersion: 11
  m_GIWorkflowMode: 1
  m_GISettings:
    serializedVersion: 2
    m_BounceScale: 1
    m_IndirectOutputScale: 1
    m_AlbedoBoost: 1
    m_TemporalCoherenceThreshold: 1
    m_EnvironmentLightingMode: 0
    m_EnableBakedLightmaps: 1
    m_EnableRealtimeLightmaps: 1
  m_LightmapEditorSettings:
    serializedVersion: 9
    m_Resolution: 2
    m_BakeResolution: 40
    m_TextureWidth: 1024
    m_TextureHeight: 1024
    m_AO: 0
    m_AOMaxDistance: 1
    m_CompAOExponent: 0
    m_CompAOExponentDirect: 0
    m_Padding: 2
    m_LightmapParameters: {fileID: 0}
    m_LightmapsBakeMode: 1
    m_TextureCompression: 1
    m_FinalGather: 0
    m_FinalGatherFiltering: 1
    m_FinalGatherRayCount: 1024
    m_ReflectionCompression: 2
    m_MixedBakeMode: 1
    m_BakeBackend: 0
    m_PVRSampling: 1
    m_PVRDirectSampleCount: 32
    m_PVRSampleCount: 500
    m_PVRBounces: 2
    m_PVRFilterTypeDirect: 0
    m_PVRFilterTypeIndirect: 0
    m_PVRFilterTypeAO: 0
    m_PVRFilteringMode: 0
    m_PVRCulling: 1
    m_PVRFilteringGaussRadiusDirect: 1
    m_PVRFilteringGaussRadiusIndirect: 5
    m_PVRFilteringGaussRadiusAO: 2
    m_PVRFilteringAtrousPositionSigmaDirect: 0.5
    m_PVRFilteringAtrousPositionSigmaIndirect: 2
    m_PVRFilteringAtrousPositionSigmaAO: 1
    m_ShowResolutionOverlay: 1
  m_LightingDataAsset: {fileID: 0}
  m_UseShadowmask: 0
--- !u!196 &4
NavMeshSettings:
  serializedVersion: 2
  m_ObjectHideFlags: 0
  m_BuildSettings:
    serializedVersion: 2
    agentTypeID: 0
    agentRadius: 0.5
    agentHeight: 2
    agentSlope: 45
    agentClimb: 0.4
    ledgeDropHeight: 0
    maxJumpAcrossDistance: 0
    minRegionArea: 2
    manualCellSize: 0
    cellSize: 0.16666667
    manualTileSize: 0
    tileSize: 256
    accuratePlacement: 0
    debug:
      m_Flags: 0
  m_NavMeshData: {fileID: 0}
--- !u!1 &54506118
GameObject:
  m_ObjectHideFlags: 0
  m_PrefabParentObject: {fileID: 0}
  m_PrefabInternal: {fileID: 0}
  serializedVersion: 5
  m_Component:
  - component: {fileID: 54506121}
  - component: {fileID: 54506120}
  - component: {fileID: 54506119}
  m_Layer: 0
  m_Name: EventSystem
  m_TagString: Untagged
  m_Icon: {fileID: 0}
  m_NavMeshLayer: 0
  m_StaticEditorFlags: 0
  m_IsActive: 1
--- !u!114 &54506119
MonoBehaviour:
  m_ObjectHideFlags: 0
  m_PrefabParentObject: {fileID: 0}
  m_PrefabInternal: {fileID: 0}
  m_GameObject: {fileID: 54506118}
  m_Enabled: 1
  m_EditorHideFlags: 0
  m_Script: {fileID: 1077351063, guid: f5f67c52d1564df4a8936ccd202a3bd8, type: 3}
  m_Name: 
  m_EditorClassIdentifier: 
  m_HorizontalAxis: Horizontal
  m_VerticalAxis: Vertical
  m_SubmitButton: Submit
  m_CancelButton: Cancel
  m_InputActionsPerSecond: 10
  m_RepeatDelay: 0.5
  m_ForceModuleActive: 0
--- !u!114 &54506120
MonoBehaviour:
  m_ObjectHideFlags: 0
  m_PrefabParentObject: {fileID: 0}
  m_PrefabInternal: {fileID: 0}
  m_GameObject: {fileID: 54506118}
  m_Enabled: 1
  m_EditorHideFlags: 0
  m_Script: {fileID: -619905303, guid: f5f67c52d1564df4a8936ccd202a3bd8, type: 3}
  m_Name: 
  m_EditorClassIdentifier: 
  m_FirstSelected: {fileID: 0}
  m_sendNavigationEvents: 1
  m_DragThreshold: 5
--- !u!4 &54506121
Transform:
  m_ObjectHideFlags: 0
  m_PrefabParentObject: {fileID: 0}
  m_PrefabInternal: {fileID: 0}
  m_GameObject: {fileID: 54506118}
  m_LocalRotation: {x: 0, y: 0, z: 0, w: 1}
  m_LocalPosition: {x: -551.5, y: -265, z: 0}
  m_LocalScale: {x: 1, y: 1, z: 1}
  m_Children: []
  m_Father: {fileID: 152307652}
  m_RootOrder: 0
  m_LocalEulerAnglesHint: {x: 0, y: 0, z: 0}
--- !u!1 &83969614
GameObject:
  m_ObjectHideFlags: 0
  m_PrefabParentObject: {fileID: 1520764546740086, guid: c0c356ca5fe9b1443b4b8759ed02eb2f,
    type: 2}
  m_PrefabInternal: {fileID: 963655785}
  serializedVersion: 5
  m_Component:
  - component: {fileID: 83969615}
  m_Layer: 0
  m_Name: LightningStart
  m_TagString: Untagged
  m_Icon: {fileID: 0}
  m_NavMeshLayer: 0
  m_StaticEditorFlags: 0
  m_IsActive: 1
--- !u!4 &83969615
Transform:
  m_ObjectHideFlags: 0
  m_PrefabParentObject: {fileID: 4676513241289062, guid: c0c356ca5fe9b1443b4b8759ed02eb2f,
    type: 2}
  m_PrefabInternal: {fileID: 963655785}
  m_GameObject: {fileID: 83969614}
  m_LocalRotation: {x: 0, y: 0, z: 0, w: 1}
  m_LocalPosition: {x: -1, y: -1, z: 0}
  m_LocalScale: {x: 1, y: 1, z: 1}
  m_Children: []
  m_Father: {fileID: 1271838425}
  m_RootOrder: 0
  m_LocalEulerAnglesHint: {x: 0, y: 0, z: 0}
--- !u!1 &152307648
GameObject:
  m_ObjectHideFlags: 0
  m_PrefabParentObject: {fileID: 0}
  m_PrefabInternal: {fileID: 0}
  serializedVersion: 5
  m_Component:
  - component: {fileID: 152307652}
  - component: {fileID: 152307651}
  - component: {fileID: 152307650}
  - component: {fileID: 152307649}
  m_Layer: 5
  m_Name: Canvas
  m_TagString: Untagged
  m_Icon: {fileID: 0}
  m_NavMeshLayer: 0
  m_StaticEditorFlags: 0
  m_IsActive: 1
--- !u!114 &152307649
MonoBehaviour:
  m_ObjectHideFlags: 0
  m_PrefabParentObject: {fileID: 0}
  m_PrefabInternal: {fileID: 0}
  m_GameObject: {fileID: 152307648}
  m_Enabled: 1
  m_EditorHideFlags: 0
  m_Script: {fileID: 1301386320, guid: f5f67c52d1564df4a8936ccd202a3bd8, type: 3}
  m_Name: 
  m_EditorClassIdentifier: 
  m_IgnoreReversedGraphics: 1
  m_BlockingObjects: 0
  m_BlockingMask:
    serializedVersion: 2
    m_Bits: 4294967295
--- !u!114 &152307650
MonoBehaviour:
  m_ObjectHideFlags: 0
  m_PrefabParentObject: {fileID: 0}
  m_PrefabInternal: {fileID: 0}
  m_GameObject: {fileID: 152307648}
  m_Enabled: 1
  m_EditorHideFlags: 0
  m_Script: {fileID: 1980459831, guid: f5f67c52d1564df4a8936ccd202a3bd8, type: 3}
  m_Name: 
  m_EditorClassIdentifier: 
  m_UiScaleMode: 0
  m_ReferencePixelsPerUnit: 100
  m_ScaleFactor: 1
  m_ReferenceResolution: {x: 800, y: 600}
  m_ScreenMatchMode: 0
  m_MatchWidthOrHeight: 0
  m_PhysicalUnit: 3
  m_FallbackScreenDPI: 96
  m_DefaultSpriteDPI: 96
  m_DynamicPixelsPerUnit: 1
--- !u!223 &152307651
Canvas:
  m_ObjectHideFlags: 0
  m_PrefabParentObject: {fileID: 0}
  m_PrefabInternal: {fileID: 0}
  m_GameObject: {fileID: 152307648}
  m_Enabled: 1
  serializedVersion: 3
  m_RenderMode: 0
  m_Camera: {fileID: 0}
  m_PlaneDistance: 100
  m_PixelPerfect: 0
  m_ReceivesEvents: 1
  m_OverrideSorting: 0
  m_OverridePixelPerfect: 0
  m_SortingBucketNormalizedSize: 0
  m_AdditionalShaderChannelsFlag: 25
  m_SortingLayerID: 0
  m_SortingOrder: 0
  m_TargetDisplay: 0
--- !u!224 &152307652
RectTransform:
  m_ObjectHideFlags: 0
  m_PrefabParentObject: {fileID: 0}
  m_PrefabInternal: {fileID: 0}
  m_GameObject: {fileID: 152307648}
  m_LocalRotation: {x: 0, y: 0, z: 0, w: 1}
  m_LocalPosition: {x: 0, y: 0, z: 0}
  m_LocalScale: {x: 0, y: 0, z: 0}
  m_Children:
  - {fileID: 54506121}
  - {fileID: 2125286812}
  - {fileID: 1940098197}
  m_Father: {fileID: 0}
  m_RootOrder: 2
  m_LocalEulerAnglesHint: {x: 0, y: 0, z: 0}
  m_AnchorMin: {x: 0, y: 0}
  m_AnchorMax: {x: 0, y: 0}
  m_AnchoredPosition: {x: 0, y: 0}
  m_SizeDelta: {x: 0, y: 0}
  m_Pivot: {x: 0, y: 0}
--- !u!1001 &450629745
Prefab:
  m_ObjectHideFlags: 0
  serializedVersion: 2
  m_Modification:
    m_TransformParent: {fileID: 1593000382}
    m_Modifications:
    - target: {fileID: 415704, guid: 4f4819a088dbd824f857f3d6b45b5eeb, type: 2}
      propertyPath: m_LocalPosition.x
      value: 0
      objectReference: {fileID: 0}
    - target: {fileID: 415704, guid: 4f4819a088dbd824f857f3d6b45b5eeb, type: 2}
      propertyPath: m_LocalPosition.y
      value: 0
      objectReference: {fileID: 0}
    - target: {fileID: 415704, guid: 4f4819a088dbd824f857f3d6b45b5eeb, type: 2}
      propertyPath: m_LocalPosition.z
      value: 0
      objectReference: {fileID: 0}
    - target: {fileID: 415704, guid: 4f4819a088dbd824f857f3d6b45b5eeb, type: 2}
      propertyPath: m_LocalRotation.x
      value: 0
      objectReference: {fileID: 0}
    - target: {fileID: 415704, guid: 4f4819a088dbd824f857f3d6b45b5eeb, type: 2}
      propertyPath: m_LocalRotation.y
      value: 0
      objectReference: {fileID: 0}
    - target: {fileID: 415704, guid: 4f4819a088dbd824f857f3d6b45b5eeb, type: 2}
      propertyPath: m_LocalRotation.z
      value: 0
      objectReference: {fileID: 0}
    - target: {fileID: 415704, guid: 4f4819a088dbd824f857f3d6b45b5eeb, type: 2}
      propertyPath: m_LocalRotation.w
      value: 1
      objectReference: {fileID: 0}
    - target: {fileID: 415704, guid: 4f4819a088dbd824f857f3d6b45b5eeb, type: 2}
      propertyPath: m_RootOrder
      value: 1
      objectReference: {fileID: 0}
    - target: {fileID: 8258540, guid: 4f4819a088dbd824f857f3d6b45b5eeb, type: 2}
      propertyPath: panLevelCustomCurve.m_RotationOrder
      value: 0
      objectReference: {fileID: 0}
    - target: {fileID: 8258540, guid: 4f4819a088dbd824f857f3d6b45b5eeb, type: 2}
      propertyPath: spreadCustomCurve.m_RotationOrder
      value: 0
      objectReference: {fileID: 0}
    - target: {fileID: 8258540, guid: 4f4819a088dbd824f857f3d6b45b5eeb, type: 2}
      propertyPath: reverbZoneMixCustomCurve.m_RotationOrder
      value: 0
      objectReference: {fileID: 0}
    - target: {fileID: 193720, guid: 4f4819a088dbd824f857f3d6b45b5eeb, type: 2}
      propertyPath: m_IsActive
      value: 0
      objectReference: {fileID: 0}
    - target: {fileID: 8258540, guid: 4f4819a088dbd824f857f3d6b45b5eeb, type: 2}
      propertyPath: m_Enabled
      value: 0
      objectReference: {fileID: 0}
    - target: {fileID: 11406054, guid: 4f4819a088dbd824f857f3d6b45b5eeb, type: 2}
      propertyPath: SortLayerName
      value: Default
      objectReference: {fileID: 0}
    - target: {fileID: 11406054, guid: 4f4819a088dbd824f857f3d6b45b5eeb, type: 2}
      propertyPath: FieldBounds.m_Center.y
      value: 0
      objectReference: {fileID: 0}
    - target: {fileID: 11406054, guid: 4f4819a088dbd824f857f3d6b45b5eeb, type: 2}
      propertyPath: FieldBounds.m_Center.z
      value: 0
      objectReference: {fileID: 0}
    - target: {fileID: 11406054, guid: 4f4819a088dbd824f857f3d6b45b5eeb, type: 2}
      propertyPath: FieldBounds.m_Extent.y
      value: 4
      objectReference: {fileID: 0}
    - target: {fileID: 11406054, guid: 4f4819a088dbd824f857f3d6b45b5eeb, type: 2}
      propertyPath: FieldBounds.m_Extent.x
      value: 4
      objectReference: {fileID: 0}
    - target: {fileID: 11406054, guid: 4f4819a088dbd824f857f3d6b45b5eeb, type: 2}
      propertyPath: FieldBounds.m_Extent.z
      value: 0.1
      objectReference: {fileID: 0}
    - target: {fileID: 11406054, guid: 4f4819a088dbd824f857f3d6b45b5eeb, type: 2}
      propertyPath: GlowTintColor.r
      value: 0.6782962
      objectReference: {fileID: 0}
    - target: {fileID: 11406054, guid: 4f4819a088dbd824f857f3d6b45b5eeb, type: 2}
      propertyPath: GlowTintColor.g
      value: 0.61764705
      objectReference: {fileID: 0}
    - target: {fileID: 11406054, guid: 4f4819a088dbd824f857f3d6b45b5eeb, type: 2}
      propertyPath: GlowTintColor.b
      value: 1
      objectReference: {fileID: 0}
    - target: {fileID: 11406054, guid: 4f4819a088dbd824f857f3d6b45b5eeb, type: 2}
      propertyPath: TrunkWidthRange.Minimum
      value: 0.02
      objectReference: {fileID: 0}
    - target: {fileID: 11406054, guid: 4f4819a088dbd824f857f3d6b45b5eeb, type: 2}
      propertyPath: TrunkWidthRange.Maximum
      value: 0.04
      objectReference: {fileID: 0}
    - target: {fileID: 11406054, guid: 4f4819a088dbd824f857f3d6b45b5eeb, type: 2}
      propertyPath: Turbulence
      value: 0
      objectReference: {fileID: 0}
    - target: {fileID: 11406054, guid: 4f4819a088dbd824f857f3d6b45b5eeb, type: 2}
      propertyPath: JitterMultiplier
      value: 0
      objectReference: {fileID: 0}
    - target: {fileID: 11406054, guid: 4f4819a088dbd824f857f3d6b45b5eeb, type: 2}
      propertyPath: DurationRange.Minimum
      value: 0.05
      objectReference: {fileID: 0}
    - target: {fileID: 11406054, guid: 4f4819a088dbd824f857f3d6b45b5eeb, type: 2}
      propertyPath: DurationRange.Maximum
      value: 0.1
      objectReference: {fileID: 0}
    - target: {fileID: 11406054, guid: 4f4819a088dbd824f857f3d6b45b5eeb, type: 2}
      propertyPath: IntervalRange.Minimum
      value: 0.05
      objectReference: {fileID: 0}
    - target: {fileID: 11406054, guid: 4f4819a088dbd824f857f3d6b45b5eeb, type: 2}
      propertyPath: IntervalRange.Maximum
      value: 0.05
      objectReference: {fileID: 0}
    - target: {fileID: 11406054, guid: 4f4819a088dbd824f857f3d6b45b5eeb, type: 2}
      propertyPath: Generations
      value: 8
      objectReference: {fileID: 0}
    - target: {fileID: 11406054, guid: 4f4819a088dbd824f857f3d6b45b5eeb, type: 2}
      propertyPath: GlowIntensity
      value: 0.006
      objectReference: {fileID: 0}
    - target: {fileID: 11406054, guid: 4f4819a088dbd824f857f3d6b45b5eeb, type: 2}
      propertyPath: Forkedness
      value: 0.5
      objectReference: {fileID: 0}
    - target: {fileID: 11406054, guid: 4f4819a088dbd824f857f3d6b45b5eeb, type: 2}
      propertyPath: GlowWidthMultiplier
      value: 22
      objectReference: {fileID: 0}
    - target: {fileID: 11406054, guid: 4f4819a088dbd824f857f3d6b45b5eeb, type: 2}
      propertyPath: MaximumLightsPerBatch
      value: 0
      objectReference: {fileID: 0}
    - target: {fileID: 11406054, guid: 4f4819a088dbd824f857f3d6b45b5eeb, type: 2}
      propertyPath: ForkEndWidthMultiplier
      value: 0.4
      objectReference: {fileID: 0}
    - target: {fileID: 11406054, guid: 4f4819a088dbd824f857f3d6b45b5eeb, type: 2}
      propertyPath: Camera
      value: 
      objectReference: {fileID: 920729705}
    - target: {fileID: 11406054, guid: 4f4819a088dbd824f857f3d6b45b5eeb, type: 2}
      propertyPath: CountRange.Minimum
      value: 1
      objectReference: {fileID: 0}
    - target: {fileID: 11406054, guid: 4f4819a088dbd824f857f3d6b45b5eeb, type: 2}
      propertyPath: CountRange.Maximum
      value: 2
      objectReference: {fileID: 0}
    - target: {fileID: 11406054, guid: 4f4819a088dbd824f857f3d6b45b5eeb, type: 2}
      propertyPath: MinimumLength
      value: 2
      objectReference: {fileID: 0}
    - target: {fileID: 146056, guid: 4f4819a088dbd824f857f3d6b45b5eeb, type: 2}
      propertyPath: m_IsActive
      value: 0
      objectReference: {fileID: 0}
    m_RemovedComponents: []
  m_ParentPrefab: {fileID: 100100000, guid: 4f4819a088dbd824f857f3d6b45b5eeb, type: 2}
  m_RootGameObject: {fileID: 1170963535}
  m_IsPrefabParent: 0
--- !u!1 &622171769
GameObject:
  m_ObjectHideFlags: 0
  m_PrefabParentObject: {fileID: 0}
  m_PrefabInternal: {fileID: 0}
  serializedVersion: 5
  m_Component:
  - component: {fileID: 622171770}
  - component: {fileID: 622171771}
  m_Layer: 0
  m_Name: SpriteSheetCreator
  m_TagString: Untagged
  m_Icon: {fileID: 0}
  m_NavMeshLayer: 0
  m_StaticEditorFlags: 0
  m_IsActive: 1
--- !u!4 &622171770
Transform:
  m_ObjectHideFlags: 0
  m_PrefabParentObject: {fileID: 0}
  m_PrefabInternal: {fileID: 0}
  m_GameObject: {fileID: 622171769}
  m_LocalRotation: {x: 0, y: 0, z: 0, w: 1}
  m_LocalPosition: {x: 0, y: 0, z: 0}
  m_LocalScale: {x: 1, y: 1, z: 1}
  m_Children:
  - {fileID: 1593000382}
  m_Father: {fileID: 0}
  m_RootOrder: 0
  m_LocalEulerAnglesHint: {x: 0, y: 0, z: 0}
--- !u!114 &622171771
MonoBehaviour:
  m_ObjectHideFlags: 0
  m_PrefabParentObject: {fileID: 0}
  m_PrefabInternal: {fileID: 0}
  m_GameObject: {fileID: 622171769}
  m_Enabled: 1
  m_EditorHideFlags: 0
  m_Script: {fileID: 11500000, guid: 4c954c0297ec39d4d819a3547d7fa829, type: 3}
  m_Name: 
  m_EditorClassIdentifier: 
  Width: 2048
  Height: 2048
  Rows: 3
  Columns: 6
  FrameDelay: 0.05
  BackgroundColor: {r: 0, g: 0, b: 0, a: 1}
  SaveFileName: 
  ExportCompleteLabel: {fileID: 1940098198}
--- !u!1 &722937296
GameObject:
  m_ObjectHideFlags: 0
  m_PrefabParentObject: {fileID: 0}
  m_PrefabInternal: {fileID: 0}
  serializedVersion: 5
  m_Component:
  - component: {fileID: 722937297}
  m_Layer: 0
  m_Name: LightningStart
  m_TagString: Untagged
  m_Icon: {fileID: 0}
  m_NavMeshLayer: 0
  m_StaticEditorFlags: 0
  m_IsActive: 1
--- !u!4 &722937297
Transform:
  m_ObjectHideFlags: 0
  m_PrefabParentObject: {fileID: 0}
  m_PrefabInternal: {fileID: 0}
  m_GameObject: {fileID: 722937296}
  m_LocalRotation: {x: 0, y: 0, z: 0, w: 1}
  m_LocalPosition: {x: 0, y: 4, z: 0}
  m_LocalScale: {x: 1, y: 1, z: 1}
  m_Children: []
  m_Father: {fileID: 1593000382}
  m_RootOrder: 3
  m_LocalEulerAnglesHint: {x: 0, y: 0, z: 0}
--- !u!1 &920729701
GameObject:
  m_ObjectHideFlags: 0
  m_PrefabParentObject: {fileID: 0}
  m_PrefabInternal: {fileID: 0}
  serializedVersion: 5
  m_Component:
  - component: {fileID: 920729706}
  - component: {fileID: 920729705}
  - component: {fileID: 920729704}
  - component: {fileID: 920729703}
  - component: {fileID: 920729702}
  m_Layer: 0
  m_Name: MainCamera
  m_TagString: MainCamera
  m_Icon: {fileID: 0}
  m_NavMeshLayer: 0
  m_StaticEditorFlags: 0
  m_IsActive: 1
--- !u!81 &920729702
AudioListener:
  m_ObjectHideFlags: 0
  m_PrefabParentObject: {fileID: 0}
  m_PrefabInternal: {fileID: 0}
  m_GameObject: {fileID: 920729701}
  m_Enabled: 1
--- !u!92 &920729703
Behaviour:
  m_ObjectHideFlags: 0
  m_PrefabParentObject: {fileID: 0}
  m_PrefabInternal: {fileID: 0}
  m_GameObject: {fileID: 920729701}
  m_Enabled: 1
--- !u!124 &920729704
Behaviour:
  m_ObjectHideFlags: 0
  m_PrefabParentObject: {fileID: 0}
  m_PrefabInternal: {fileID: 0}
  m_GameObject: {fileID: 920729701}
  m_Enabled: 1
--- !u!20 &920729705
Camera:
  m_ObjectHideFlags: 0
  m_PrefabParentObject: {fileID: 0}
  m_PrefabInternal: {fileID: 0}
  m_GameObject: {fileID: 920729701}
  m_Enabled: 1
  serializedVersion: 2
  m_ClearFlags: 2
  m_BackGroundColor: {r: 0, g: 0, b: 0, a: 1}
  m_NormalizedViewPortRect:
    serializedVersion: 2
    x: 0
    y: 0
    width: 1
    height: 1
  near clip plane: 0.01
  far clip plane: 1000
  field of view: 60
  orthographic: 1
  orthographic size: 5
  m_Depth: 0
  m_CullingMask:
    serializedVersion: 2
    m_Bits: 4294967295
  m_RenderingPath: 3
  m_TargetTexture: {fileID: 0}
  m_TargetDisplay: 0
  m_TargetEye: 3
  m_HDR: 0
  m_AllowMSAA: 1
  m_AllowDynamicResolution: 0
  m_ForceIntoRT: 0
  m_OcclusionCulling: 1
  m_StereoConvergence: 10
  m_StereoSeparation: 0.022
--- !u!4 &920729706
Transform:
  m_ObjectHideFlags: 0
  m_PrefabParentObject: {fileID: 0}
  m_PrefabInternal: {fileID: 0}
  m_GameObject: {fileID: 920729701}
  m_LocalRotation: {x: 0, y: 0, z: 0, w: 1}
  m_LocalPosition: {x: 0, y: 0, z: -10}
  m_LocalScale: {x: 1, y: 1, z: 1}
  m_Children: []
  m_Father: {fileID: 0}
  m_RootOrder: 1
  m_LocalEulerAnglesHint: {x: 0, y: 0, z: 0}
--- !u!1001 &963655785
Prefab:
  m_ObjectHideFlags: 0
  serializedVersion: 2
  m_Modification:
    m_TransformParent: {fileID: 1593000382}
    m_Modifications:
    - target: {fileID: 460870, guid: c0c356ca5fe9b1443b4b8759ed02eb2f, type: 2}
      propertyPath: m_LocalPosition.x
      value: 0
      objectReference: {fileID: 0}
    - target: {fileID: 460870, guid: c0c356ca5fe9b1443b4b8759ed02eb2f, type: 2}
      propertyPath: m_LocalPosition.y
      value: 0
      objectReference: {fileID: 0}
    - target: {fileID: 460870, guid: c0c356ca5fe9b1443b4b8759ed02eb2f, type: 2}
      propertyPath: m_LocalPosition.z
      value: 0
      objectReference: {fileID: 0}
    - target: {fileID: 460870, guid: c0c356ca5fe9b1443b4b8759ed02eb2f, type: 2}
      propertyPath: m_LocalRotation.x
      value: 0
      objectReference: {fileID: 0}
    - target: {fileID: 460870, guid: c0c356ca5fe9b1443b4b8759ed02eb2f, type: 2}
      propertyPath: m_LocalRotation.y
      value: 0
      objectReference: {fileID: 0}
    - target: {fileID: 460870, guid: c0c356ca5fe9b1443b4b8759ed02eb2f, type: 2}
      propertyPath: m_LocalRotation.z
      value: 0
      objectReference: {fileID: 0}
    - target: {fileID: 460870, guid: c0c356ca5fe9b1443b4b8759ed02eb2f, type: 2}
      propertyPath: m_LocalRotation.w
      value: 1
      objectReference: {fileID: 0}
    - target: {fileID: 460870, guid: c0c356ca5fe9b1443b4b8759ed02eb2f, type: 2}
      propertyPath: m_RootOrder
      value: 2
      objectReference: {fileID: 0}
    - target: {fileID: 11423590, guid: c0c356ca5fe9b1443b4b8759ed02eb2f, type: 2}
      propertyPath: SortLayerName
      value: Default
      objectReference: {fileID: 0}
    - target: {fileID: 11423590, guid: c0c356ca5fe9b1443b4b8759ed02eb2f, type: 2}
      propertyPath: Source
      value: 
      objectReference: {fileID: 722937296}
    - target: {fileID: 11423590, guid: c0c356ca5fe9b1443b4b8759ed02eb2f, type: 2}
      propertyPath: Destination
      value: 
      objectReference: {fileID: 2040584869}
    - target: {fileID: 11423590, guid: c0c356ca5fe9b1443b4b8759ed02eb2f, type: 2}
      propertyPath: Camera
      value: 
      objectReference: {fileID: 920729705}
    - target: {fileID: 11423590, guid: c0c356ca5fe9b1443b4b8759ed02eb2f, type: 2}
      propertyPath: IntervalRange.Minimum
      value: 0.05
      objectReference: {fileID: 0}
    - target: {fileID: 11423590, guid: c0c356ca5fe9b1443b4b8759ed02eb2f, type: 2}
      propertyPath: IntervalRange.Maximum
      value: 0.05
      objectReference: {fileID: 0}
    - target: {fileID: 11423590, guid: c0c356ca5fe9b1443b4b8759ed02eb2f, type: 2}
      propertyPath: DurationRange.Minimum
      value: 0.05
      objectReference: {fileID: 0}
    - target: {fileID: 11423590, guid: c0c356ca5fe9b1443b4b8759ed02eb2f, type: 2}
      propertyPath: DurationRange.Maximum
      value: 0.05
      objectReference: {fileID: 0}
    - target: {fileID: 11423590, guid: c0c356ca5fe9b1443b4b8759ed02eb2f, type: 2}
      propertyPath: GlowTintColor.r
      value: 0.5661765
      objectReference: {fileID: 0}
    - target: {fileID: 11423590, guid: c0c356ca5fe9b1443b4b8759ed02eb2f, type: 2}
      propertyPath: GlowTintColor.g
      value: 0.6143791
      objectReference: {fileID: 0}
    - target: {fileID: 11423590, guid: c0c356ca5fe9b1443b4b8759ed02eb2f, type: 2}
      propertyPath: TrunkWidthRange.Minimum
      value: 0.05
      objectReference: {fileID: 0}
    - target: {fileID: 11423590, guid: c0c356ca5fe9b1443b4b8759ed02eb2f, type: 2}
      propertyPath: TrunkWidthRange.Maximum
      value: 0.1
      objectReference: {fileID: 0}
    - target: {fileID: 11423590, guid: c0c356ca5fe9b1443b4b8759ed02eb2f, type: 2}
      propertyPath: ChaosFactor
      value: 0.1
      objectReference: {fileID: 0}
    - target: {fileID: 11423590, guid: c0c356ca5fe9b1443b4b8759ed02eb2f, type: 2}
      propertyPath: GlowIntensity
      value: 0.03
      objectReference: {fileID: 0}
    - target: {fileID: 11423590, guid: c0c356ca5fe9b1443b4b8759ed02eb2f, type: 2}
      propertyPath: GlowWidthMultiplier
      value: 10
      objectReference: {fileID: 0}
    - target: {fileID: 11423590, guid: c0c356ca5fe9b1443b4b8759ed02eb2f, type: 2}
      propertyPath: Forkedness
      value: 0.672
      objectReference: {fileID: 0}
    - target: {fileID: 11423590, guid: c0c356ca5fe9b1443b4b8759ed02eb2f, type: 2}
      propertyPath: Generations
      value: 8
      objectReference: {fileID: 0}
    m_RemovedComponents: []
  m_ParentPrefab: {fileID: 100100000, guid: c0c356ca5fe9b1443b4b8759ed02eb2f, type: 2}
  m_RootGameObject: {fileID: 1621781617}
  m_IsPrefabParent: 0
--- !u!4 &1041856972
Transform:
  m_ObjectHideFlags: 0
  m_PrefabParentObject: {fileID: 415704, guid: 4f4819a088dbd824f857f3d6b45b5eeb, type: 2}
  m_PrefabInternal: {fileID: 450629745}
  m_GameObject: {fileID: 1170963535}
  m_LocalRotation: {x: 0, y: 0, z: 0, w: 1}
  m_LocalPosition: {x: 0, y: 0, z: 0}
  m_LocalScale: {x: 1, y: 1, z: 1}
  m_Children:
  - {fileID: 1257726058}
  - {fileID: 1935040516}
  m_Father: {fileID: 1593000382}
  m_RootOrder: 1
  m_LocalEulerAnglesHint: {x: 0, y: 0, z: 0}
--- !u!1 &1170963535
GameObject:
  m_ObjectHideFlags: 0
  m_PrefabParentObject: {fileID: 146056, guid: 4f4819a088dbd824f857f3d6b45b5eeb, type: 2}
  m_PrefabInternal: {fileID: 450629745}
  serializedVersion: 5
  m_Component:
  - component: {fileID: 1041856972}
  - component: {fileID: 1170963536}
  m_Layer: 0
  m_Name: LightningFieldPrefab
  m_TagString: Untagged
  m_Icon: {fileID: 0}
  m_NavMeshLayer: 0
  m_StaticEditorFlags: 0
  m_IsActive: 0
--- !u!82 &1170963536
AudioSource:
  m_ObjectHideFlags: 0
  m_PrefabParentObject: {fileID: 8258540, guid: 4f4819a088dbd824f857f3d6b45b5eeb,
    type: 2}
  m_PrefabInternal: {fileID: 450629745}
  m_GameObject: {fileID: 1170963535}
  m_Enabled: 0
  serializedVersion: 4
  OutputAudioMixerGroup: {fileID: 0}
  m_audioClip: {fileID: 8300000, guid: 9f1a63277e9121644886c98736e27a27, type: 3}
  m_PlayOnAwake: 1
  m_Volume: 1
  m_Pitch: 1
  Loop: 1
  Mute: 0
  Spatialize: 0
  SpatializePostEffects: 0
  Priority: 128
  DopplerLevel: 1
  MinDistance: 2
  MaxDistance: 10
  Pan2D: 0
  rolloffMode: 1
  BypassEffects: 0
  BypassListenerEffects: 0
  BypassReverbZones: 0
  rolloffCustomCurve:
    serializedVersion: 2
    m_Curve:
    - serializedVersion: 2
      time: 0.18725099
      value: 0.48823535
      inSlope: 0
      outSlope: -1.25
      tangentMode: 0
    - serializedVersion: 2
      time: 1
      value: 0
      inSlope: -1.25
      outSlope: 0
      tangentMode: 0
    m_PreInfinity: 2
    m_PostInfinity: 2
    m_RotationOrder: 4
  panLevelCustomCurve:
    serializedVersion: 2
    m_Curve:
    - serializedVersion: 2
      time: 0
      value: 1
      inSlope: 0
      outSlope: 0
      tangentMode: 0
    m_PreInfinity: 2
    m_PostInfinity: 2
    m_RotationOrder: 0
  spreadCustomCurve:
    serializedVersion: 2
    m_Curve:
    - serializedVersion: 2
      time: 0
      value: 0
      inSlope: 0
      outSlope: 0
      tangentMode: 0
    m_PreInfinity: 2
    m_PostInfinity: 2
    m_RotationOrder: 0
  reverbZoneMixCustomCurve:
    serializedVersion: 2
    m_Curve:
    - serializedVersion: 2
      time: 0
      value: 1
      inSlope: 0
      outSlope: 0
      tangentMode: 0
    m_PreInfinity: 2
    m_PostInfinity: 2
    m_RotationOrder: 0
--- !u!1 &1257726057
GameObject:
  m_ObjectHideFlags: 0
  m_PrefabParentObject: {fileID: 129750, guid: 4f4819a088dbd824f857f3d6b45b5eeb, type: 2}
  m_PrefabInternal: {fileID: 450629745}
  serializedVersion: 5
  m_Component:
  - component: {fileID: 1257726058}
  - component: {fileID: 1257726059}
  m_Layer: 0
  m_Name: LightningFieldScript
  m_TagString: Untagged
  m_Icon: {fileID: 0}
  m_NavMeshLayer: 0
  m_StaticEditorFlags: 0
  m_IsActive: 1
--- !u!4 &1257726058
Transform:
  m_ObjectHideFlags: 0
  m_PrefabParentObject: {fileID: 421686, guid: 4f4819a088dbd824f857f3d6b45b5eeb, type: 2}
  m_PrefabInternal: {fileID: 450629745}
  m_GameObject: {fileID: 1257726057}
  m_LocalRotation: {x: 0, y: 0, z: 0, w: 1}
  m_LocalPosition: {x: 0, y: 0, z: 0}
  m_LocalScale: {x: 1, y: 1, z: 1}
  m_Children: []
  m_Father: {fileID: 1041856972}
  m_RootOrder: 0
  m_LocalEulerAnglesHint: {x: 0, y: 0, z: 0}
--- !u!114 &1257726059
MonoBehaviour:
  m_ObjectHideFlags: 0
  m_PrefabParentObject: {fileID: 11406054, guid: 4f4819a088dbd824f857f3d6b45b5eeb,
    type: 2}
  m_PrefabInternal: {fileID: 450629745}
  m_GameObject: {fileID: 1257726057}
  m_Enabled: 1
  m_EditorHideFlags: 0
  m_Script: {fileID: 11500000, guid: f6ed1437e014e4940a0c52ddb0fc09d6, type: 3}
  m_Name: 
  m_EditorClassIdentifier: 
  Camera: {fileID: 920729705}
  CameraMode: 0
  UseWorldSpace: 1
  CompensateForParentTransform: 0
  QualitySetting: 0
  MultiThreaded: 0
  SortLayerName: Default
  SortOrderInLayer: 0
  SoftParticlesFactor: 3
  RenderQueue: -1
  LightningMaterialMesh: {fileID: 2100000, guid: c6b8576004384974191b466f0bdef64b,
    type: 2}
  LightningMaterialMeshNoGlow: {fileID: 2100000, guid: db76dde8469c5834887c024ae9f43289,
    type: 2}
  LightningTexture: {fileID: 2800000, guid: ac56d134621a3224e9378101f1fef49f, type: 3}
  LightningGlowTexture: {fileID: 2800000, guid: cab73e4c670527a4aae0af0c436a4350,
    type: 3}
  LightningOriginParticleSystem: {fileID: 0}
  LightningDestinationParticleSystem: {fileID: 0}
  LightningTintColor: {r: 1, g: 1, b: 1, a: 1}
  GlowTintColor: {r: 0.6782962, g: 0.61764705, b: 1, a: 1}
  SourceBlendMode: 5
  DestinationBlendMode: 1
  JitterMultiplier: 0
  Turbulence: 0
  TurbulenceVelocity: {x: 0, y: 0, z: 0}
  IntensityFlicker: {x: 1, y: 1, z: 1, w: 0}
  IntensityFlickerTexture: {fileID: 0}
  IntervalRange:
    Minimum: 0.05
    Maximum: 0.05
  CountRange:
    Minimum: 1
    Maximum: 2
  CountProbabilityModifier: 0.5
  DelayRange:
    Minimum: 0
    Maximum: 0
  DurationRange:
    Minimum: 0.05
    Maximum: 0.1
  TrunkWidthRange:
    Minimum: 0.02
    Maximum: 0.04
  LifeTime: 0
  Generations: 8
  ChaosFactor: 0.4
  ChaosFactorForks: 0.095
  Intensity: 0.8
  GlowIntensity: 0.006
  GlowWidthMultiplier: 22
  FadePercent: 0.3
  FadeInMultiplier: 1
  FadeFullyLitMultiplier: 1
  FadeOutMultiplier: 1
  GrowthMultiplier: 0.25
  EndWidthMultiplier: 0.75
  Forkedness: 0.5
  ForkLengthMultiplier: 0.6
  ForkLengthVariance: 0.2
  ForkEndWidthMultiplier: 0.4
  LightParameters:
    RenderMode: 0
    LightColor: {r: 1, g: 1, b: 1, a: 1}
    LightPercent: 0.000001
    LightShadowPercent: 0
    LightIntensity: 0.5
    BounceIntensity: 0
    ShadowStrength: 1
    ShadowBias: 0.05
    ShadowNormalBias: 0.4
    LightRange: 0
    CullingMask:
      serializedVersion: 2
      m_Bits: 4294967295
    OrthographicOffset: 0
    FadeInMultiplier: 1
    FadeFullyLitMultiplier: 1
    FadeOutMultiplier: 1
  MaximumLightsPerBatch: 0
  ManualMode: 0
  AutomaticModeSeconds: 0
  CustomTransformHandler:
    m_PersistentCalls:
      m_Calls: []
    m_TypeName: DigitalRuby.ThunderAndLightning.LightningCustomTransformDelegate,
      Assembly-CSharp, Version=0.0.0.0, Culture=neutral, PublicKeyToken=null
  MinimumLength: 2
  FieldBounds:
    m_Center: {x: 0, y: 0, z: 0}
    m_Extent: {x: 4, y: 4, z: 0.1}
  Light: {fileID: 1935040517}
--- !u!4 &1271838425
Transform:
  m_ObjectHideFlags: 0
  m_PrefabParentObject: {fileID: 460870, guid: c0c356ca5fe9b1443b4b8759ed02eb2f, type: 2}
  m_PrefabInternal: {fileID: 963655785}
  m_GameObject: {fileID: 1621781617}
  m_LocalRotation: {x: 0, y: 0, z: 0, w: 1}
  m_LocalPosition: {x: 0, y: 0, z: 0}
  m_LocalScale: {x: 1, y: 1, z: 1}
  m_Children:
  - {fileID: 83969615}
  - {fileID: 2083038743}
  m_Father: {fileID: 1593000382}
  m_RootOrder: 2
  m_LocalEulerAnglesHint: {x: 0, y: 0, z: 0}
--- !u!1001 &1358039583
Prefab:
  m_ObjectHideFlags: 0
  serializedVersion: 2
  m_Modification:
    m_TransformParent: {fileID: 1593000382}
    m_Modifications:
    - target: {fileID: 424252, guid: b218bf5f424256540b6996f80414d6b0, type: 2}
      propertyPath: m_LocalPosition.x
      value: 0
      objectReference: {fileID: 0}
    - target: {fileID: 424252, guid: b218bf5f424256540b6996f80414d6b0, type: 2}
      propertyPath: m_LocalPosition.y
      value: 0
      objectReference: {fileID: 0}
    - target: {fileID: 424252, guid: b218bf5f424256540b6996f80414d6b0, type: 2}
      propertyPath: m_LocalPosition.z
      value: 0
      objectReference: {fileID: 0}
    - target: {fileID: 424252, guid: b218bf5f424256540b6996f80414d6b0, type: 2}
      propertyPath: m_LocalRotation.x
      value: 0
      objectReference: {fileID: 0}
    - target: {fileID: 424252, guid: b218bf5f424256540b6996f80414d6b0, type: 2}
      propertyPath: m_LocalRotation.y
      value: 0
      objectReference: {fileID: 0}
    - target: {fileID: 424252, guid: b218bf5f424256540b6996f80414d6b0, type: 2}
      propertyPath: m_LocalRotation.z
      value: 0
      objectReference: {fileID: 0}
    - target: {fileID: 424252, guid: b218bf5f424256540b6996f80414d6b0, type: 2}
      propertyPath: m_LocalRotation.w
      value: 1
      objectReference: {fileID: 0}
    - target: {fileID: 424252, guid: b218bf5f424256540b6996f80414d6b0, type: 2}
      propertyPath: m_RootOrder
      value: 0
      objectReference: {fileID: 0}
    - target: {fileID: 11494734, guid: b218bf5f424256540b6996f80414d6b0, type: 2}
      propertyPath: SortLayerName
      value: Default
      objectReference: {fileID: 0}
    - target: {fileID: 11494734, guid: b218bf5f424256540b6996f80414d6b0, type: 2}
      propertyPath: InnerRadius
      value: 0.4
      objectReference: {fileID: 0}
    - target: {fileID: 11494734, guid: b218bf5f424256540b6996f80414d6b0, type: 2}
      propertyPath: Radius
      value: 6
      objectReference: {fileID: 0}
    - target: {fileID: 11494734, guid: b218bf5f424256540b6996f80414d6b0, type: 2}
      propertyPath: Generations
      value: 6
      objectReference: {fileID: 0}
    - target: {fileID: 11494734, guid: b218bf5f424256540b6996f80414d6b0, type: 2}
      propertyPath: ChaosFactor
      value: 0.3
      objectReference: {fileID: 0}
    - target: {fileID: 11494734, guid: b218bf5f424256540b6996f80414d6b0, type: 2}
      propertyPath: CountRange.Minimum
      value: 2
      objectReference: {fileID: 0}
    - target: {fileID: 11494734, guid: b218bf5f424256540b6996f80414d6b0, type: 2}
      propertyPath: IntervalRange.Minimum
      value: 0.04
      objectReference: {fileID: 0}
    - target: {fileID: 11494734, guid: b218bf5f424256540b6996f80414d6b0, type: 2}
      propertyPath: IntervalRange.Maximum
      value: 0.05
      objectReference: {fileID: 0}
    - target: {fileID: 11494734, guid: b218bf5f424256540b6996f80414d6b0, type: 2}
      propertyPath: DurationRange.Minimum
      value: 0.1
      objectReference: {fileID: 0}
    - target: {fileID: 11494734, guid: b218bf5f424256540b6996f80414d6b0, type: 2}
      propertyPath: DurationRange.Maximum
      value: 0.2
      objectReference: {fileID: 0}
    - target: {fileID: 11494734, guid: b218bf5f424256540b6996f80414d6b0, type: 2}
      propertyPath: EndWidthMultiplier
      value: 0
      objectReference: {fileID: 0}
    - target: {fileID: 11494734, guid: b218bf5f424256540b6996f80414d6b0, type: 2}
      propertyPath: GlowIntensity
      value: 0.1
      objectReference: {fileID: 0}
    - target: {fileID: 11494734, guid: b218bf5f424256540b6996f80414d6b0, type: 2}
      propertyPath: GlowTintColor.r
      value: 0.31617647
      objectReference: {fileID: 0}
    - target: {fileID: 11494734, guid: b218bf5f424256540b6996f80414d6b0, type: 2}
      propertyPath: GlowTintColor.g
      value: 0.31617647
      objectReference: {fileID: 0}
    - target: {fileID: 11494734, guid: b218bf5f424256540b6996f80414d6b0, type: 2}
      propertyPath: GlowTintColor.b
      value: 1
      objectReference: {fileID: 0}
    - target: {fileID: 11494734, guid: b218bf5f424256540b6996f80414d6b0, type: 2}
      propertyPath: GlowWidthMultiplier
      value: 8
      objectReference: {fileID: 0}
    - target: {fileID: 163822, guid: b218bf5f424256540b6996f80414d6b0, type: 2}
      propertyPath: m_IsActive
      value: 0
      objectReference: {fileID: 0}
    - target: {fileID: 11494734, guid: b218bf5f424256540b6996f80414d6b0, type: 2}
      propertyPath: TrunkWidthRange.Minimum
      value: 0.02
      objectReference: {fileID: 0}
    - target: {fileID: 11494734, guid: b218bf5f424256540b6996f80414d6b0, type: 2}
      propertyPath: TrunkWidthRange.Maximum
      value: 0.04
      objectReference: {fileID: 0}
    - target: {fileID: 11494734, guid: b218bf5f424256540b6996f80414d6b0, type: 2}
      propertyPath: FadePercent
      value: 0.3
      objectReference: {fileID: 0}
    - target: {fileID: 11494734, guid: b218bf5f424256540b6996f80414d6b0, type: 2}
      propertyPath: Camera
      value: 
      objectReference: {fileID: 920729705}
    - target: {fileID: 11494734, guid: b218bf5f424256540b6996f80414d6b0, type: 2}
      propertyPath: CountRange.Maximum
      value: 4
      objectReference: {fileID: 0}
    m_RemovedComponents: []
  m_ParentPrefab: {fileID: 100100000, guid: b218bf5f424256540b6996f80414d6b0, type: 2}
  m_RootGameObject: {fileID: 1982941539}
  m_IsPrefabParent: 0
--- !u!4 &1359030568
Transform:
  m_ObjectHideFlags: 0
  m_PrefabParentObject: {fileID: 424252, guid: b218bf5f424256540b6996f80414d6b0, type: 2}
  m_PrefabInternal: {fileID: 1358039583}
  m_GameObject: {fileID: 1982941539}
  m_LocalRotation: {x: 0, y: 0, z: 0, w: 1}
  m_LocalPosition: {x: 0, y: 0, z: 0}
  m_LocalScale: {x: 1, y: 1, z: 1}
  m_Children: []
  m_Father: {fileID: 1593000382}
  m_RootOrder: 0
  m_LocalEulerAnglesHint: {x: 0, y: 0, z: 0}
--- !u!1 &1532759272
GameObject:
  m_ObjectHideFlags: 0
  m_PrefabParentObject: {fileID: 0}
  m_PrefabInternal: {fileID: 0}
  serializedVersion: 5
  m_Component:
  - component: {fileID: 1532759273}
  - component: {fileID: 1532759275}
  - component: {fileID: 1532759274}
  m_Layer: 5
  m_Name: Text
  m_TagString: Untagged
  m_Icon: {fileID: 0}
  m_NavMeshLayer: 0
  m_StaticEditorFlags: 0
  m_IsActive: 1
--- !u!224 &1532759273
RectTransform:
  m_ObjectHideFlags: 0
  m_PrefabParentObject: {fileID: 0}
  m_PrefabInternal: {fileID: 0}
  m_GameObject: {fileID: 1532759272}
  m_LocalRotation: {x: 0, y: 0, z: 0, w: 1}
  m_LocalPosition: {x: 0, y: 0, z: 0}
  m_LocalScale: {x: 1, y: 1, z: 1}
  m_Children: []
  m_Father: {fileID: 2125286812}
  m_RootOrder: 0
  m_LocalEulerAnglesHint: {x: 0, y: 0, z: 0}
  m_AnchorMin: {x: 0, y: 0}
  m_AnchorMax: {x: 1, y: 1}
  m_AnchoredPosition: {x: 0, y: 0}
  m_SizeDelta: {x: 0, y: 0}
  m_Pivot: {x: 0.5, y: 0.5}
--- !u!114 &1532759274
MonoBehaviour:
  m_ObjectHideFlags: 0
  m_PrefabParentObject: {fileID: 0}
  m_PrefabInternal: {fileID: 0}
  m_GameObject: {fileID: 1532759272}
  m_Enabled: 1
  m_EditorHideFlags: 0
  m_Script: {fileID: 708705254, guid: f5f67c52d1564df4a8936ccd202a3bd8, type: 3}
  m_Name: 
  m_EditorClassIdentifier: 
  m_Material: {fileID: 0}
  m_Color: {r: 0.19607843, g: 0.19607843, b: 0.19607843, a: 1}
  m_RaycastTarget: 1
  m_OnCullStateChanged:
    m_PersistentCalls:
      m_Calls: []
    m_TypeName: UnityEngine.UI.MaskableGraphic+CullStateChangedEvent, UnityEngine.UI,
      Version=1.0.0.0, Culture=neutral, PublicKeyToken=null
  m_FontData:
    m_Font: {fileID: 10102, guid: 0000000000000000e000000000000000, type: 0}
    m_FontSize: 14
    m_FontStyle: 0
    m_BestFit: 0
    m_MinSize: 10
    m_MaxSize: 40
    m_Alignment: 4
    m_AlignByGeometry: 0
    m_RichText: 1
    m_HorizontalOverflow: 0
    m_VerticalOverflow: 0
    m_LineSpacing: 1
  m_Text: 'EXPORT

'
--- !u!222 &1532759275
CanvasRenderer:
  m_ObjectHideFlags: 0
  m_PrefabParentObject: {fileID: 0}
  m_PrefabInternal: {fileID: 0}
  m_GameObject: {fileID: 1532759272}
--- !u!1 &1593000381
GameObject:
  m_ObjectHideFlags: 0
  m_PrefabParentObject: {fileID: 0}
  m_PrefabInternal: {fileID: 0}
  serializedVersion: 5
  m_Component:
  - component: {fileID: 1593000382}
  m_Layer: 0
  m_Name: LightningObjects
  m_TagString: Untagged
  m_Icon: {fileID: 0}
  m_NavMeshLayer: 0
  m_StaticEditorFlags: 0
  m_IsActive: 1
--- !u!4 &1593000382
Transform:
  m_ObjectHideFlags: 0
  m_PrefabParentObject: {fileID: 0}
  m_PrefabInternal: {fileID: 0}
  m_GameObject: {fileID: 1593000381}
  m_LocalRotation: {x: 0, y: 0, z: 0, w: 1}
  m_LocalPosition: {x: 0, y: 0, z: 0}
  m_LocalScale: {x: 1, y: 1, z: 1}
  m_Children:
  - {fileID: 1359030568}
  - {fileID: 1041856972}
  - {fileID: 1271838425}
  - {fileID: 722937297}
  - {fileID: 2040584870}
  m_Father: {fileID: 622171770}
  m_RootOrder: 0
  m_LocalEulerAnglesHint: {x: 0, y: 0, z: 0}
--- !u!1 &1621781617
GameObject:
  m_ObjectHideFlags: 0
  m_PrefabParentObject: {fileID: 198392, guid: c0c356ca5fe9b1443b4b8759ed02eb2f, type: 2}
  m_PrefabInternal: {fileID: 963655785}
  serializedVersion: 5
  m_Component:
  - component: {fileID: 1271838425}
  - component: {fileID: 1621781618}
  m_Layer: 0
  m_Name: LightningBoltPrefab
  m_TagString: Untagged
  m_Icon: {fileID: 0}
  m_NavMeshLayer: 0
  m_StaticEditorFlags: 0
  m_IsActive: 1
--- !u!114 &1621781618
MonoBehaviour:
  m_ObjectHideFlags: 0
  m_PrefabParentObject: {fileID: 11423590, guid: c0c356ca5fe9b1443b4b8759ed02eb2f,
    type: 2}
  m_PrefabInternal: {fileID: 963655785}
  m_GameObject: {fileID: 1621781617}
  m_Enabled: 1
  m_EditorHideFlags: 0
  m_Script: {fileID: 11500000, guid: 73e36b9ad63e5de4391fbd5982a475c1, type: 3}
  m_Name: 
  m_EditorClassIdentifier: 
  Camera: {fileID: 920729705}
  CameraMode: 0
  UseWorldSpace: 1
  CompensateForParentTransform: 0
  QualitySetting: 0
  MultiThreaded: 0
  SortLayerName: Default
  SortOrderInLayer: 0
  SoftParticlesFactor: 3
  RenderQueue: -1
  LightningMaterialMesh: {fileID: 2100000, guid: c6b8576004384974191b466f0bdef64b,
    type: 2}
  LightningMaterialMeshNoGlow: {fileID: 2100000, guid: db76dde8469c5834887c024ae9f43289,
    type: 2}
  LightningTexture: {fileID: 2800000, guid: 51e598d31382bd740958e33ab6c64a66, type: 3}
  LightningGlowTexture: {fileID: 2800000, guid: cab73e4c670527a4aae0af0c436a4350,
    type: 3}
  LightningOriginParticleSystem: {fileID: 0}
  LightningDestinationParticleSystem: {fileID: 0}
  LightningTintColor: {r: 1, g: 1, b: 1, a: 1}
  GlowTintColor: {r: 0.5661765, g: 0.6143791, b: 1, a: 1}
  SourceBlendMode: 5
  DestinationBlendMode: 1
  JitterMultiplier: 0.1
  Turbulence: 0.05
  TurbulenceVelocity: {x: 0, y: 0, z: 0}
  IntensityFlicker: {x: 1, y: 1, z: 1, w: 0}
  IntensityFlickerTexture: {fileID: 0}
  IntervalRange:
    Minimum: 0.05
    Maximum: 0.05
  CountRange:
    Minimum: 1
    Maximum: 3
  CountProbabilityModifier: 1
  DelayRange:
    Minimum: 0
    Maximum: 0
  DurationRange:
    Minimum: 0.05
    Maximum: 0.05
  TrunkWidthRange:
    Minimum: 0.05
    Maximum: 0.1
  LifeTime: 0
  Generations: 8
  ChaosFactor: 0.1
  ChaosFactorForks: 0.095
  Intensity: 1
  GlowIntensity: 0.03
  GlowWidthMultiplier: 10
  FadePercent: 0.3
  FadeInMultiplier: 1
  FadeFullyLitMultiplier: 1
  FadeOutMultiplier: 1
  GrowthMultiplier: 0
  EndWidthMultiplier: 0.8
  Forkedness: 0.672
  ForkLengthMultiplier: 0.6
  ForkLengthVariance: 0.2
  ForkEndWidthMultiplier: 1
  LightParameters:
    RenderMode: 0
    LightColor: {r: 1, g: 1, b: 1, a: 1}
    LightPercent: 0.001
    LightShadowPercent: 0
    LightIntensity: 0.5
    BounceIntensity: 0
    ShadowStrength: 1
    ShadowBias: 0.05
    ShadowNormalBias: 0.4
    LightRange: 0
    CullingMask:
      serializedVersion: 2
      m_Bits: 4294967295
    OrthographicOffset: 0
    FadeInMultiplier: 1
    FadeFullyLitMultiplier: 1
    FadeOutMultiplier: 1
  MaximumLightsPerBatch: 8
  ManualMode: 0
  AutomaticModeSeconds: 0
  CustomTransformHandler:
    m_PersistentCalls:
      m_Calls: []
    m_TypeName: DigitalRuby.ThunderAndLightning.LightningCustomTransformDelegate,
      Assembly-CSharp, Version=0.0.0.0, Culture=neutral, PublicKeyToken=null
  Source: {fileID: 722937296}
  Destination: {fileID: 2040584869}
  StartVariance: {x: 0, y: 0, z: 0}
  EndVariance: {x: 0, y: 0, z: 0}
--- !u!1 &1935040515
GameObject:
  m_ObjectHideFlags: 0
  m_PrefabParentObject: {fileID: 193720, guid: 4f4819a088dbd824f857f3d6b45b5eeb, type: 2}
  m_PrefabInternal: {fileID: 450629745}
  serializedVersion: 5
  m_Component:
  - component: {fileID: 1935040516}
  - component: {fileID: 1935040517}
  m_Layer: 0
  m_Name: LightningLight
  m_TagString: Untagged
  m_Icon: {fileID: 0}
  m_NavMeshLayer: 0
  m_StaticEditorFlags: 0
  m_IsActive: 0
--- !u!4 &1935040516
Transform:
  m_ObjectHideFlags: 0
  m_PrefabParentObject: {fileID: 404404, guid: 4f4819a088dbd824f857f3d6b45b5eeb, type: 2}
  m_PrefabInternal: {fileID: 450629745}
  m_GameObject: {fileID: 1935040515}
  m_LocalRotation: {x: 0, y: 0, z: 0, w: 1}
  m_LocalPosition: {x: 0, y: 1, z: 0}
  m_LocalScale: {x: 1, y: 1, z: 1}
  m_Children: []
  m_Father: {fileID: 1041856972}
  m_RootOrder: 1
  m_LocalEulerAnglesHint: {x: 0, y: 0, z: 0}
--- !u!108 &1935040517
Light:
  m_ObjectHideFlags: 0
  m_PrefabParentObject: {fileID: 10851414, guid: 4f4819a088dbd824f857f3d6b45b5eeb,
    type: 2}
  m_PrefabInternal: {fileID: 450629745}
  m_GameObject: {fileID: 1935040515}
  m_Enabled: 1
  serializedVersion: 8
  m_Type: 2
  m_Color: {r: 0.49019608, g: 0.49019608, b: 1, a: 1}
  m_Intensity: 0
  m_Range: 10
  m_SpotAngle: 30
  m_CookieSize: 10
  m_Shadows:
    m_Type: 0
    m_Resolution: -1
    m_CustomResolution: -1
    m_Strength: 1
    m_Bias: 0.05
    m_NormalBias: 0.4
    m_NearPlane: 0.2
  m_Cookie: {fileID: 0}
  m_DrawHalo: 0
  m_Flare: {fileID: 0}
  m_RenderMode: 0
  m_CullingMask:
    serializedVersion: 2
    m_Bits: 4294967295
  m_Lightmapping: 4
  m_AreaSize: {x: 1, y: 1}
  m_BounceIntensity: 0
  m_ColorTemperature: 6570
  m_UseColorTemperature: 0
  m_ShadowRadius: 0
  m_ShadowAngle: 0
--- !u!1 &1940098196
GameObject:
  m_ObjectHideFlags: 0
  m_PrefabParentObject: {fileID: 0}
  m_PrefabInternal: {fileID: 0}
  serializedVersion: 5
  m_Component:
  - component: {fileID: 1940098197}
  - component: {fileID: 1940098199}
  - component: {fileID: 1940098198}
  m_Layer: 5
  m_Name: ExportCompleteLabel
  m_TagString: Untagged
  m_Icon: {fileID: 0}
  m_NavMeshLayer: 0
  m_StaticEditorFlags: 0
  m_IsActive: 1
--- !u!224 &1940098197
RectTransform:
  m_ObjectHideFlags: 0
  m_PrefabParentObject: {fileID: 0}
  m_PrefabInternal: {fileID: 0}
  m_GameObject: {fileID: 1940098196}
  m_LocalRotation: {x: 0, y: 0, z: 0, w: 1}
  m_LocalPosition: {x: 0, y: 0, z: 0}
  m_LocalScale: {x: 1, y: 1, z: 1}
  m_Children: []
  m_Father: {fileID: 152307652}
  m_RootOrder: 2
  m_LocalEulerAnglesHint: {x: 0, y: 0, z: 0}
  m_AnchorMin: {x: 0, y: 1}
  m_AnchorMax: {x: 0, y: 1}
  m_AnchoredPosition: {x: 90, y: -30}
  m_SizeDelta: {x: 160, y: 30}
  m_Pivot: {x: 0.5, y: 0.5}
--- !u!114 &1940098198
MonoBehaviour:
  m_ObjectHideFlags: 0
  m_PrefabParentObject: {fileID: 0}
  m_PrefabInternal: {fileID: 0}
  m_GameObject: {fileID: 1940098196}
  m_Enabled: 1
  m_EditorHideFlags: 0
  m_Script: {fileID: 708705254, guid: f5f67c52d1564df4a8936ccd202a3bd8, type: 3}
  m_Name: 
  m_EditorClassIdentifier: 
  m_Material: {fileID: 0}
  m_Color: {r: 1, g: 1, b: 1, a: 1}
  m_RaycastTarget: 1
  m_OnCullStateChanged:
    m_PersistentCalls:
      m_Calls: []
    m_TypeName: UnityEngine.UI.MaskableGraphic+CullStateChangedEvent, UnityEngine.UI,
      Version=1.0.0.0, Culture=neutral, PublicKeyToken=null
  m_FontData:
    m_Font: {fileID: 10102, guid: 0000000000000000e000000000000000, type: 0}
    m_FontSize: 14
    m_FontStyle: 0
    m_BestFit: 0
    m_MinSize: 10
    m_MaxSize: 40
    m_Alignment: 0
    m_AlignByGeometry: 0
    m_RichText: 1
    m_HorizontalOverflow: 1
    m_VerticalOverflow: 0
    m_LineSpacing: 1
  m_Text: 
--- !u!222 &1940098199
CanvasRenderer:
  m_ObjectHideFlags: 0
  m_PrefabParentObject: {fileID: 0}
  m_PrefabInternal: {fileID: 0}
  m_GameObject: {fileID: 1940098196}
--- !u!1 &1982941539
GameObject:
  m_ObjectHideFlags: 0
  m_PrefabParentObject: {fileID: 163822, guid: b218bf5f424256540b6996f80414d6b0, type: 2}
  m_PrefabInternal: {fileID: 1358039583}
  serializedVersion: 5
  m_Component:
  - component: {fileID: 1359030568}
  - component: {fileID: 1982941540}
  m_Layer: 0
  m_Name: LightningBoltShapeSpherePrefab
  m_TagString: Untagged
  m_Icon: {fileID: 0}
  m_NavMeshLayer: 0
  m_StaticEditorFlags: 0
  m_IsActive: 0
--- !u!114 &1982941540
MonoBehaviour:
  m_ObjectHideFlags: 0
  m_PrefabParentObject: {fileID: 11494734, guid: b218bf5f424256540b6996f80414d6b0,
    type: 2}
  m_PrefabInternal: {fileID: 1358039583}
  m_GameObject: {fileID: 1982941539}
  m_Enabled: 1
  m_EditorHideFlags: 0
  m_Script: {fileID: 11500000, guid: 8d243770104e35341ac9c388b9dd58fc, type: 3}
  m_Name: 
  m_EditorClassIdentifier: 
  Camera: {fileID: 920729705}
  CameraMode: 0
  UseWorldSpace: 0
  CompensateForParentTransform: 0
  QualitySetting: 0
  MultiThreaded: 0
  SortLayerName: Default
  SortOrderInLayer: 0
  SoftParticlesFactor: 3
  RenderQueue: -1
  LightningMaterialMesh: {fileID: 2100000, guid: c6b8576004384974191b466f0bdef64b,
    type: 2}
  LightningMaterialMeshNoGlow: {fileID: 2100000, guid: db76dde8469c5834887c024ae9f43289,
    type: 2}
  LightningTexture: {fileID: 0}
  LightningGlowTexture: {fileID: 0}
  LightningOriginParticleSystem: {fileID: 0}
  LightningDestinationParticleSystem: {fileID: 0}
  LightningTintColor: {r: 1, g: 1, b: 1, a: 1}
  GlowTintColor: {r: 0.31617647, g: 0.31617647, b: 1, a: 1}
  SourceBlendMode: 5
  DestinationBlendMode: 1
  JitterMultiplier: 0.15
  Turbulence: 0.05
  TurbulenceVelocity: {x: 0, y: 0, z: 0}
  IntensityFlicker: {x: 1, y: 1, z: 1, w: 0}
  IntensityFlickerTexture: {fileID: 0}
  IntervalRange:
    Minimum: 0.04
    Maximum: 0.05
  CountRange:
    Minimum: 2
    Maximum: 4
  CountProbabilityModifier: 1
  DelayRange:
    Minimum: 0
    Maximum: 0
  DurationRange:
    Minimum: 0.1
    Maximum: 0.2
  TrunkWidthRange:
    Minimum: 0.02
    Maximum: 0.04
  LifeTime: 0
  Generations: 6
  ChaosFactor: 0.3
  ChaosFactorForks: 0.095
  Intensity: 1
  GlowIntensity: 0.1
  GlowWidthMultiplier: 8
  FadePercent: 0.3
  FadeInMultiplier: 1
  FadeFullyLitMultiplier: 1
  FadeOutMultiplier: 1
  GrowthMultiplier: 0.1
  EndWidthMultiplier: 0
  Forkedness: 0.75
  ForkLengthMultiplier: 0.6
  ForkLengthVariance: 0.2
  ForkEndWidthMultiplier: 1
  LightParameters:
    RenderMode: 0
    LightColor: {r: 1, g: 1, b: 1, a: 1}
    LightPercent: 0.000001
    LightShadowPercent: 0
    LightIntensity: 0.5
    BounceIntensity: 0
    ShadowStrength: 1
    ShadowBias: 0.05
    ShadowNormalBias: 0.4
    LightRange: 0
    CullingMask:
      serializedVersion: 2
      m_Bits: 4294967295
    OrthographicOffset: 0
    FadeInMultiplier: 1
    FadeFullyLitMultiplier: 1
    FadeOutMultiplier: 1
  MaximumLightsPerBatch: 8
  ManualMode: 0
  AutomaticModeSeconds: 0
  CustomTransformHandler:
    m_PersistentCalls:
      m_Calls: []
    m_TypeName: DigitalRuby.ThunderAndLightning.LightningCustomTransformDelegate,
      Assembly-CSharp, Version=0.0.0.0, Culture=neutral, PublicKeyToken=null
  InnerRadius: 0.4
  Radius: 6
--- !u!1 &2040584869
GameObject:
  m_ObjectHideFlags: 0
  m_PrefabParentObject: {fileID: 0}
  m_PrefabInternal: {fileID: 0}
  serializedVersion: 5
  m_Component:
  - component: {fileID: 2040584870}
  m_Layer: 0
  m_Name: LightningEnd
  m_TagString: Untagged
  m_Icon: {fileID: 0}
  m_NavMeshLayer: 0
  m_StaticEditorFlags: 0
  m_IsActive: 1
--- !u!4 &2040584870
Transform:
  m_ObjectHideFlags: 0
  m_PrefabParentObject: {fileID: 0}
  m_PrefabInternal: {fileID: 0}
  m_GameObject: {fileID: 2040584869}
  m_LocalRotation: {x: 0, y: 0, z: 0, w: 1}
  m_LocalPosition: {x: 0, y: -4, z: 0}
  m_LocalScale: {x: 1, y: 1, z: 1}
  m_Children: []
  m_Father: {fileID: 1593000382}
  m_RootOrder: 4
  m_LocalEulerAnglesHint: {x: 0, y: 0, z: 0}
--- !u!1 &2083038742
GameObject:
  m_ObjectHideFlags: 0
  m_PrefabParentObject: {fileID: 1274333943885516, guid: c0c356ca5fe9b1443b4b8759ed02eb2f,
    type: 2}
  m_PrefabInternal: {fileID: 963655785}
  serializedVersion: 5
  m_Component:
  - component: {fileID: 2083038743}
  m_Layer: 0
  m_Name: LightningEnd
  m_TagString: Untagged
  m_Icon: {fileID: 0}
  m_NavMeshLayer: 0
  m_StaticEditorFlags: 0
  m_IsActive: 1
--- !u!4 &2083038743
Transform:
  m_ObjectHideFlags: 0
  m_PrefabParentObject: {fileID: 4655653354755552, guid: c0c356ca5fe9b1443b4b8759ed02eb2f,
    type: 2}
  m_PrefabInternal: {fileID: 963655785}
  m_GameObject: {fileID: 2083038742}
  m_LocalRotation: {x: 0, y: 0, z: 0, w: 1}
  m_LocalPosition: {x: 1, y: 1, z: 0}
  m_LocalScale: {x: 1, y: 1, z: 1}
  m_Children: []
  m_Father: {fileID: 1271838425}
  m_RootOrder: 1
  m_LocalEulerAnglesHint: {x: 0, y: 0, z: 0}
--- !u!1 &2125286811
GameObject:
  m_ObjectHideFlags: 0
  m_PrefabParentObject: {fileID: 0}
  m_PrefabInternal: {fileID: 0}
  serializedVersion: 5
  m_Component:
  - component: {fileID: 2125286812}
  - component: {fileID: 2125286815}
  - component: {fileID: 2125286814}
  - component: {fileID: 2125286813}
  m_Layer: 5
  m_Name: ExportButton
  m_TagString: Untagged
  m_Icon: {fileID: 0}
  m_NavMeshLayer: 0
  m_StaticEditorFlags: 0
  m_IsActive: 1
--- !u!224 &2125286812
RectTransform:
  m_ObjectHideFlags: 0
  m_PrefabParentObject: {fileID: 0}
  m_PrefabInternal: {fileID: 0}
  m_GameObject: {fileID: 2125286811}
  m_LocalRotation: {x: 0, y: 0, z: 0, w: 1}
  m_LocalPosition: {x: 0, y: 0, z: 0}
  m_LocalScale: {x: 1, y: 1, z: 1}
  m_Children:
  - {fileID: 1532759273}
  m_Father: {fileID: 152307652}
  m_RootOrder: 1
  m_LocalEulerAnglesHint: {x: 0, y: 0, z: 0}
  m_AnchorMin: {x: 1, y: 1}
  m_AnchorMax: {x: 1, y: 1}
  m_AnchoredPosition: {x: -50, y: -26}
  m_SizeDelta: {x: 80, y: 30}
  m_Pivot: {x: 0.5, y: 0.5}
--- !u!114 &2125286813
MonoBehaviour:
  m_ObjectHideFlags: 0
  m_PrefabParentObject: {fileID: 0}
  m_PrefabInternal: {fileID: 0}
  m_GameObject: {fileID: 2125286811}
  m_Enabled: 1
  m_EditorHideFlags: 0
  m_Script: {fileID: 1392445389, guid: f5f67c52d1564df4a8936ccd202a3bd8, type: 3}
  m_Name: 
  m_EditorClassIdentifier: 
  m_Navigation:
    m_Mode: 0
    m_SelectOnUp: {fileID: 0}
    m_SelectOnDown: {fileID: 0}
    m_SelectOnLeft: {fileID: 0}
    m_SelectOnRight: {fileID: 0}
  m_Transition: 1
  m_Colors:
    m_NormalColor: {r: 1, g: 1, b: 1, a: 1}
    m_HighlightedColor: {r: 0.9607843, g: 0.9607843, b: 0.9607843, a: 1}
    m_PressedColor: {r: 0.78431374, g: 0.78431374, b: 0.78431374, a: 1}
    m_DisabledColor: {r: 0.78431374, g: 0.78431374, b: 0.78431374, a: 0.5019608}
    m_ColorMultiplier: 1
    m_FadeDuration: 0.1
  m_SpriteState:
    m_HighlightedSprite: {fileID: 0}
    m_PressedSprite: {fileID: 0}
    m_DisabledSprite: {fileID: 0}
  m_AnimationTriggers:
    m_NormalTrigger: Normal
    m_HighlightedTrigger: Highlighted
    m_PressedTrigger: Pressed
    m_DisabledTrigger: Disabled
  m_Interactable: 1
  m_TargetGraphic: {fileID: 2125286814}
  m_OnClick:
    m_PersistentCalls:
      m_Calls:
      - m_Target: {fileID: 622171771}
        m_MethodName: ExportTapped
        m_Mode: 1
        m_Arguments:
          m_ObjectArgument: {fileID: 0}
          m_ObjectArgumentAssemblyTypeName: UnityEngine.Object, UnityEngine
          m_IntArgument: 0
          m_FloatArgument: 0
          m_StringArgument: 
          m_BoolArgument: 0
        m_CallState: 2
    m_TypeName: UnityEngine.UI.Button+ButtonClickedEvent, UnityEngine.UI, Version=1.0.0.0,
      Culture=neutral, PublicKeyToken=null
--- !u!114 &2125286814
MonoBehaviour:
  m_ObjectHideFlags: 0
  m_PrefabParentObject: {fileID: 0}
  m_PrefabInternal: {fileID: 0}
  m_GameObject: {fileID: 2125286811}
  m_Enabled: 1
  m_EditorHideFlags: 0
  m_Script: {fileID: -765806418, guid: f5f67c52d1564df4a8936ccd202a3bd8, type: 3}
  m_Name: 
  m_EditorClassIdentifier: 
  m_Material: {fileID: 0}
  m_Color: {r: 1, g: 1, b: 1, a: 1}
  m_RaycastTarget: 1
  m_OnCullStateChanged:
    m_PersistentCalls:
      m_Calls: []
    m_TypeName: UnityEngine.UI.MaskableGraphic+CullStateChangedEvent, UnityEngine.UI,
      Version=1.0.0.0, Culture=neutral, PublicKeyToken=null
  m_Sprite: {fileID: 10905, guid: 0000000000000000f000000000000000, type: 0}
  m_Type: 1
  m_PreserveAspect: 0
  m_FillCenter: 1
  m_FillMethod: 4
  m_FillAmount: 1
  m_FillClockwise: 1
  m_FillOrigin: 0
--- !u!222 &2125286815
CanvasRenderer:
  m_ObjectHideFlags: 0
  m_PrefabParentObject: {fileID: 0}
  m_PrefabInternal: {fileID: 0}
  m_GameObject: {fileID: 2125286811}
