
royal_girl_cut.png
size: 512,512
format: RGBA8888
filter: Linear,Linear
repeat: none
Layer 1
  rotate: true
  xy: 189, 274
  size: 55, 166
  orig: 55, 166
  offset: 0, 0
  index: -1
Layer 2
  rotate: true
  xy: 357, 242
  size: 87, 104
  orig: 87, 104
  offset: 0, 0
  index: -1
Layer 3
  rotate: true
  xy: 468, 476
  size: 32, 42
  orig: 32, 42
  offset: 0, 0
  index: -1
Layer 4
  rotate: true
  xy: 189, 247
  size: 25, 66
  orig: 25, 66
  offset: 0, 0
  index: -1
Layer 5
  rotate: false
  xy: 121, 125
  size: 77, 109
  orig: 77, 109
  offset: 0, 0
  index: -1
Layer 6
  rotate: false
  xy: 189, 236
  size: 5, 9
  orig: 5, 9
  offset: 0, 0
  index: -1
ao
  rotate: false
  xy: 2, 236
  size: 185, 272
  orig: 185, 272
  offset: 0, 0
  index: -1
ao sau
  rotate: false
  xy: 2, 69
  size: 117, 165
  orig: 117, 165
  offset: 0, 0
  index: -1
bbody
  rotate: true
  xy: 189, 331
  size: 177, 277
  orig: 177, 277
  offset: 0, 0
  index: -1
kinh
  rotate: true
  xy: 468, 431
  size: 43, 21
  orig: 43, 21
  offset: 0, 0
  index: -1
tay
  rotate: true
  xy: 2, 8
  size: 59, 96
  orig: 59, 96
  offset: 0, 0
  index: -1
vai
  rotate: true
  xy: 121, 68
  size: 55, 93
  orig: 55, 93
  offset: 0, 0
  index: -1
