%YAML 1.1
%TAG !u! tag:unity3d.com,2011:
--- !u!74 &7400000
AnimationClip:
  m_ObjectHideFlags: 0
  m_CorrespondingSourceObject: {fileID: 0}
  m_PrefabInternal: {fileID: 0}
  m_Name: NhimBien_Idle
  serializedVersion: 6
  m_Legacy: 0
  m_Compressed: 0
  m_UseHighQualityCurve: 1
  m_RotationCurves: []
  m_CompressedRotationCurves: []
  m_EulerCurves: []
  m_PositionCurves: []
  m_ScaleCurves: []
  m_FloatCurves: []
  m_PPtrCurves:
  - curve:
    - time: 0
      value: {fileID: 21300000, guid: 4096ee315c59cda48ad2a45c75c78351, type: 3}
    - time: 0.125
      value: {fileID: 21300000, guid: b5d86bf2369857445ad30016dd3dd571, type: 3}
    - time: 0.25
      value: {fileID: 21300000, guid: 13f521ea8526814418389d0b2886e4fa, type: 3}
    - time: 0.375
      value: {fileID: 21300000, guid: 81d960da6352d2e429984c59d7fa5b90, type: 3}
    - time: 0.5
      value: {fileID: 21300000, guid: bf9ec4db232a4c44f82551ced4d18402, type: 3}
    - time: 0.625
      value: {fileID: 21300000, guid: aaef51ad97dd5a94a9bf46d7d0813065, type: 3}
    - time: 0.75
      value: {fileID: 21300000, guid: 8d5ac521dd4fa8f4ab16ece6deff4c75, type: 3}
    - time: 0.875
      value: {fileID: 21300000, guid: cf9e4533b52599748878ab6fb3b2e8bc, type: 3}
    attribute: m_Sprite
    path: 
    classID: 212
    script: {fileID: 0}
  m_SampleRate: 8
  m_WrapMode: 0
  m_Bounds:
    m_Center: {x: 0, y: 0, z: 0}
    m_Extent: {x: 0, y: 0, z: 0}
  m_ClipBindingConstant:
    genericBindings:
    - serializedVersion: 2
      path: 0
      attribute: 0
      script: {fileID: 0}
      typeID: 212
      customType: 23
      isPPtrCurve: 1
    pptrCurveMapping:
    - {fileID: 21300000, guid: 4096ee315c59cda48ad2a45c75c78351, type: 3}
    - {fileID: 21300000, guid: b5d86bf2369857445ad30016dd3dd571, type: 3}
    - {fileID: 21300000, guid: 13f521ea8526814418389d0b2886e4fa, type: 3}
    - {fileID: 21300000, guid: 81d960da6352d2e429984c59d7fa5b90, type: 3}
    - {fileID: 21300000, guid: bf9ec4db232a4c44f82551ced4d18402, type: 3}
    - {fileID: 21300000, guid: aaef51ad97dd5a94a9bf46d7d0813065, type: 3}
    - {fileID: 21300000, guid: 8d5ac521dd4fa8f4ab16ece6deff4c75, type: 3}
    - {fileID: 21300000, guid: cf9e4533b52599748878ab6fb3b2e8bc, type: 3}
  m_AnimationClipSettings:
    serializedVersion: 2
    m_AdditiveReferencePoseClip: {fileID: 0}
    m_AdditiveReferencePoseTime: 0
    m_StartTime: 0
    m_StopTime: 1
    m_OrientationOffsetY: 0
    m_Level: 0
    m_CycleOffset: 0
    m_HasAdditiveReferencePose: 0
    m_LoopTime: 1
    m_LoopBlend: 0
    m_LoopBlendOrientation: 0
    m_LoopBlendPositionY: 0
    m_LoopBlendPositionXZ: 0
    m_KeepOriginalOrientation: 0
    m_KeepOriginalPositionY: 1
    m_KeepOriginalPositionXZ: 0
    m_HeightFromFeet: 0
    m_Mirror: 0
  m_EditorCurves: []
  m_EulerEditorCurves: []
  m_HasGenericRootTransform: 0
  m_HasMotionFloatCurves: 0
  m_GenerateMotionCurves: 0
  m_Events: []
