%YAML 1.1
%TAG !u! tag:unity3d.com,2011:
--- !u!1001 &100100000
Prefab:
  m_ObjectHideFlags: 1
  serializedVersion: 2
  m_Modification:
    m_TransformParent: {fileID: 0}
    m_Modifications: []
    m_RemovedComponents: []
  m_SourcePrefab: {fileID: 0}
  m_RootGameObject: {fileID: 1264310525158894}
  m_IsPrefabAsset: 1
--- !u!1 &1264310525158894
GameObject:
  m_ObjectHideFlags: 0
  m_CorrespondingSourceObject: {fileID: 0}
  m_PrefabInternal: {fileID: 100100000}
  serializedVersion: 6
  m_Component:
  - component: {fileID: 4158410259371680}
  - component: {fileID: 114349247259599422}
  m_Layer: 0
  m_Name: OnlineMode
  m_TagString: Untagged
  m_Icon: {fileID: 0}
  m_NavMeshLayer: 0
  m_StaticEditorFlags: 0
  m_IsActive: 1
--- !u!4 &4158410259371680
Transform:
  m_ObjectHideFlags: 1
  m_CorrespondingSourceObject: {fileID: 0}
  m_PrefabInternal: {fileID: 100100000}
  m_GameObject: {fileID: 1264310525158894}
  m_LocalRotation: {x: 0, y: 0, z: 0, w: 1}
  m_LocalPosition: {x: 0, y: 0, z: 0}
  m_LocalScale: {x: 1, y: 1, z: 1}
  m_Children: []
  m_Father: {fileID: 0}
  m_RootOrder: 0
  m_LocalEulerAnglesHint: {x: 0, y: 0, z: 0}
--- !u!114 &114349247259599422
MonoBehaviour:
  m_ObjectHideFlags: 1
  m_CorrespondingSourceObject: {fileID: 0}
  m_PrefabInternal: {fileID: 100100000}
  m_GameObject: {fileID: 1264310525158894}
  m_Enabled: 1
  m_EditorHideFlags: 0
  m_Script: {fileID: 11500000, guid: 4d0c51bb0b6e93049af5e88f93826e3b, type: 3}
  m_Name: 
  m_EditorClassIdentifier: 
  material: {fileID: 0}
  mSprites:
  - name: Btn_Coop_help
    x: 1355
    y: 960
    width: 102
    height: 121
    borderLeft: 0
    borderRight: 0
    borderTop: 0
    borderBottom: 0
    paddingLeft: 0
    paddingRight: 0
    paddingTop: 0
    paddingBottom: 0
  - name: btn_creatroom
    x: 865
    y: 1230
    width: 289
    height: 105
    borderLeft: 0
    borderRight: 0
    borderTop: 0
    borderBottom: 0
    paddingLeft: 0
    paddingRight: 0
    paddingTop: 0
    paddingBottom: 0
  - name: btn_creatroom_d
    x: 1729
    y: 1094
    width: 273
    height: 75
    borderLeft: 0
    borderRight: 0
    borderTop: 0
    borderBottom: 0
    paddingLeft: 0
    paddingRight: 0
    paddingTop: 0
    paddingBottom: 0
  - name: btn_info
    x: 1188
    y: 1369
    width: 42
    height: 42
    borderLeft: 0
    borderRight: 0
    borderTop: 0
    borderBottom: 0
    paddingLeft: 0
    paddingRight: 0
    paddingTop: 0
    paddingBottom: 0
  - name: btn_invite_pff
    x: 1665
    y: 1249
    width: 302
    height: 115
    borderLeft: 0
    borderRight: 0
    borderTop: 0
    borderBottom: 0
    paddingLeft: 0
    paddingRight: 0
    paddingTop: 0
    paddingBottom: 0
  - name: btn_joinroom
    x: 568
    y: 1226
    width: 296
    height: 109
    borderLeft: 0
    borderRight: 0
    borderTop: 0
    borderBottom: 0
    paddingLeft: 0
    paddingRight: 0
    paddingTop: 0
    paddingBottom: 0
  - name: btn_joinroom_d
    x: 1138
    y: 1101
    width: 280
    height: 78
    borderLeft: 0
    borderRight: 0
    borderTop: 0
    borderBottom: 0
    paddingLeft: 0
    paddingRight: 0
    paddingTop: 0
    paddingBottom: 0
  - name: btn_rankreward
    x: 378
    y: 1226
    width: 81
    height: 75
    borderLeft: 0
    borderRight: 0
    borderTop: 0
    borderBottom: 0
    paddingLeft: 0
    paddingRight: 0
    paddingTop: 0
    paddingBottom: 0
  - name: btn_start_camp_t
    x: 1155
    y: 1180
    width: 288
    height: 102
    borderLeft: 0
    borderRight: 0
    borderTop: 0
    borderBottom: 0
    paddingLeft: 0
    paddingRight: 0
    paddingTop: 0
    paddingBottom: 0
  - name: Extra_bossrush
    x: 1252
    y: 1845
    width: 625
    height: 203
    borderLeft: 0
    borderRight: 0
    borderTop: 0
    borderBottom: 0
    paddingLeft: 7
    paddingRight: 8
    paddingTop: 10
    paddingBottom: 43
  - name: Extra_endles
    x: 626
    y: 1844
    width: 625
    height: 204
    borderLeft: 0
    borderRight: 0
    borderTop: 0
    borderBottom: 0
    paddingLeft: 6
    paddingRight: 9
    paddingTop: 10
    paddingBottom: 42
  - name: Extra_PVP
    x: 0
    y: 1810
    width: 625
    height: 238
    borderLeft: 0
    borderRight: 0
    borderTop: 0
    borderBottom: 0
    paddingLeft: 0
    paddingRight: 0
    paddingTop: 0
    paddingBottom: 0
  - name: healbar_blueplayer_1
    x: 619
    y: 1076
    width: 618
    height: 24
    borderLeft: 0
    borderRight: 0
    borderTop: 0
    borderBottom: 0
    paddingLeft: 0
    paddingRight: 0
    paddingTop: 0
    paddingBottom: 0
  - name: healbar_blueplayer_2
    x: 0
    y: 1079
    width: 618
    height: 24
    borderLeft: 0
    borderRight: 0
    borderTop: 0
    borderBottom: 0
    paddingLeft: 0
    paddingRight: 0
    paddingTop: 0
    paddingBottom: 0
  - name: healbar_redplayer_1
    x: 0
    y: 1054
    width: 618
    height: 24
    borderLeft: 0
    borderRight: 0
    borderTop: 0
    borderBottom: 0
    paddingLeft: 0
    paddingRight: 0
    paddingTop: 0
    paddingBottom: 0
  - name: healbar_redplayer_2
    x: 285
    y: 1104
    width: 618
    height: 24
    borderLeft: 0
    borderRight: 0
    borderTop: 0
    borderBottom: 0
    paddingLeft: 0
    paddingRight: 0
    paddingTop: 0
    paddingBottom: 0
  - name: Home_btn_changename
    x: 1729
    y: 1170
    width: 267
    height: 78
    borderLeft: 0
    borderRight: 0
    borderTop: 0
    borderBottom: 0
    paddingLeft: 0
    paddingRight: 0
    paddingTop: 0
    paddingBottom: 0
  - name: Home_usertag_avt_boder
    x: 1881
    y: 1371
    width: 68
    height: 68
    borderLeft: 0
    borderRight: 0
    borderTop: 0
    borderBottom: 0
    paddingLeft: 0
    paddingRight: 0
    paddingTop: 0
    paddingBottom: 0
  - name: Home_usertag_BG
    x: 0
    y: 1216
    width: 377
    height: 85
    borderLeft: 0
    borderRight: 0
    borderTop: 0
    borderBottom: 0
    paddingLeft: 0
    paddingRight: 0
    paddingTop: 0
    paddingBottom: 0
  - name: icon_coin
    x: 1968
    y: 1363
    width: 79
    height: 76
    borderLeft: 0
    borderRight: 0
    borderTop: 0
    borderBottom: 0
    paddingLeft: 0
    paddingRight: 0
    paddingTop: 0
    paddingBottom: 0
  - name: icon_daily_quest_gem
    x: 1968
    y: 1286
    width: 79
    height: 76
    borderLeft: 0
    borderRight: 0
    borderTop: 0
    borderBottom: 0
    paddingLeft: 0
    paddingRight: 0
    paddingTop: 0
    paddingBottom: 0
  - name: icon_powerup
    x: 1764
    y: 865
    width: 79
    height: 76
    borderLeft: 0
    borderRight: 0
    borderTop: 0
    borderBottom: 0
    paddingLeft: 0
    paddingRight: 0
    paddingTop: 0
    paddingBottom: 0
  - name: Ingame_noti_BG
    x: 1240
    y: 1441
    width: 588
    height: 107
    borderLeft: 0
    borderRight: 0
    borderTop: 0
    borderBottom: 0
    paddingLeft: 0
    paddingRight: 0
    paddingTop: 0
    paddingBottom: 0
  - name: player_BG_onleaderboad
    x: 620
    y: 1412
    width: 619
    height: 141
    borderLeft: 0
    borderRight: 0
    borderTop: 0
    borderBottom: 0
    paddingLeft: 3
    paddingRight: 3
    paddingTop: 3
    paddingBottom: 3
  - name: player_BG_onleaderboad_you
    x: 0
    y: 1378
    width: 619
    height: 141
    borderLeft: 0
    borderRight: 0
    borderTop: 0
    borderBottom: 0
    paddingLeft: 0
    paddingRight: 0
    paddingTop: 0
    paddingBottom: 0
  - name: player_BG_waiting
    x: 626
    y: 1554
    width: 619
    height: 141
    borderLeft: 0
    borderRight: 0
    borderTop: 0
    borderBottom: 0
    paddingLeft: 0
    paddingRight: 0
    paddingTop: 0
    paddingBottom: 0
  - name: Player_picked_strock
    x: 0
    y: 1520
    width: 619
    height: 141
    borderLeft: 0
    borderRight: 0
    borderTop: 0
    borderBottom: 0
    paddingLeft: 0
    paddingRight: 0
    paddingTop: 0
    paddingBottom: 0
  - name: Playerwin_blue
    x: 1901
    y: 994
    width: 141
    height: 99
    borderLeft: 0
    borderRight: 0
    borderTop: 0
    borderBottom: 0
    paddingLeft: 0
    paddingRight: 0
    paddingTop: 0
    paddingBottom: 0
  - name: Playerwin_red
    x: 1884
    y: 1725
    width: 141
    height: 99
    borderLeft: 0
    borderRight: 0
    borderTop: 0
    borderBottom: 0
    paddingLeft: 0
    paddingRight: 0
    paddingTop: 0
    paddingBottom: 0
  - name: PV_icon_heath
    x: 1874
    y: 1002
    width: 24
    height: 21
    borderLeft: 0
    borderRight: 0
    borderTop: 0
    borderBottom: 0
    paddingLeft: 0
    paddingRight: 0
    paddingTop: 0
    paddingBottom: 0
  - name: PV_icon_heath_blue
    x: 1849
    y: 1001
    width: 24
    height: 22
    borderLeft: 0
    borderRight: 0
    borderTop: 0
    borderBottom: 0
    paddingLeft: 0
    paddingRight: 0
    paddingTop: 0
    paddingBottom: 0
  - name: PVP_avtframe_blueplayer_1
    x: 1808
    y: 1367
    width: 72
    height: 72
    borderLeft: 0
    borderRight: 0
    borderTop: 0
    borderBottom: 0
    paddingLeft: 0
    paddingRight: 0
    paddingTop: 0
    paddingBottom: 0
  - name: PVP_avtframe_redplayer_1
    x: 460
    y: 1229
    width: 72
    height: 72
    borderLeft: 0
    borderRight: 0
    borderTop: 0
    borderBottom: 0
    paddingLeft: 0
    paddingRight: 0
    paddingTop: 0
    paddingBottom: 0
  - name: PVP_btn_fblog
    x: 620
    y: 1336
    width: 567
    height: 75
    borderLeft: 0
    borderRight: 0
    borderTop: 0
    borderBottom: 0
    paddingLeft: 0
    paddingRight: 0
    paddingTop: 0
    paddingBottom: 0
  - name: PVP_btn_fight
    x: 0
    y: 1128
    width: 284
    height: 87
    borderLeft: 0
    borderRight: 0
    borderTop: 0
    borderBottom: 0
    paddingLeft: 0
    paddingRight: 0
    paddingTop: 0
    paddingBottom: 0
  - name: PVP_btn_fight_d
    x: 1444
    y: 1161
    width: 284
    height: 87
    borderLeft: 0
    borderRight: 0
    borderTop: 0
    borderBottom: 0
    paddingLeft: 0
    paddingRight: 0
    paddingTop: 0
    paddingBottom: 0
  - name: PVP_btn_gamecenterlog
    x: 0
    y: 1302
    width: 567
    height: 75
    borderLeft: 0
    borderRight: 0
    borderTop: 0
    borderBottom: 0
    paddingLeft: 0
    paddingRight: 0
    paddingTop: 0
    paddingBottom: 0
  - name: PVP_btn_leaderboad
    x: 1764
    y: 942
    width: 84
    height: 81
    borderLeft: 0
    borderRight: 0
    borderTop: 0
    borderBottom: 0
    paddingLeft: 0
    paddingRight: 0
    paddingTop: 0
    paddingBottom: 0
  - name: PVP_btn_you
    x: 774
    y: 1141
    width: 81
    height: 84
    borderLeft: 0
    borderRight: 0
    borderTop: 0
    borderBottom: 0
    paddingLeft: 0
    paddingRight: 0
    paddingTop: 0
    paddingBottom: 0
  - name: PVP_icon_user
    x: 1155
    y: 1298
    width: 31
    height: 37
    borderLeft: 0
    borderRight: 0
    borderTop: 0
    borderBottom: 0
    paddingLeft: 8
    paddingRight: 9
    paddingTop: 5
    paddingBottom: 6
  - name: PVP_large_titler
    x: 1188
    y: 1283
    width: 476
    height: 81
    borderLeft: 0
    borderRight: 0
    borderTop: 0
    borderBottom: 0
    paddingLeft: 0
    paddingRight: 0
    paddingTop: 0
    paddingBottom: 0
  - name: PVP_loadingbar
    x: 1252
    y: 1697
    width: 631
    height: 147
    borderLeft: 0
    borderRight: 0
    borderTop: 0
    borderBottom: 0
    paddingLeft: 0
    paddingRight: 0
    paddingTop: 0
    paddingBottom: 0
  - name: PVP_local_titler_a
    x: 1419
    y: 1082
    width: 240
    height: 78
    borderLeft: 0
    borderRight: 0
    borderTop: 0
    borderBottom: 0
    paddingLeft: 0
    paddingRight: 0
    paddingTop: 0
    paddingBottom: 0
  - name: PVP_local_titler_d
    x: 1660
    y: 1024
    width: 240
    height: 69
    borderLeft: 0
    borderRight: 0
    borderTop: 0
    borderBottom: 0
    paddingLeft: 0
    paddingRight: 0
    paddingTop: 9
    paddingBottom: 0
  - name: PVP_OtherPlayer
    x: 865
    y: 1133
    width: 272
    height: 96
    borderLeft: 0
    borderRight: 0
    borderTop: 0
    borderBottom: 0
    paddingLeft: 0
    paddingRight: 0
    paddingTop: 0
    paddingBottom: 0
  - name: PVP_player_avt_1
    x: 1238
    y: 984
    width: 116
    height: 116
    borderLeft: 0
    borderRight: 0
    borderTop: 0
    borderBottom: 0
    paddingLeft: 0
    paddingRight: 0
    paddingTop: 0
    paddingBottom: 0
  - name: PVP_player_avt_boder
    x: 285
    y: 1130
    width: 85
    height: 85
    borderLeft: 0
    borderRight: 0
    borderTop: 0
    borderBottom: 0
    paddingLeft: 0
    paddingRight: 0
    paddingTop: 0
    paddingBottom: 0
  - name: PVP_player_avt_mask
    x: 1849
    y: 913
    width: 80
    height: 80
    borderLeft: 0
    borderRight: 0
    borderTop: 0
    borderBottom: 0
    paddingLeft: 0
    paddingRight: 0
    paddingTop: 0
    paddingBottom: 0
  - name: PVP_rank_0
    x: 1983
    y: 1506
    width: 54
    height: 81
    borderLeft: 0
    borderRight: 0
    borderTop: 0
    borderBottom: 0
    paddingLeft: 0
    paddingRight: 0
    paddingTop: 0
    paddingBottom: 0
  - name: PVP_rank_1
    x: 1670
    y: 936
    width: 93
    height: 87
    borderLeft: 0
    borderRight: 0
    borderTop: 0
    borderBottom: 0
    paddingLeft: 30
    paddingRight: 30
    paddingTop: 10
    paddingBottom: 11
  - name: PVP_rank_2
    x: 1564
    y: 921
    width: 105
    height: 102
    borderLeft: 0
    borderRight: 0
    borderTop: 0
    borderBottom: 0
    paddingLeft: 24
    paddingRight: 24
    paddingTop: 3
    paddingBottom: 3
  - name: PVP_rank_3
    x: 1458
    y: 976
    width: 105
    height: 105
    borderLeft: 0
    borderRight: 0
    borderTop: 0
    borderBottom: 0
    paddingLeft: 24
    paddingRight: 24
    paddingTop: 1
    paddingBottom: 2
  - name: PVP_rank_4
    x: 650
    y: 1129
    width: 123
    height: 96
    borderLeft: 0
    borderRight: 0
    borderTop: 0
    borderBottom: 0
    paddingLeft: 15
    paddingRight: 15
    paddingTop: 6
    paddingBottom: 6
  - name: PVP_rank_5
    x: 1884
    y: 1825
    width: 135
    height: 105
    borderLeft: 0
    borderRight: 0
    borderTop: 0
    borderBottom: 0
    paddingLeft: 9
    paddingRight: 9
    paddingTop: 1
    paddingBottom: 2
  - name: PVP_rank_6
    x: 1878
    y: 1588
    width: 141
    height: 108
    borderLeft: 0
    borderRight: 0
    borderTop: 0
    borderBottom: 0
    paddingLeft: 0
    paddingRight: 0
    paddingTop: 0
    paddingBottom: 0
  - name: PVP_rank_7
    x: 1829
    y: 1440
    width: 153
    height: 108
    borderLeft: 0
    borderRight: 0
    borderTop: 0
    borderBottom: 0
    paddingLeft: 0
    paddingRight: 0
    paddingTop: 0
    paddingBottom: 0
  - name: PVP_rank_8
    x: 1878
    y: 1931
    width: 161
    height: 117
    borderLeft: 0
    borderRight: 0
    borderTop: 0
    borderBottom: 0
    paddingLeft: 0
    paddingRight: 0
    paddingTop: 0
    paddingBottom: 0
  - name: PVP_rank_filled
    x: 619
    y: 1051
    width: 577
    height: 24
    borderLeft: 0
    borderRight: 0
    borderTop: 0
    borderBottom: 0
    paddingLeft: 0
    paddingRight: 0
    paddingTop: 0
    paddingBottom: 0
  - name: PVP_rank_medal_0
    x: 1983
    y: 1445
    width: 45
    height: 60
    borderLeft: 0
    borderRight: 0
    borderTop: 0
    borderBottom: 0
    paddingLeft: 24
    paddingRight: 24
    paddingTop: 24
    paddingBottom: 20
  - name: PVP_rank_medal_1
    x: 1458
    y: 871
    width: 93
    height: 104
    borderLeft: 0
    borderRight: 0
    borderTop: 0
    borderBottom: 0
    paddingLeft: 0
    paddingRight: 0
    paddingTop: 0
    paddingBottom: 0
  - name: PVP_Sefl
    x: 378
    y: 1129
    width: 271
    height: 96
    borderLeft: 0
    borderRight: 0
    borderTop: 0
    borderBottom: 0
    paddingLeft: 0
    paddingRight: 0
    paddingTop: 0
    paddingBottom: 0
  - name: PVP_textbox
    x: 1240
    y: 1365
    width: 567
    height: 75
    borderLeft: 0
    borderRight: 0
    borderTop: 0
    borderBottom: 0
    paddingLeft: 0
    paddingRight: 0
    paddingTop: 0
    paddingBottom: 0
  - name: PVP_timecountBG
    x: 1878
    y: 1557
    width: 98
    height: 30
    borderLeft: 0
    borderRight: 0
    borderTop: 0
    borderBottom: 0
    paddingLeft: 0
    paddingRight: 0
    paddingTop: 0
    paddingBottom: 0
  - name: PVP_top1_frame
    x: 626
    y: 1696
    width: 625
    height: 147
    borderLeft: 0
    borderRight: 0
    borderTop: 0
    borderBottom: 0
    paddingLeft: 0
    paddingRight: 0
    paddingTop: 0
    paddingBottom: 0
  - name: PVP_top2_frame
    x: 0
    y: 1662
    width: 625
    height: 147
    borderLeft: 0
    borderRight: 0
    borderTop: 0
    borderBottom: 0
    paddingLeft: 0
    paddingRight: 0
    paddingTop: 0
    paddingBottom: 0
  - name: PVP_top3_frame
    x: 1252
    y: 1549
    width: 625
    height: 147
    borderLeft: 0
    borderRight: 0
    borderTop: 0
    borderBottom: 0
    paddingLeft: 0
    paddingRight: 0
    paddingTop: 0
    paddingBottom: 0
  mPixelSize: 1
  mReplacement: {fileID: 11400000, guid: 71f0dda3ea24a9c41a3b42c78055d3c1, type: 2}
  mCoordinates: 0
  sprites: []
