%YAML 1.1
%TAG !u! tag:unity3d.com,2011:
--- !u!74 &7400000
AnimationClip:
  m_ObjectHideFlags: 0
  m_PrefabParentObject: {fileID: 0}
  m_PrefabInternal: {fileID: 0}
  m_Name: Boss4_Bung_Atk3
  serializedVersion: 6
  m_Legacy: 0
  m_Compressed: 0
  m_UseHighQualityCurve: 1
  m_RotationCurves: []
  m_CompressedRotationCurves: []
  m_EulerCurves: []
  m_PositionCurves: []
  m_ScaleCurves: []
  m_FloatCurves: []
  m_PPtrCurves:
  - curve:
    - time: 0
      value: {fileID: 21300000, guid: b136094b663257a49b78198d915936a1, type: 3}
    - time: 0.16666667
      value: {fileID: 21300000, guid: a36cc5b85ae046646b0967d28524ee27, type: 3}
    - time: 0.33333334
      value: {fileID: 21300000, guid: 7018594cde45a914497893673e685a1b, type: 3}
    - time: 0.5
      value: {fileID: 21300000, guid: ac29dcfd01834bc499e24c922ebd9fed, type: 3}
    - time: 0.6666667
      value: {fileID: 21300000, guid: dbf16745682177545b473c9291d17635, type: 3}
    attribute: m_Sprite
    path: 
    classID: 212
    script: {fileID: 0}
  m_SampleRate: 6
  m_WrapMode: 0
  m_Bounds:
    m_Center: {x: 0, y: 0, z: 0}
    m_Extent: {x: 0, y: 0, z: 0}
  m_ClipBindingConstant:
    genericBindings:
    - serializedVersion: 2
      path: 0
      attribute: 0
      script: {fileID: 0}
      typeID: 212
      customType: 23
      isPPtrCurve: 1
    pptrCurveMapping:
    - {fileID: 21300000, guid: b136094b663257a49b78198d915936a1, type: 3}
    - {fileID: 21300000, guid: a36cc5b85ae046646b0967d28524ee27, type: 3}
    - {fileID: 21300000, guid: 7018594cde45a914497893673e685a1b, type: 3}
    - {fileID: 21300000, guid: ac29dcfd01834bc499e24c922ebd9fed, type: 3}
    - {fileID: 21300000, guid: dbf16745682177545b473c9291d17635, type: 3}
  m_AnimationClipSettings:
    serializedVersion: 2
    m_AdditiveReferencePoseClip: {fileID: 0}
    m_AdditiveReferencePoseTime: 0
    m_StartTime: 0
    m_StopTime: 0.8333334
    m_OrientationOffsetY: 0
    m_Level: 0
    m_CycleOffset: 0
    m_HasAdditiveReferencePose: 0
    m_LoopTime: 1
    m_LoopBlend: 0
    m_LoopBlendOrientation: 0
    m_LoopBlendPositionY: 0
    m_LoopBlendPositionXZ: 0
    m_KeepOriginalOrientation: 0
    m_KeepOriginalPositionY: 1
    m_KeepOriginalPositionXZ: 0
    m_HeightFromFeet: 0
    m_Mirror: 0
  m_EditorCurves: []
  m_EulerEditorCurves: []
  m_HasGenericRootTransform: 0
  m_HasMotionFloatCurves: 0
  m_GenerateMotionCurves: 0
  m_Events:
  - time: 0.6666667
    functionName: ChangeAnim_Atk_To_Idle
    data: 
    objectReferenceParameter: {fileID: 0}
    floatParameter: 0
    intParameter: 0
    messageOptions: 0
