%YAML 1.1
%TAG !u! tag:unity3d.com,2011:
--- !u!74 &7400000
AnimationClip:
  m_ObjectHideFlags: 0
  m_PrefabParentObject: {fileID: 0}
  m_PrefabInternal: {fileID: 0}
  m_Name: Boss3_Gun_Idle
  serializedVersion: 6
  m_Legacy: 0
  m_Compressed: 0
  m_UseHighQualityCurve: 1
  m_RotationCurves: []
  m_CompressedRotationCurves: []
  m_EulerCurves: []
  m_PositionCurves: []
  m_ScaleCurves: []
  m_FloatCurves: []
  m_PPtrCurves:
  - curve:
    - time: 0
      value: {fileID: 21300000, guid: 1cee239e1623a9d4592869cb43f7a262, type: 3}
    - time: 0.16666667
      value: {fileID: 21300000, guid: c549bd800f691364086729888baec4dc, type: 3}
    - time: 0.33333334
      value: {fileID: 21300000, guid: f2015112515757848b532dddd79a3e4b, type: 3}
    - time: 0.5
      value: {fileID: 21300000, guid: 048e67822be1eb849857f6cef2540b73, type: 3}
    - time: 0.6666667
      value: {fileID: 21300000, guid: 6962b6dd52fba9a488ac19e4595cd585, type: 3}
    - time: 0.8333334
      value: {fileID: 21300000, guid: 10b53019ea3733c48af559ff17ccb10a, type: 3}
    - time: 1
      value: {fileID: 21300000, guid: 49bc1f240661a474294123e2f966ea88, type: 3}
    - time: 1.1666666
      value: {fileID: 21300000, guid: fcb902de11377d14e8dd992c5ba94486, type: 3}
    attribute: m_Sprite
    path: 
    classID: 212
    script: {fileID: 0}
  m_SampleRate: 6
  m_WrapMode: 0
  m_Bounds:
    m_Center: {x: 0, y: 0, z: 0}
    m_Extent: {x: 0, y: 0, z: 0}
  m_ClipBindingConstant:
    genericBindings:
    - serializedVersion: 2
      path: 0
      attribute: 0
      script: {fileID: 0}
      typeID: 212
      customType: 23
      isPPtrCurve: 1
    pptrCurveMapping:
    - {fileID: 21300000, guid: 1cee239e1623a9d4592869cb43f7a262, type: 3}
    - {fileID: 21300000, guid: c549bd800f691364086729888baec4dc, type: 3}
    - {fileID: 21300000, guid: f2015112515757848b532dddd79a3e4b, type: 3}
    - {fileID: 21300000, guid: 048e67822be1eb849857f6cef2540b73, type: 3}
    - {fileID: 21300000, guid: 6962b6dd52fba9a488ac19e4595cd585, type: 3}
    - {fileID: 21300000, guid: 10b53019ea3733c48af559ff17ccb10a, type: 3}
    - {fileID: 21300000, guid: 49bc1f240661a474294123e2f966ea88, type: 3}
    - {fileID: 21300000, guid: fcb902de11377d14e8dd992c5ba94486, type: 3}
  m_AnimationClipSettings:
    serializedVersion: 2
    m_AdditiveReferencePoseClip: {fileID: 0}
    m_AdditiveReferencePoseTime: 0
    m_StartTime: 0
    m_StopTime: 1.3333333
    m_OrientationOffsetY: 0
    m_Level: 0
    m_CycleOffset: 0
    m_HasAdditiveReferencePose: 0
    m_LoopTime: 1
    m_LoopBlend: 0
    m_LoopBlendOrientation: 0
    m_LoopBlendPositionY: 0
    m_LoopBlendPositionXZ: 0
    m_KeepOriginalOrientation: 0
    m_KeepOriginalPositionY: 1
    m_KeepOriginalPositionXZ: 0
    m_HeightFromFeet: 0
    m_Mirror: 0
  m_EditorCurves: []
  m_EulerEditorCurves: []
  m_HasGenericRootTransform: 0
  m_HasMotionFloatCurves: 0
  m_GenerateMotionCurves: 0
  m_Events: []
