%YAML 1.1
%TAG !u! tag:unity3d.com,2011:
--- !u!74 &7400000
AnimationClip:
  m_ObjectHideFlags: 0
  m_PrefabParentObject: {fileID: 0}
  m_PrefabInternal: {fileID: 0}
  m_Name: Enemy2Elite_OcXoay_Idle Red
  serializedVersion: 6
  m_Legacy: 0
  m_Compressed: 0
  m_UseHighQualityCurve: 1
  m_RotationCurves: []
  m_CompressedRotationCurves: []
  m_EulerCurves: []
  m_PositionCurves: []
  m_ScaleCurves: []
  m_FloatCurves: []
  m_PPtrCurves:
  - curve:
    - time: 0
      value: {fileID: 21300000, guid: d97b976bb176b194ab9d1b227df012dc, type: 3}
    - time: 0.16666667
      value: {fileID: 21300000, guid: c537c60304ec9474eb1bca573b3dbf07, type: 3}
    - time: 0.33333334
      value: {fileID: 21300000, guid: 5220a859b0d776840a1496c0dc1af3ae, type: 3}
    - time: 0.5
      value: {fileID: 21300000, guid: bf94bbba52372ab45bf11169664e7969, type: 3}
    - time: 0.6666667
      value: {fileID: 21300000, guid: d97b976bb176b194ab9d1b227df012dc, type: 3}
    attribute: m_Sprite
    path: 
    classID: 212
    script: {fileID: 0}
  m_SampleRate: 6
  m_WrapMode: 0
  m_Bounds:
    m_Center: {x: 0, y: 0, z: 0}
    m_Extent: {x: 0, y: 0, z: 0}
  m_ClipBindingConstant:
    genericBindings:
    - serializedVersion: 2
      path: 0
      attribute: 0
      script: {fileID: 0}
      typeID: 212
      customType: 23
      isPPtrCurve: 1
    pptrCurveMapping:
    - {fileID: 21300000, guid: d97b976bb176b194ab9d1b227df012dc, type: 3}
    - {fileID: 21300000, guid: c537c60304ec9474eb1bca573b3dbf07, type: 3}
    - {fileID: 21300000, guid: 5220a859b0d776840a1496c0dc1af3ae, type: 3}
    - {fileID: 21300000, guid: bf94bbba52372ab45bf11169664e7969, type: 3}
    - {fileID: 21300000, guid: d97b976bb176b194ab9d1b227df012dc, type: 3}
  m_AnimationClipSettings:
    serializedVersion: 2
    m_AdditiveReferencePoseClip: {fileID: 0}
    m_AdditiveReferencePoseTime: 0
    m_StartTime: 0
    m_StopTime: 0.8333334
    m_OrientationOffsetY: 0
    m_Level: 0
    m_CycleOffset: 0
    m_HasAdditiveReferencePose: 0
    m_LoopTime: 1
    m_LoopBlend: 0
    m_LoopBlendOrientation: 0
    m_LoopBlendPositionY: 0
    m_LoopBlendPositionXZ: 0
    m_KeepOriginalOrientation: 0
    m_KeepOriginalPositionY: 1
    m_KeepOriginalPositionXZ: 0
    m_HeightFromFeet: 0
    m_Mirror: 0
  m_EditorCurves: []
  m_EulerEditorCurves: []
  m_HasGenericRootTransform: 0
  m_HasMotionFloatCurves: 0
  m_GenerateMotionCurves: 0
  m_Events: []
