%YAML 1.1
%TAG !u! tag:unity3d.com,2011:
--- !u!1 &102126
GameObject:
  m_ObjectHideFlags: 0
  m_PrefabParentObject: {fileID: 0}
  m_PrefabInternal: {fileID: 100100000}
  serializedVersion: 5
  m_Component:
  - component: {fileID: 402126}
  - component: {fileID: 11402126}
  m_Layer: 0
  m_Name: FontGalaxy
  m_TagString: Untagged
  m_Icon: {fileID: 0}
  m_NavMeshLayer: 0
  m_StaticEditorFlags: 0
  m_IsActive: 0
--- !u!4 &402126
Transform:
  m_ObjectHideFlags: 1
  m_PrefabParentObject: {fileID: 0}
  m_PrefabInternal: {fileID: 100100000}
  m_GameObject: {fileID: 102126}
  m_LocalRotation: {x: 0, y: 0, z: 0, w: 1}
  m_LocalPosition: {x: 0, y: 0, z: 0}
  m_LocalScale: {x: 1, y: 1, z: 1}
  m_Children: []
  m_Father: {fileID: 0}
  m_RootOrder: 0
  m_LocalEulerAnglesHint: {x: 0, y: 0, z: 0}
--- !u!114 &11402126
MonoBehaviour:
  m_ObjectHideFlags: 1
  m_PrefabParentObject: {fileID: 0}
  m_PrefabInternal: {fileID: 100100000}
  m_GameObject: {fileID: 102126}
  m_Enabled: 1
  m_EditorHideFlags: 0
  m_Script: {fileID: 11500000, guid: 35be0f790243a0c46b505c114d7122ae, type: 3}
  m_Name: 
  m_EditorClassIdentifier: 
  bmFont: {fileID: 4900000, guid: c3f2c503bdae71646b49cbf3291aab79, type: 3}
  material: {fileID: 2100000, guid: b8849231385699f41971179d41f44e6a, type: 2}
  texture: {fileID: 2800000, guid: 2974cd1c64db7ac40a1d02c6a26592e1, type: 3}
  gradientTexture: {fileID: 0}
  dupeCaps: 0
  flipTextureY: 0
  proxyFont: 0
  useTk2dCamera: 0
  targetHeight: 640
  targetOrthoSize: 1
  sizeDef:
    type: 1
    orthoSize: 10
    pixelsPerMeter: 100
    width: 960
    height: 640
  gradientCount: 1
  manageMaterial: 1
  loadable: 0
  charPadX: 0
  data: {fileID: 11475532, guid: d0bed0c8673a61c4697c220f2d967b5c, type: 2}
  version: 1
--- !u!1001 &100100000
Prefab:
  m_ObjectHideFlags: 1
  serializedVersion: 2
  m_Modification:
    m_TransformParent: {fileID: 0}
    m_Modifications: []
    m_RemovedComponents: []
  m_ParentPrefab: {fileID: 0}
  m_RootGameObject: {fileID: 102126}
  m_IsPrefabParent: 1
