{
"skeleton": { "hash": "2CZEc8oNDTZA8N+eMVp7dSNKmSU", "spine": "3.6.53", "width": 750, "height": 1140.23, "images": "./images/" },
"bones": [
	{ "name": "root" },
	{ "name": "bone", "parent": "root", "x": 122.86, "y": -471.02 },
	{ "name": "bbody", "parent": "bone", "x": -183.71, "y": 413.34 },
	{ "name": "bbody2", "parent": "bbody", "length": 176.9, "rotation": 67.38, "x": 13.61, "y": 25.51 },
	{ "name": "bbody3", "parent": "bbody2", "length": 198.05, "rotation": 17.69, "x": 176.9 },
	{ "name": "Layer 3", "parent": "bbody3", "length": 78.74, "rotation": 3.21, "x": 241.1, "y": 19.81 },
	{ "name": "Layer 2", "parent": "Layer 3", "length": 160.78, "rotation": 20.86, "x": 65.31, "y": 0.59 },
	{ "name": "Layer 1", "parent": "Layer 2", "length": 57.92, "rotation": 147.04, "x": 194.47, "y": 48.37 },
	{ "name": "Layer 4", "parent": "Layer 1", "length": 62.02, "rotation": 18.93, "x": 57.92 },
	{ "name": "tay", "parent": "bbody3", "length": 254.72, "rotation": 155.8, "x": 199.08, "y": 156.51 },
	{ "name": "Layer 5", "parent": "tay", "length": 230.11, "rotation": -136.1, "x": 271.82, "y": -5.68 },
	{ "name": "Layer 6", "parent": "Layer 5", "length": 103.16, "rotation": 42.05, "x": 230.11 },
	{ "name": "Layer 7", "parent": "Layer 2", "x": 58.09, "y": 54.73 },
	{ "name": "Layer 8", "parent": "Layer 4", "length": 56.57, "rotation": 13.91, "x": 62.02 },
	{ "name": "Layer 9", "parent": "Layer 8", "length": 52.06, "rotation": 3.91, "x": 56.57 },
	{ "name": "Layer 10", "parent": "Layer 9", "length": 57.53, "rotation": -16.49, "x": 52.06 },
	{ "name": "Layer 11", "parent": "Layer 10", "length": 51.9, "rotation": -18.75, "x": 57.53 },
	{ "name": "Layer 12", "parent": "Layer 11", "length": 49.18, "rotation": -18.1, "x": 51.9 },
	{ "name": "Layer 13", "parent": "Layer 12", "length": 37.61, "rotation": 19.1, "x": 49.18 },
	{ "name": "Layer 14", "parent": "Layer 13", "length": 46.11, "rotation": 12.46, "x": 37.07, "y": -1.99 },
	{ "name": "Layer 16", "parent": "Layer 2", "x": -18.59, "y": 65.93 },
	{ "name": "bbody4", "parent": "bbody", "length": 380.38, "rotation": -42.12, "x": -10.36, "y": -38.71 },
	{ "name": "bbody5", "parent": "bbody3", "length": 57.77, "rotation": -155.92, "x": 211.47, "y": -84.05 },
	{ "name": "bbody6", "parent": "bbody3", "length": 132.87, "rotation": -141.47, "x": 79.18, "y": -138.06 },
	{ "name": "bbody7", "parent": "bbody6", "length": 213.86, "rotation": 137.84, "x": 132.87 },
	{ "name": "bbody8", "parent": "bbody7", "length": 113.95, "rotation": 0.92, "x": 213.86 },
	{ "name": "bbody9", "parent": "bbody3", "x": 79.85, "y": 62.88 },
	{ "name": "bbody10", "parent": "bbody3", "x": 86, "y": -102.8 },
	{ "name": "bbody11", "parent": "bbody3", "length": 198.64, "rotation": 30.06, "x": 35.93, "y": 54.46 },
	{ "name": "bbody12", "parent": "bbody11", "length": 180.33, "rotation": 110.92, "x": -13.67, "y": 29.66 },
	{ "name": "bbody13", "parent": "bbody12", "length": 86.23, "rotation": 1.88, "x": 180.93, "y": -2.03 },
	{ "name": "bbody14", "parent": "bbody13", "length": 102.08, "rotation": 19.72, "x": 86.23 },
	{ "name": "bbody15", "parent": "bbody14", "length": 93.96, "rotation": 11.56, "x": 102.08 },
	{ "name": "bbody16", "parent": "bbody15", "length": 96.66, "rotation": 9.43, "x": 93.96 },
	{ "name": "bbody17", "parent": "bbody16", "length": 83.93, "rotation": 16.58, "x": 96.66 },
	{ "name": "bbody18", "parent": "bbody17", "length": 62.67, "rotation": 7.73, "x": 83.93 },
	{ "name": "bbody19", "parent": "bbody13", "length": 69.61, "rotation": 12.09, "x": -10.41, "y": 52.3 },
	{ "name": "bbody20", "parent": "bbody14", "length": 95.81, "rotation": 4.85, "x": -8.58, "y": 70.18 },
	{ "name": "bbody21", "parent": "bbody15", "length": 87.27, "rotation": -1.9, "x": -13.78, "y": 73.29 },
	{ "name": "bbody22", "parent": "bbody16", "length": 84.29, "rotation": -1.16, "x": -21.47, "y": 68.56 },
	{ "name": "bbody23", "parent": "bbody17", "length": 84.24, "rotation": -14.3, "x": -18.4, "y": 69.47 },
	{ "name": "bbody24", "parent": "bbody18", "length": 68.67, "rotation": -27.15, "x": -15.38, "y": 43.28 },
	{ "name": "kinh", "parent": "Layer 2", "x": 83.47, "y": 41.5 },
	{ "name": "vai", "parent": "bbody3", "length": 72.92, "rotation": 40.38, "x": 168.16, "y": 128.31 }
],
"slots": [
	{ "name": "Layer 4", "bone": "Layer 7", "attachment": "Layer 4" },
	{ "name": "ao sau", "bone": "root", "attachment": "ao sau" },
	{ "name": "bbody", "bone": "bbody", "attachment": "bbody" },
	{ "name": "Layer 3", "bone": "Layer 3", "attachment": "Layer 3" },
	{ "name": "ao", "bone": "root", "attachment": "ao" },
	{ "name": "Layer 6", "bone": "Layer 16", "attachment": "Layer 6" },
	{ "name": "tay", "bone": "tay", "attachment": "tay" },
	{ "name": "Layer 5", "bone": "Layer 5", "attachment": "Layer 5" },
	{ "name": "vai", "bone": "vai", "attachment": "vai" },
	{ "name": "Layer 2", "bone": "Layer 2", "attachment": "Layer 2" },
	{ "name": "Layer 1", "bone": "Layer 1", "attachment": "Layer 1" },
	{ "name": "kinh", "bone": "kinh", "attachment": "kinh" }
],
"skins": {
	"default": {
		"Layer 1": {
			"Layer 1": {
				"type": "mesh",
				"uvs": [ 0.3765, 0.01791, 0.24958, 0.0418, 0.13715, 0.10272, 0.07913, 0.17439, 0.05012, 0.24844, 0.05012, 0.32727, 0.08276, 0.39655, 0.12627, 0.48733, 0.18792, 0.56258, 0.25587, 0.6296, 0.29213, 0.66424, 0.27037, 0.7144, 0.2051, 0.76457, 0.1507, 0.81235, 0.10355, 0.87326, 0.11081, 0.93537, 0.16521, 0.98196, 0.19422, 1, 0.34653, 1, 0.3828, 0.97479, 0.42994, 0.91985, 0.43357, 0.86849, 0.52423, 0.82429, 0.60764, 0.79085, 0.70193, 0.7801, 0.75632, 0.7586, 0.79259, 0.71321, 0.81072, 0.66065, 0.78534, 0.61168, 0.72731, 0.55435, 0.64028, 0.50299, 0.53873, 0.45401, 0.45662, 0.38461, 0.43124, 0.32011, 0.3442, 0.25919, 0.3442, 0.17946, 0.3986, 0.11138, 0.3986, 0.05524 ],
				"triangles": [ 16, 15, 14, 17, 16, 13, 13, 16, 14, 12, 18, 17, 19, 18, 12, 20, 19, 21, 23, 22, 31, 22, 21, 10, 11, 21, 12, 19, 12, 21, 17, 13, 12, 26, 28, 27, 25, 28, 26, 25, 24, 28, 24, 23, 29, 21, 11, 10, 9, 8, 32, 10, 9, 32, 28, 24, 29, 29, 23, 30, 8, 7, 34, 31, 10, 32, 23, 31, 30, 22, 10, 31, 7, 6, 34, 32, 34, 33, 1, 0, 37, 36, 35, 1, 37, 36, 1, 35, 2, 1, 34, 2, 35, 34, 5, 4, 4, 3, 34, 34, 3, 2, 6, 5, 34, 32, 8, 34 ],
				"vertices": [ 1, 8, -92.02, 35.13, 1, 1, 8, -81.91, 13.07, 1, 1, 8, -52.99, -8.25, 1, 1, 8, -17.87, -21.07, 1, 1, 8, 18.87, -29.19, 1, 2, 8, 58.45, -32.74, 0.60641, 13, -11.34, -30.92, 0.39359, 3, 8, 93.71, -30.46, 0.0183, 13, 23.43, -37.18, 0.94185, 14, -35.59, -34.83, 0.03986, 3, 13, 69.04, -45.26, 0.27122, 14, 9.36, -46.01, 0.66198, 15, -27.88, -56.24, 0.0668, 4, 13, 108.23, -47.95, 0.00597, 14, 48.28, -51.36, 0.46809, 15, 10.96, -50.32, 0.51448, 16, -27.93, -62.62, 0.01146, 4, 14, 83.78, -54.13, 0.07035, 15, 45.78, -42.9, 0.66093, 16, 2.67, -44.4, 0.26831, 17, -33, -57.5, 4.0E-4, 4, 14, 102.21, -55.39, 0.01002, 15, 63.81, -38.88, 0.3176, 16, 18.44, -34.8, 0.63954, 17, -20.99, -43.47, 0.03284, 3, 15, 88.53, -45.31, 0.02175, 16, 43.92, -32.94, 0.55477, 17, 2.64, -33.79, 0.42347, 4, 16, 70.93, -38.13, 0.0601, 17, 29.93, -30.33, 0.91459, 18, -28.11, -22.37, 0.02502, 19, -68.04, -5.84, 2.9E-4, 3, 17, 55.27, -25.93, 0.47227, 18, -2.73, -26.5, 0.45278, 19, -44.15, -15.35, 0.07494, 3, 17, 85.71, -17.14, 3.8E-4, 18, 28.91, -28.15, 0.27254, 19, -13.61, -23.79, 0.72708, 1, 19, 17.72, -23.21, 1, 1, 19, 41.37, -14.65, 1, 2, 18, 88.6, -0.87, 0, 19, 50.56, -10.02, 1, 2, 18, 83.64, 23.93, 0.01814, 19, 51.06, 15.26, 0.98186, 2, 18, 70, 27.34, 0.1073, 19, 38.48, 21.53, 0.8927, 3, 17, 78.53, 41.47, 4.3E-4, 18, 41.31, 29.58, 0.78239, 19, 10.95, 29.91, 0.21718, 2, 17, 55.9, 28.89, 0.19911, 18, 15.81, 25.09, 0.80089, 3, 16, 89.04, 20.04, 0.02491, 17, 29.08, 30.59, 0.83884, 18, -8.99, 35.48, 0.13625, 3, 16, 69.62, 29.98, 0.36775, 17, 7.53, 34, 0.62841, 18, -28.23, 45.76, 0.00384, 2, 16, 60.99, 44.11, 0.67163, 17, -5.06, 44.75, 0.32837, 3, 15, 119.71, 32.35, 0.00626, 16, 48.48, 50.63, 0.80011, 17, -18.98, 47.06, 0.19363, 3, 15, 97.65, 40.9, 0.08782, 16, 24.85, 51.63, 0.87132, 17, -41.76, 40.67, 0.04086, 3, 15, 71.67, 46.87, 0.38139, 16, -1.67, 48.92, 0.61861, 17, -66.12, 29.86, 0, 2, 15, 46.67, 45.45, 0.76992, 16, -24.89, 39.55, 0.23008, 3, 14, 79.35, 32.72, 0.04125, 15, 16.88, 39.12, 0.95134, 16, -51.07, 23.98, 0.00741, 2, 14, 49.88, 29.5, 0.58062, 15, -10.47, 27.67, 0.41938, 3, 13, 75.49, 24.94, 0.0352, 14, 20.58, 23.59, 0.96338, 15, -36.88, 13.68, 0.00143, 2, 13, 37.97, 23.46, 0.94846, 14, -16.95, 24.67, 0.05154, 2, 8, 60.49, 30.6, 0.35968, 13, 5.87, 30.07, 0.64032, 2, 8, 28.62, 18.95, 0.98389, 13, -27.87, 26.42, 0.01611, 1, 8, -11.4, 22.53, 1, 1, 8, -44.77, 34.59, 1, 1, 8, -72.96, 37.11, 1 ],
				"hull": 38,
				"edges": [ 0, 2, 2, 4, 4, 6, 6, 8, 8, 10, 10, 12, 12, 14, 14, 16, 16, 18, 18, 20, 20, 22, 22, 24, 24, 26, 26, 28, 28, 30, 30, 32, 32, 34, 34, 36, 36, 38, 38, 40, 40, 42, 42, 44, 44, 46, 46, 48, 48, 50, 50, 52, 52, 54, 54, 56, 56, 58, 58, 60, 60, 62, 62, 64, 64, 66, 66, 68, 68, 70, 70, 72, 72, 74, 0, 74 ],
				"width": 166,
				"height": 504
			}
		},
		"Layer 2": {
			"Layer 2": {
				"type": "mesh",
				"uvs": [ 0.01405, 0.36016, 0.04718, 0.24883, 0.10672, 0.15828, 0.1693, 0.08048, 0.24105, 0.03202, 0.35096, 0, 0.50361, 0, 0.65932, 0.02947, 0.7723, 0.11361, 0.85931, 0.20288, 0.92953, 0.31256, 0.98144, 0.44137, 1, 0.54467, 1, 0.69898, 0.97075, 0.81121, 0.92343, 0.91451, 0.841, 0.94767, 0.78757, 1, 0.72956, 1, 0.68071, 0.91579, 0.66392, 0.82651, 0.68376, 0.65817, 0.59065, 0.74617, 0.49906, 0.80101, 0.45021, 0.80611, 0.36014, 0.76785, 0.26855, 0.69005, 0.21665, 0.61354, 0.19867, 0.56368, 0.18978, 0.53904, 0.18307, 0.52044, 0.14643, 0.41714, 0.1617, 0.34827, 0.05568, 0.4134, 0.19887, 0.30152, 0.28735, 0.26687, 0.33851, 0.24377, 0.19941, 0.51487, 0.2202, 0.50174, 0.25902, 0.48707, 0.30154, 0.49209, 0.30939, 0.51139, 0.30939, 0.5307, 0.28398, 0.5473, 0.24654, 0.55811, 0.21178, 0.55374, 0.20351, 0.53548, 0.20335, 0.50324, 0.22656, 0.49019, 0.25591, 0.4799, 0.30089, 0.48069, 0.31368, 0.50008, 0.31747, 0.53014, 0.28906, 0.55308, 0.25212, 0.56495, 0.37848, 0.45598, 0.36993, 0.47414, 0.37382, 0.49749, 0.3909, 0.5189, 0.42507, 0.52279, 0.48175, 0.51566, 0.53844, 0.49814, 0.58348, 0.47544, 0.61143, 0.44235, 0.58969, 0.4177, 0.53456, 0.39889, 0.4802, 0.40797, 0.42274, 0.42354, 0.39012, 0.43911, 0.395, 0.48214, 0.40826, 0.50385, 0.40137, 0.45423, 0.42894, 0.43473, 0.48675, 0.41923, 0.53023, 0.41524, 0.56947, 0.42011, 0.59811, 0.44094, 0.57212, 0.46619, 0.54773, 0.48435, 0.50318, 0.49986, 0.45281, 0.51226, 0.45584, 0.23514, 0.54296, 0.27225, 0.60959, 0.30079, 0.66596, 0.43781, 0.69671, 0.53486, 0.70696, 0.60336, 0.31062, 0.66848, 0.3729, 0.6442, 0.50471, 0.62339, 0.52131, 0.65461, 0.48291, 0.71704, 0.39988, 0.74392, 0.33553, 0.71357 ],
				"triangles": [ 81, 5, 6, 36, 4, 5, 36, 5, 81, 3, 4, 36, 35, 2, 3, 36, 35, 3, 82, 6, 7, 83, 82, 7, 81, 6, 82, 8, 83, 7, 83, 8, 9, 34, 2, 35, 1, 2, 34, 32, 1, 34, 0, 1, 32, 82, 66, 81, 65, 82, 83, 65, 66, 82, 33, 0, 32, 65, 73, 66, 64, 65, 83, 75, 74, 65, 74, 73, 65, 64, 75, 65, 67, 36, 81, 67, 81, 66, 72, 67, 66, 72, 66, 73, 84, 83, 9, 84, 9, 10, 64, 83, 84, 68, 36, 67, 35, 36, 68, 63, 76, 64, 75, 64, 76, 84, 10, 11, 84, 63, 64, 71, 68, 67, 71, 67, 72, 68, 49, 35, 55, 68, 71, 77, 75, 76, 68, 55, 49, 62, 77, 76, 62, 76, 63, 49, 34, 35, 55, 50, 49, 32, 34, 49, 31, 32, 49, 56, 50, 55, 69, 55, 71, 56, 55, 69, 77, 78, 74, 77, 74, 75, 39, 49, 50, 48, 31, 49, 51, 40, 50, 39, 50, 40, 57, 56, 69, 56, 51, 50, 78, 79, 74, 62, 61, 78, 62, 78, 77, 79, 73, 74, 61, 79, 78, 72, 73, 79, 57, 51, 56, 48, 47, 31, 39, 38, 48, 39, 48, 49, 38, 47, 48, 70, 71, 72, 80, 70, 72, 69, 71, 70, 57, 69, 70, 41, 40, 51, 79, 80, 72, 47, 30, 31, 37, 47, 38, 60, 80, 79, 60, 79, 61, 58, 57, 70, 37, 30, 47, 59, 70, 80, 58, 70, 59, 59, 80, 60, 52, 51, 57, 41, 51, 52, 42, 41, 52, 41, 39, 40, 85, 84, 11, 46, 37, 38, 30, 37, 46, 29, 30, 46, 85, 11, 12, 41, 43, 39, 42, 43, 41, 53, 43, 42, 53, 42, 52, 44, 45, 46, 44, 38, 39, 44, 39, 43, 44, 46, 38, 45, 28, 29, 45, 29, 46, 54, 44, 43, 54, 43, 53, 45, 44, 54, 28, 45, 54, 86, 85, 12, 27, 28, 54, 89, 60, 61, 58, 88, 52, 58, 52, 57, 53, 52, 88, 88, 58, 59, 89, 88, 59, 89, 59, 60, 21, 90, 89, 62, 63, 84, 85, 62, 84, 61, 85, 86, 85, 61, 62, 87, 53, 88, 54, 53, 87, 27, 54, 87, 26, 27, 87, 86, 12, 13, 93, 87, 88, 91, 88, 89, 91, 89, 90, 92, 93, 88, 86, 89, 61, 91, 92, 88, 89, 86, 21, 22, 90, 21, 91, 90, 22, 25, 93, 92, 26, 87, 93, 25, 26, 93, 23, 91, 22, 24, 92, 91, 23, 24, 91, 25, 92, 24, 13, 21, 86, 14, 21, 13, 20, 21, 14, 14, 16, 20, 16, 19, 20, 14, 15, 16, 17, 18, 19, 16, 17, 19 ],
				"vertices": [ 160.73, 104.37, 190.43, 84.25, 212.31, 60.01, 230.11, 36.34, 238.37, 13.43, 238.41, -17.3, 225.19, -55.37, 202.91, -91.15, 168.01, -110.61, 133.83, -123.06, 95.01, -129.21, 52.06, -128.8, 19.62, -122.73, -26.45, -106.73, -57.42, -87.81, -84.16, -65.3, -86.92, -41.31, -97.92, -22.56, -92.89, -8.09, -63.52, -4.64, -35.42, -9.7, 13.12, -32.1, -5.09, 0.25, -13.53, 28.77, -10.83, 41.48, 8.39, 59.98, 39.55, 74.76, 66.88, 79.78, 83.32, 79.1, 91.45, 78.76, 97.58, 78.5, 131.59, 76.94, 150.83, 65.99, 140.57, 99.18, 161.56, 51.88, 164.25, 26.22, 166.72, 11.07, 97.83, 73.85, 99.95, 67.31, 100.97, 56.1, 95.79, 46.02, 89.34, 46.06, 83.58, 48.06, 80.83, 56.12, 80.84, 66.58, 85.15, 74.8, 91.32, 74.97, 100.96, 71.66, 102.85, 64.52, 103.38, 56.14, 99.25, 45, 92.35, 43.82, 83.05, 45.99, 78.66, 55.45, 78.32, 65.89, 99.91, 23.09, 95.22, 27.1, 87.92, 28.55, 80.05, 26.51, 75.93, 18.39, 73.15, 3.52, 73.47, -12.44, 76.35, -26.02, 83.81, -36.42, 93.05, -33.55, 103.44, -21.75, 105.43, -7.26, 105.76, 8.69, 103.93, 18.44, 90.67, 21.68, 83.04, 20.62, 98.45, 17.2, 101.88, 8.3, 101.5, -7.72, 98.93, -18.98, 94.08, -28.26, 85.38, -33.25, 80.09, -24.15, 76.78, -16.18, 76.01, -3.47, 76.67, 10.38, 159.13, -19.09, 140.51, -36.97, 126.22, -50.63, 80.44, -50.49, 48.81, -48.1, 27.47, -43.56, 42.34, 62.03, 44.2, 43.99, 39, 8.96, 28.24, 8.05, 12.93, 24.1, 12.1, 47.59, 26.73, 60.49 ],
				"hull": 34,
				"edges": [ 0, 2, 2, 4, 4, 6, 6, 8, 8, 10, 10, 12, 12, 14, 14, 16, 16, 18, 18, 20, 20, 22, 22, 24, 24, 26, 26, 28, 28, 30, 30, 32, 32, 34, 34, 36, 36, 38, 38, 40, 40, 42, 42, 44, 44, 46, 46, 48, 48, 50, 50, 52, 52, 54, 60, 62, 62, 64, 64, 66, 0, 66, 64, 68, 68, 70, 70, 72, 74, 76, 76, 78, 78, 80, 80, 82, 82, 84, 84, 86, 86, 88, 88, 90, 90, 92, 92, 74, 60, 94, 94, 96, 96, 98, 98, 100, 100, 102, 102, 104, 104, 106, 106, 108, 54, 56, 108, 56, 56, 58, 58, 60, 110, 112, 112, 114, 114, 116, 116, 118, 118, 120, 120, 122, 122, 124, 124, 126, 126, 128, 128, 130, 130, 132, 132, 134, 134, 136, 136, 110, 138, 140, 138, 142, 142, 144, 144, 146, 146, 148, 148, 150, 150, 152, 152, 154, 154, 156, 156, 158, 158, 160, 160, 140, 72, 162, 162, 164, 164, 166, 166, 168, 168, 170, 170, 172, 172, 42, 174, 176, 176, 178, 178, 180, 180, 182, 182, 184, 184, 186, 186, 174 ],
				"width": 264,
				"height": 316
			}
		},
		"Layer 3": {
			"Layer 3": { "x": 49.44, "y": 10.13, "rotation": -88.28, "width": 96, "height": 128 }
		},
		"Layer 4": {
			"Layer 4": { "x": 15.89, "y": 0.06, "rotation": -109.14, "width": 76, "height": 201 }
		},
		"Layer 5": {
			"Layer 5": {
				"type": "mesh",
				"uvs": [ 0.22749, 0, 0.1458, 0, 0.06638, 0.03178, 0.09814, 0.07213, 0.12311, 0.13831, 0.05503, 0.13508, 0, 0.15445, 0, 0.19318, 0.08907, 0.219, 0.17303, 0.23999, 0.2638, 0.23353, 0.36364, 0.26097, 0.50887, 0.27227, 0.54064, 0.36588, 0.56334, 0.46433, 0.5883, 0.56117, 0.60872, 0.66608, 0.64276, 0.76453, 0.69949, 0.85491, 0.78118, 0.93561, 0.86514, 0.97273, 0.94684, 0.97273, 1, 0.93238, 1, 0.86298, 1, 0.79358, 1, 0.68222, 0.96045, 0.60313, 0.90372, 0.51275, 0.85153, 0.43205, 0.77891, 0.33521, 0.72899, 0.24967, 0.70857, 0.16897, 0.63595, 0.08827, 0.51795, 0.03824, 0.35003, 0.00919 ],
				"triangles": [ 3, 2, 1, 4, 3, 1, 7, 6, 5, 8, 5, 4, 7, 5, 8, 10, 0, 34, 0, 4, 1, 10, 4, 0, 10, 9, 4, 8, 4, 9, 11, 34, 33, 10, 34, 11, 12, 11, 33, 12, 33, 32, 12, 32, 31, 12, 31, 30, 13, 12, 30, 13, 30, 29, 14, 13, 29, 28, 15, 14, 28, 14, 29, 27, 16, 15, 27, 15, 28, 26, 17, 16, 26, 16, 27, 18, 17, 26, 25, 18, 26, 24, 18, 25, 19, 18, 24, 23, 19, 24, 23, 20, 19, 23, 21, 20, 22, 21, 23 ],
				"vertices": [ 1, 11, 114.97, -15.65, 1, 1, 11, 130.97, -5.18, 1, 1, 11, 140.8, 13.74, 1, 1, 11, 127.32, 20.78, 1, 1, 11, 110.51, 35.81, 1, 1, 11, 124.43, 43.63, 1, 1, 11, 131.72, 56.02, 1, 1, 11, 124.74, 66.68, 1, 1, 11, 102.65, 62.39, 1, 1, 11, 82.43, 57.41, 1, 1, 11, 65.81, 44.01, 1, 2, 10, 234.82, 56.47, 0.00114, 11, 41.32, 38.78, 0.99886, 2, 10, 222.56, 24.56, 0.40314, 11, 10.84, 23.29, 0.59686, 2, 10, 190.89, 25.22, 0.99252, 11, -12.23, 45, 0.00748, 1, 10, 158.21, 28.35, 1, 1, 10, 125.92, 30.82, 1, 1, 10, 91.32, 35, 1, 1, 10, 57.97, 35.56, 1, 1, 10, 25.83, 30.3, 1, 1, 10, -4.71, 18.59, 1, 1, 10, -21.53, 2.71, 1, 1, 10, -26.41, -15.78, 1, 1, 10, -16.74, -31.19, 1, 1, 10, 5.34, -37.01, 1, 1, 10, 27.42, -42.84, 1, 1, 10, 62.84, -52.18, 1, 1, 10, 90.36, -49.86, 1, 1, 10, 122.5, -44.61, 1, 1, 10, 151.29, -39.57, 1, 1, 10, 186.43, -31.26, 1, 2, 10, 216.62, -27.14, 0.93442, 11, -28.2, -11.12, 0.06558, 2, 10, 243.51, -29.29, 0.36048, 11, -9.67, -30.72, 0.63952, 2, 10, 273.51, -19.63, 0.01331, 11, 19.08, -43.64, 0.98669, 1, 11, 51.2, -42.31, 1, 1, 11, 89.32, -28.81, 1 ],
				"hull": 35,
				"edges": [ 0, 2, 2, 4, 4, 6, 6, 8, 8, 10, 10, 12, 12, 14, 14, 16, 16, 18, 18, 20, 20, 22, 22, 24, 24, 26, 26, 28, 28, 30, 30, 32, 32, 34, 34, 36, 36, 38, 38, 40, 40, 42, 42, 44, 44, 46, 46, 48, 48, 50, 50, 52, 52, 54, 54, 56, 56, 58, 58, 60, 60, 62, 62, 64, 64, 66, 66, 68, 0, 68 ],
				"width": 234,
				"height": 329
			}
		},
		"Layer 6": {
			"Layer 6": { "x": 1.79, "y": 0.26, "rotation": -109.14, "width": 16, "height": 26 }
		},
		"ao": {
			"ao": {
				"type": "mesh",
				"uvs": [ 0.90248, 0, 0.85198, 0, 0.78754, 0.01767, 0.71788, 0.03547, 0.643, 0.05091, 0.56637, 0.06871, 0.53154, 0.12451, 0.54895, 0.17437, 0.59249, 0.20167, 0.66215, 0.21117, 0.6935, 0.21354, 0.70221, 0.25153, 0.72485, 0.27646, 0.72136, 0.32157, 0.6935, 0.35718, 0.64474, 0.39141, 0.5803, 0.43533, 0.52283, 0.47807, 0.46536, 0.5208, 0.42008, 0.56117, 0.37654, 0.61221, 0.32604, 0.66088, 0.27031, 0.71668, 0.2198, 0.77485, 0.1693, 0.8437, 0.12402, 0.90662, 0.09093, 0.95648, 0.06481, 1, 0.11879, 1, 0.17278, 0.96241, 0.22329, 0.91255, 0.28424, 0.86269, 0.35913, 0.79384, 0.41311, 0.74161, 0.47407, 0.68107, 0.5298, 0.63358, 0.56985, 0.59084, 0.62384, 0.54099, 0.66738, 0.50418, 0.71092, 0.46026, 0.77013, 0.41396, 0.81367, 0.37716, 0.86765, 0.35105, 0.93557, 0.31662, 0.98085, 0.29644, 1, 0.2537, 0.9617, 0.22284, 0.92164, 0.18366, 0.88855, 0.14211, 0.87636, 0.097, 0.87984, 0.04239 ],
				"triangles": [ 26, 25, 29, 28, 26, 29, 27, 26, 28, 30, 24, 31, 25, 24, 30, 29, 25, 30, 23, 22, 32, 31, 23, 32, 24, 23, 31, 21, 20, 33, 32, 21, 33, 22, 21, 32, 35, 18, 36, 19, 18, 35, 34, 19, 35, 20, 19, 34, 33, 20, 34, 17, 16, 37, 36, 17, 37, 18, 17, 36, 12, 41, 13, 42, 41, 12, 40, 13, 41, 14, 13, 40, 39, 14, 40, 15, 14, 39, 38, 15, 39, 16, 15, 38, 37, 16, 38, 50, 1, 0, 50, 2, 1, 49, 2, 50, 7, 6, 5, 8, 5, 4, 7, 5, 8, 10, 9, 4, 8, 4, 9, 3, 10, 4, 49, 11, 10, 48, 11, 49, 49, 3, 2, 3, 49, 10, 12, 48, 47, 12, 11, 48, 44, 46, 45, 43, 47, 46, 43, 46, 44, 42, 12, 47, 47, 43, 42 ],
				"vertices": [ 1, 28, 210.4, -121.66, 1, 1, 28, 222.43, -96.01, 1, 1, 28, 224.62, -57.11, 1, 1, 28, 227.95, -15.51, 1, 1, 28, 234.29, 27.92, 1, 1, 28, 239.28, 73.07, 1, 1, 28, 206, 110.26, 1, 1, 28, 164.7, 118.84, 1, 2, 28, 133.99, 106.27, 0.99992, 29, 18.84, -165.27, 8.0E-5, 2, 28, 110.31, 74.21, 0.98988, 29, -2.66, -131.71, 0.01012, 2, 28, 101.08, 59.11, 0.96161, 29, -13.46, -117.7, 0.03839, 2, 28, 70.7, 67.97, 0.81794, 29, 5.66, -92.48, 0.18206, 2, 28, 46.73, 65.18, 0.59715, 29, 11.61, -69.1, 0.40285, 2, 28, 13.95, 82.72, 0.11709, 29, 39.7, -44.74, 0.88291, 3, 28, -5.95, 109.32, 0.00346, 29, 71.65, -35.65, 0.99652, 30, -110.32, -30.03, 2.0E-5, 2, 29, 110.91, -35.79, 0.96987, 30, -71.08, -31.46, 0.03013, 2, 29, 162.03, -36.73, 0.31052, 30, -20.03, -34.07, 0.68948, 1, 30, 27.68, -34.43, 1, 2, 30, 75.4, -34.79, 0.77049, 31, -16.03, -32.72, 0.22951, 2, 30, 117.07, -31.39, 0.04239, 31, 25.68, -35.74, 0.95761, 2, 31, 74.2, -33.11, 0.95028, 32, -28.25, -32.79, 0.04972, 2, 31, 123.24, -34.82, 0.06534, 32, 20.77, -35.05, 0.93466, 2, 32, 76.3, -36.61, 0.87938, 33, -16.7, -37.06, 0.12062, 2, 32, 131.89, -34.65, 0.01337, 33, 38.82, -33.65, 0.98663, 2, 33, 101.63, -25.31, 0.4103, 34, 2.45, -25.68, 0.5897, 2, 34, 60.08, -23.33, 0.98482, 35, -22.52, -24.63, 0.01518, 2, 34, 105, -20.09, 0.01721, 35, 22.15, -18.89, 0.98279, 1, 35, 60.33, -12.56, 1, 1, 35, 44.43, 13.22, 1, 2, 34, 87.4, 22.6, 0.49102, 35, 2.21, 22.76, 0.50898, 2, 33, 131.54, 31.55, 0.00856, 34, 37.83, 27.95, 0.99144, 2, 33, 78.39, 36.83, 0.85877, 34, -14.54, 38.46, 0.14123, 2, 32, 102.9, 39.6, 0.38188, 33, 7.91, 39.82, 0.61812, 3, 31, 151.98, 42.47, 0.00552, 32, 50.37, 41.92, 0.99329, 33, -44.67, 40.77, 0.00118, 2, 31, 91.56, 43.73, 0.71842, 32, -10.04, 43.84, 0.28158, 3, 29, 299.16, 56.11, 0.00121, 30, 120.07, 54.24, 0.03812, 31, 41.73, 48.42, 0.96067, 3, 29, 258.24, 47.88, 0.05776, 30, 78.9, 47.35, 0.46335, 31, 0, 47.91, 0.47888, 3, 29, 207.68, 41.2, 0.6093, 30, 28.15, 42.33, 0.38218, 31, -50.93, 50.72, 0.00853, 1, 29, 168.92, 37.77, 1, 1, 29, 125.94, 30.26, 1, 1, 29, 75.46, 27.73, 1, 1, 29, 36.7, 24.3, 1, 2, 28, -42.87, 18.72, 0.13718, 29, 0.2, 31.18, 0.86282, 2, 28, -33.4, -27.81, 0.935, 29, -46.64, 38.95, 0.065, 2, 28, -29.15, -57.86, 0.99962, 29, -76.23, 45.71, 3.8E-4, 1, 28, -1.87, -82.52, 1, 1, 28, 30.26, -73.85, 1, 1, 28, 68.99, -67.2, 1, 1, 28, 107.83, -64.92, 1, 1, 28, 144.34, -74.49, 1, 1, 28, 184.2, -95.35, 1 ],
				"hull": 51,
				"edges": [ 0, 2, 2, 4, 4, 6, 6, 8, 8, 10, 10, 12, 12, 14, 14, 16, 16, 18, 18, 20, 20, 22, 22, 24, 24, 26, 26, 28, 28, 30, 30, 32, 32, 34, 34, 36, 36, 38, 38, 40, 40, 42, 42, 44, 44, 46, 46, 48, 48, 50, 50, 52, 52, 54, 54, 56, 56, 58, 58, 60, 60, 62, 62, 64, 64, 66, 66, 68, 68, 70, 70, 72, 72, 74, 74, 76, 76, 78, 78, 80, 80, 82, 82, 84, 84, 86, 86, 88, 88, 90, 90, 92, 92, 94, 94, 96, 96, 98, 98, 100, 0, 100 ],
				"width": 561,
				"height": 823
			}
		},
		"ao sau": {
			"ao sau": {
				"type": "mesh",
				"uvs": [ 1, 0, 0.9382, 0, 0.86357, 0.06504, 0.80903, 0.12007, 0.74588, 0.18121, 0.66838, 0.25661, 0.59662, 0.33202, 0.54208, 0.40335, 0.47319, 0.47875, 0.38421, 0.56435, 0.31532, 0.64995, 0.24356, 0.73554, 0.16319, 0.8191, 0.09143, 0.89247, 0, 0.96176, 0, 1, 0.16032, 1, 0.278, 0.9638, 0.39856, 0.91489, 0.49903, 0.86394, 0.59662, 0.80076, 0.69134, 0.72943, 0.76885, 0.66217, 0.85209, 0.599, 0.89801, 0.51748, 0.92672, 0.45226, 0.95829, 0.37685, 0.97839, 0.30756, 0.99274, 0.22808, 1, 0.15064, 1, 0.06708 ],
				"triangles": [ 1, 0, 30, 2, 1, 30, 29, 2, 30, 29, 3, 2, 28, 3, 29, 28, 4, 3, 27, 4, 28, 26, 4, 27, 26, 5, 4, 25, 5, 26, 25, 6, 5, 24, 6, 25, 23, 6, 24, 7, 6, 23, 22, 7, 23, 8, 7, 22, 21, 8, 22, 21, 20, 8, 20, 9, 8, 10, 9, 20, 19, 10, 20, 18, 11, 10, 19, 18, 10, 17, 12, 11, 18, 17, 11, 16, 13, 12, 16, 15, 14, 17, 16, 12, 16, 14, 13 ],
				"vertices": [ 1, 36, -94.31, -31.56, 1, 1, 36, -83.34, -50.57, 1, 1, 36, -41.93, -57.26, 1, 2, 37, -89.02, -57.06, 0.00727, 36, -8.43, -60.28, 0.99273, 3, 38, -140.53, -72.41, 0.00555, 37, -51.46, -62.23, 0.11586, 36, 29.25, -64.43, 0.87859, 3, 38, -93.88, -73.7, 0.08323, 37, -5.21, -68.48, 0.53754, 36, 75.66, -69.42, 0.37923, 4, 39, -135.55, -73.84, 0.00119, 38, -48.37, -73.31, 0.36961, 37, 40.08, -72.93, 0.59142, 36, 121.05, -72.64, 0.03778, 3, 39, -95.26, -69.04, 0.03473, 38, -8.02, -69.04, 0.76698, 37, 80.66, -72.98, 0.19829, 3, 39, -50.35, -67.22, 0.24816, 38, 36.91, -67.82, 0.7499, 37, 125.46, -76.54, 0.00195, 2, 39, 2.83, -68.27, 0.83166, 38, 90.07, -69.58, 0.16834, 2, 40, -32.38, -68.94, 0.0452, 39, 51.89, -63.51, 0.9548, 3, 41, -58.08, -75.03, 0.01849, 40, 16.34, -58.58, 0.52528, 39, 101.54, -59.57, 0.45623, 3, 41, -12.04, -54.07, 0.33551, 40, 66.38, -51.16, 0.62659, 39, 152.13, -58.72, 0.0379, 2, 41, 28.75, -35.87, 0.95583, 40, 110.61, -44.95, 0.04417, 1, 41, 74.46, -23.04, 1, 1, 41, 84.36, -6.68, 1, 1, 41, 35.67, 22.79, 1, 2, 41, -9.44, 28.93, 0.35892, 40, 91.81, 27.89, 0.64108, 2, 40, 44.8, 42.7, 0.99935, 38, 231.56, 33.98, 6.5E-4, 3, 40, 1.88, 51.59, 0.74333, 39, 101.54, 51.54, 0.20231, 38, 190.36, 48.92, 0.05436, 4, 40, -44.84, 55.57, 0.13835, 39, 55.74, 61.57, 0.46244, 38, 144.7, 59.55, 0.3954, 37, 246.19, 38.63, 0.00381, 4, 40, -93.85, 56.04, 0.00212, 39, 7.2, 68.41, 0.05613, 38, 96.25, 67.04, 0.86323, 37, 198.82, 51.23, 0.07852, 2, 38, 52.95, 70.64, 0.64575, 37, 156.15, 59.42, 0.35425, 2, 38, 10.18, 77.07, 0.1892, 37, 114.3, 70.37, 0.8108, 3, 38, -32.64, 67.4, 0.00214, 37, 70.69, 65.3, 0.98774, 36, 147.9, 66.38, 0.01011, 2, 37, 37.17, 58.74, 0.89718, 36, 114.57, 58.91, 0.10282, 2, 37, -1.33, 50.65, 0.47449, 36, 76.31, 49.77, 0.52551, 2, 37, -35.19, 40.43, 0.04758, 36, 42.73, 38.64, 0.95242, 1, 36, 5.76, 23.19, 1, 1, 36, -29.07, 6.08, 1, 1, 36, -65.25, -14.8, 1 ],
				"hull": 31,
				"edges": [ 0, 2, 2, 4, 4, 6, 6, 8, 8, 10, 10, 12, 12, 14, 14, 16, 16, 18, 18, 20, 20, 22, 22, 24, 24, 26, 26, 28, 28, 30, 30, 32, 32, 34, 34, 36, 36, 38, 38, 40, 40, 42, 42, 44, 44, 46, 46, 48, 48, 50, 50, 52, 52, 54, 54, 56, 56, 58, 58, 60, 0, 60 ],
				"width": 355,
				"height": 500
			}
		},
		"bbody": {
			"bbody": {
				"type": "mesh",
				"uvs": [ 0.67761, 0.02321, 0.60516, 0.02321, 0.55367, 0.01348, 0.49075, 0.00496, 0.41448, 0.00861, 0.37826, 0.02443, 0.30961, 0.03781, 0.23525, 0.05363, 0.22, 0.11203, 0.22953, 0.17408, 0.25813, 0.22639, 0.27529, 0.28114, 0.27911, 0.32981, 0.24097, 0.36631, 0.16852, 0.41133, 0.09606, 0.45513, 0.03886, 0.50501, 0.01407, 0.56341, 0, 0.63641, 0.0217, 0.69968, 0.08911, 0.7466, 0.15966, 0.77215, 0.24737, 0.7977, 0.33317, 0.83055, 0.41325, 0.86219, 0.49715, 0.88774, 0.60964, 0.91329, 0.52194, 1, 0.90709, 1, 0.94523, 0.97534, 0.95285, 0.91329, 0.92807, 0.86097, 0.87086, 0.80744, 0.81557, 0.76364, 0.75455, 0.72835, 0.74121, 0.6809, 0.72214, 0.62737, 0.69163, 0.56897, 0.64587, 0.52517, 0.58867, 0.48502, 0.58295, 0.45704, 0.60011, 0.42054, 0.6249, 0.39134, 0.66494, 0.35727, 0.69735, 0.33537, 0.7393, 0.37065, 0.78888, 0.40472, 0.84798, 0.43635, 0.91472, 0.44974, 0.94523, 0.43149, 0.97001, 0.39864, 0.9794, 0.35953, 0.98552, 0.31853, 0.98858, 0.26387, 0.98858, 0.21701, 0.98858, 0.17503, 1, 0.1477, 1, 0.11744, 1, 0.07937, 1, 0.02665, 1, 0, 0.95951, 0, 0.91362, 0.0286, 0.91209, 0.06277, 0.89832, 0.11158, 0.91668, 0.15063, 0.91362, 0.17308, 0.89832, 0.21506, 0.88455, 0.25606, 0.86313, 0.29803, 0.83254, 0.26289, 0.82336, 0.21896, 0.79123, 0.18968, 0.75298, 0.13794, 0.71627, 0.08718, 0.70403, 0.0491, 0.30226, 0.30374, 0.35602, 0.32742, 0.41361, 0.33477, 0.4776, 0.33477, 0.53008, 0.32579, 0.56207, 0.3119, 0.57743, 0.33395, 0.61327, 0.34212, 0.66062, 0.34049, 0.58895, 0.28904, 0.59407, 0.26209, 0.59151, 0.22942, 0.57487, 0.20574, 0.53776, 0.17552, 0.79609, 0.23734, 0.74806, 0.2191, 0.69773, 0.19574, 0.67257, 0.20961, 0.65313, 0.18261, 0.6131, 0.18699, 0.52962, 0.14612, 0.37294, 0.10963 ],
				"triangles": [ 61, 60, 59, 62, 61, 59, 59, 63, 62, 58, 63, 59, 63, 58, 57, 64, 63, 57, 65, 64, 57, 56, 65, 57, 55, 65, 56, 66, 65, 55, 66, 55, 54, 67, 66, 54, 67, 54, 53, 68, 67, 53, 52, 68, 53, 69, 68, 52, 51, 69, 52, 50, 69, 51, 50, 49, 69, 49, 47, 69, 48, 47, 49, 90, 72, 71, 90, 71, 70, 90, 45, 44, 90, 44, 91, 45, 90, 70, 45, 70, 69, 46, 45, 69, 69, 47, 46, 1, 74, 94, 75, 1, 0, 74, 1, 75, 92, 94, 74, 1, 94, 95, 73, 92, 74, 91, 92, 73, 93, 94, 92, 72, 91, 73, 91, 72, 90, 95, 94, 93, 91, 44, 93, 91, 93, 92, 84, 86, 93, 84, 93, 44, 43, 84, 44, 43, 83, 84, 10, 9, 97, 76, 11, 10, 97, 76, 10, 77, 76, 97, 12, 11, 76, 12, 76, 77, 97, 6, 5, 96, 3, 2, 96, 2, 1, 97, 4, 3, 97, 5, 4, 3, 96, 97, 97, 9, 8, 96, 95, 89, 1, 95, 96, 88, 89, 95, 97, 8, 6, 6, 8, 7, 87, 88, 95, 93, 86, 87, 88, 86, 81, 86, 88, 87, 93, 87, 95, 88, 80, 89, 85, 81, 86, 96, 89, 97, 81, 80, 88, 89, 77, 97, 89, 78, 77, 82, 81, 85, 89, 79, 78, 80, 79, 89, 84, 85, 86, 85, 83, 82, 84, 83, 85, 43, 42, 83, 42, 82, 83, 82, 41, 80, 80, 81, 82, 41, 79, 80, 78, 79, 40, 42, 41, 82, 13, 12, 77, 78, 13, 77, 40, 22, 13, 14, 13, 22, 40, 79, 41, 13, 78, 40, 40, 39, 23, 38, 24, 39, 36, 38, 37, 17, 20, 18, 19, 18, 20, 15, 20, 17, 21, 15, 14, 20, 15, 21, 21, 14, 22, 40, 23, 22, 23, 39, 24, 24, 38, 25, 36, 25, 38, 25, 36, 35, 26, 25, 35, 34, 26, 35, 30, 28, 31, 28, 32, 31, 29, 28, 30, 26, 33, 32, 26, 34, 33, 32, 28, 26, 27, 26, 28, 15, 17, 16 ],
				"vertices": [ 2, 4, 287.81, -77.09, 0.21999, 22, -72.54, 24.79, 0.78001, 3, 4, 284.47, -38.4, 0.47689, 26, 204.62, -101.28, 0.00165, 22, -85.28, -11.89, 0.52146, 3, 4, 290.25, -10.2, 0.70526, 26, 210.4, -73.08, 0.01479, 22, -102.05, -35.28, 0.27996, 3, 4, 294.48, 24.01, 0.83865, 26, 214.63, -38.87, 0.05034, 22, -119.88, -64.79, 0.11102, 3, 4, 287.92, 64.48, 0.85454, 26, 208.07, 1.6, 0.12029, 22, -130.39, -104.42, 0.02517, 3, 4, 273.01, 82.68, 0.81307, 26, 193.16, 19.8, 0.17981, 22, -124.21, -127.12, 0.00712, 2, 4, 258.65, 118.37, 0.6969, 26, 178.8, 55.49, 0.3031, 2, 4, 241.99, 156.94, 0.61285, 26, 162.14, 94.06, 0.38715, 2, 4, 192.41, 160.88, 0.50772, 26, 112.56, 98, 0.49228, 2, 4, 140.92, 151.31, 0.30765, 26, 61.07, 88.43, 0.69235, 4, 2, -41.67, 298.26, 1.8E-4, 3, 230.51, 155.93, 0.00701, 4, 98.46, 132.26, 0.08982, 26, 18.61, 69.38, 0.90299, 3, 2, -32.47, 252.27, 0.0057, 3, 191.59, 129.75, 0.11492, 26, -26.42, 56.27, 0.87938, 4, 2, -30.43, 211.39, 0.03292, 3, 154.64, 112.14, 0.4109, 4, 12.87, 113.6, 0.01158, 26, -66.98, 50.72, 0.54459, 4, 2, -50.87, 180.73, 0.09725, 21, -177.22, 135.61, 0.0041, 3, 118.48, 119.21, 0.62703, 26, -99.28, 68.45, 0.27161, 4, 2, -89.7, 142.92, 0.23802, 21, -180.67, 81.51, 0.04666, 3, 68.64, 140.52, 0.61349, 26, -140.29, 103.89, 0.10183, 4, 2, -128.54, 106.13, 0.36145, 21, -184.8, 28.17, 0.15051, 3, 19.74, 162.22, 0.44738, 26, -180.28, 139.43, 0.04066, 4, 2, -159.2, 64.22, 0.407, 21, -179.44, -23.47, 0.29361, 3, -30.73, 174.4, 0.28234, 26, -224.66, 166.37, 0.01705, 4, 2, -172.48, 15.17, 0.37628, 21, -156.39, -68.77, 0.46912, 3, -81.12, 167.8, 0.14848, 26, -274.68, 175.4, 0.00612, 4, 2, -180.03, -46.15, 0.26757, 21, -120.86, -119.31, 0.69167, 3, -140.63, 151.18, 0.04007, 26, -336.42, 177.65, 7.0E-4, 3, 2, -168.4, -99.3, 0.17013, 21, -76.59, -150.93, 0.82446, 3, -185.21, 120, 0.00541, 2, 2, -132.26, -138.71, 0.08448, 21, -23.35, -155.93, 0.91552, 2, 2, -94.45, -160.17, 0.03099, 21, 19.09, -146.49, 0.96901, 2, 2, -47.44, -181.64, 0.00135, 21, 68.36, -130.88, 0.99865, 1, 21, 120.98, -120.5, 1, 1, 21, 170.64, -111.42, 1, 1, 21, 218.39, -97.18, 1, 1, 21, 277.5, -72.66, 1, 1, 21, 291.49, -158.22, 1, 1, 21, 444.61, -19.76, 1, 1, 21, 445.88, 9.32, 1, 1, 21, 413.96, 50.72, 1, 1, 21, 374.63, 74.41, 1, 2, 21, 321.72, 87.2, 0.99954, 3, -93.71, -334.96, 4.6E-4, 2, 21, 275.07, 94.61, 0.99045, 3, -71.14, -293.45, 0.00955, 2, 21, 230.93, 94.66, 0.9482, 3, -56.36, -251.86, 0.0518, 2, 21, 198.89, 119.43, 0.84806, 3, -22.32, -229.93, 0.15194, 2, 21, 161.15, 145.93, 0.69193, 3, 15.25, -203.2, 0.30807, 2, 21, 116.12, 171.35, 0.48582, 3, 54.25, -169.23, 0.51418, 3, 21, 73.25, 182.18, 0.30797, 3, 78.78, -132.44, 0.69184, 27, -219.74, 6.45, 2.0E-4, 4, 21, 27.89, 186.64, 0.11864, 3, 98.12, -91.17, 0.87248, 4, -102.77, -62.91, 0.002, 27, -188.77, 39.89, 0.00688, 5, 21, 9.85, 202.02, 0.04532, 3, 118.63, -79.3, 0.90386, 4, -79.61, -57.84, 0.02465, 27, -165.62, 44.96, 0.0254, 23, 74.26, -161.66, 7.7E-4, 5, 21, -3.89, 230.93, 0.00788, 3, 150.47, -76, 0.74434, 4, -48.28, -64.37, 0.14781, 27, -134.28, 38.43, 0.09022, 23, 53.81, -137.03, 0.00975, 5, 21, -10.49, 258.03, 7.4E-4, 3, 178.22, -78.83, 0.4525, 4, -22.7, -75.5, 0.31251, 27, -108.7, 27.3, 0.19641, 23, 40.73, -112.39, 0.03784, 4, 3, 212.89, -87.63, 0.15078, 4, 7.66, -94.42, 0.33062, 27, -78.35, 8.38, 0.37063, 23, 28.77, -78.68, 0.14798, 4, 3, 236.56, -96.59, 0.03624, 4, 27.48, -110.15, 0.13877, 27, -58.53, -7.35, 0.36529, 23, 23.07, -54.03, 0.4597, 4, 3, 217.85, -128.75, 0.00461, 4, -0.12, -135.1, 0.01952, 27, -86.12, -32.3, 0.09128, 23, 60.2, -51.7, 0.88459, 3, 4, -26.35, -164.03, 3.2E-4, 27, -112.35, -61.23, 0.01118, 23, 98.73, -45.41, 0.9885, 2, 23, 138.4, -33.72, 0.85068, 24, -26.74, 21.28, 0.14932, 2, 23, 167.56, -10.15, 0.31886, 24, -32.53, -15.76, 0.68114, 2, 23, 163.84, 11.95, 0.13095, 24, -14.94, -29.65, 0.86905, 1, 24, 14.33, -38.68, 1, 1, 24, 47.56, -38.77, 1, 1, 24, 82.1, -36.88, 1, 1, 24, 127.76, -31.67, 1, 1, 24, 166.68, -25.81, 1, 2, 24, 201.54, -20.56, 0.81531, 25, -12.65, -20.36, 0.18469, 2, 24, 225.16, -23.2, 0.16024, 25, 10.92, -23.37, 0.83976, 1, 25, 36.12, -19.99, 1, 1, 25, 67.81, -15.74, 1, 1, 25, 111.7, -9.85, 1, 1, 25, 133.89, -6.87, 1, 1, 25, 131, 14.64, 1, 1, 25, 103.91, 35.82, 1, 1, 25, 75.36, 32.82, 1, 1, 25, 33.74, 34.68, 1, 2, 24, 216.08, 20.6, 0.37319, 25, 2.54, 20.56, 0.62681, 2, 24, 197.18, 19.42, 0.93762, 25, -16.37, 19.68, 0.06238, 1, 24, 161.1, 22.28, 1, 2, 23, 23.1, 66.41, 0.01655, 24, 125.94, 24.45, 0.98345, 3, 22, 178.15, 43.01, 0.00298, 23, 46.12, 37.34, 0.47501, 24, 89.37, 30.55, 0.52201, 3, 22, 144.89, 37.2, 0.0855, 23, 12.45, 40.01, 0.85169, 24, 116.12, 51.16, 0.06281, 4, 27, 44.69, -66.24, 0.02582, 22, 108.42, 44.66, 0.36965, 23, -21, 56.34, 0.6027, 24, 151.87, 61.52, 0.00183, 3, 27, 67.72, -46.97, 0.02292, 22, 79.53, 36.46, 0.69318, 23, -51.02, 55.61, 0.2839, 2, 22, 31.75, 31.35, 0.99329, 23, -98.57, 62.58, 0.00671, 2, 4, 236.06, -102.35, 0.02663, 22, -14.99, 26.74, 0.97337, 2, 4, 267.36, -93.07, 0.13914, 22, -47.35, 31.04, 0.86086, 4, 2, -18.01, 233.29, 0.01268, 3, 179.63, 109.1, 0.22409, 4, 35.76, 103.11, 0.0091, 26, -44.09, 40.23, 0.75413, 4, 2, 10.8, 213.4, 0.01377, 3, 172.35, 74.86, 0.33725, 4, 18.41, 72.7, 0.11931, 26, -61.44, 9.82, 0.52967, 4, 2, 41.67, 207.23, 0.00497, 3, 178.53, 43.99, 0.32187, 4, 14.91, 41.41, 0.38216, 26, -64.94, -21.47, 0.291, 4, 2, 75.97, 207.23, 2.0E-4, 3, 191.72, 12.33, 0.0245, 4, 17.86, 7.24, 0.94865, 26, -61.99, -55.64, 0.02665, 3, 4, 27.79, -20.13, 0.90288, 27, -58.21, 82.67, 0.09201, 23, -33.25, -124.26, 0.00511, 4, 3, 226.86, -22.08, 0.01629, 4, 40.89, -36.22, 0.74952, 27, -45.12, 66.58, 0.22245, 23, -33.48, -103.52, 0.01174, 4, 3, 212.93, -36.8, 0.10992, 4, 23.14, -46.01, 0.62112, 27, -62.86, 56.79, 0.23964, 23, -13.49, -106.91, 0.02932, 4, 3, 213.99, -57.17, 0.15097, 4, 17.95, -65.74, 0.4533, 27, -68.05, 37.07, 0.3255, 23, 2.85, -94.71, 0.07022, 4, 3, 225.02, -80.07, 0.09953, 4, 21.5, -90.91, 0.30133, 27, -64.5, 11.9, 0.40907, 23, 15.75, -72.81, 0.19008, 5, 3, 250.13, -27.99, 0.0057, 4, 61.26, -48.92, 0.59519, 27, -24.75, 53.88, 0.38847, 22, 122.81, -93.34, 0.00255, 23, -41.5, -80.89, 0.0081, 3, 4, 84.05, -49.71, 0.54781, 27, -1.95, 53.09, 0.41987, 22, 102.33, -83.33, 0.03232, 3, 4, 111.27, -45.99, 0.57299, 27, 25.27, 56.82, 0.30876, 22, 75.95, -75.62, 0.11825, 3, 4, 130.32, -35.39, 0.6901, 27, 44.32, 67.41, 0.15605, 22, 54.24, -77.52, 0.15385, 3, 4, 153.9, -13.39, 0.91743, 27, 67.9, 89.41, 0.02113, 22, 23.73, -87.99, 0.06144, 4, 27, 28.06, -53.01, 0.04299, 22, 118.21, 25.79, 0.26724, 23, -16.23, 35.62, 0.68474, 24, 134.43, 73.67, 0.00503, 4, 4, 127.12, -128.84, 0.00225, 27, 41.11, -26.04, 0.18005, 22, 95.28, 6.49, 0.49348, 23, -43.24, 22.65, 0.32422, 4, 4, 144.34, -100.28, 0.05208, 27, 58.34, 2.52, 0.15894, 22, 67.91, -12.56, 0.76034, 23, -74.51, 11.04, 0.02864, 4, 4, 131.58, -87.85, 0.13985, 27, 45.58, 14.95, 0.34513, 22, 74.49, -29.12, 0.50229, 23, -72.27, -6.64, 0.01273, 3, 4, 153.28, -75.52, 0.21761, 27, 67.28, 27.29, 0.14531, 22, 49.64, -31.52, 0.63708, 3, 4, 147.78, -54.46, 0.45356, 27, 61.77, 48.35, 0.16082, 22, 46.08, -53, 0.38562, 3, 4, 178.13, -6.93, 0.96191, 27, 92.13, 95.88, 0.00293, 22, -1.03, -84.01, 0.03516, 2, 4, 201.46, 79.38, 0.6971, 26, 121.61, 16.5, 0.3029 ],
				"hull": 76,
				"edges": [ 0, 2, 2, 4, 4, 6, 6, 8, 8, 10, 10, 12, 12, 14, 14, 16, 16, 18, 18, 20, 20, 22, 22, 24, 24, 26, 26, 28, 28, 30, 30, 32, 32, 34, 34, 36, 36, 38, 38, 40, 40, 42, 42, 44, 44, 46, 46, 48, 48, 50, 50, 52, 52, 54, 54, 56, 56, 58, 58, 60, 60, 62, 62, 64, 64, 66, 66, 68, 68, 70, 70, 72, 72, 74, 74, 76, 76, 78, 78, 80, 80, 82, 82, 84, 84, 86, 86, 88, 88, 90, 90, 92, 92, 94, 94, 96, 96, 98, 98, 100, 100, 102, 102, 104, 104, 106, 106, 108, 108, 110, 110, 112, 112, 114, 114, 116, 116, 118, 118, 120, 120, 122, 122, 124, 124, 126, 126, 128, 128, 130, 130, 132, 132, 134, 134, 136, 136, 138, 138, 140, 140, 142, 142, 144, 144, 146, 146, 148, 148, 150, 0, 150, 22, 152, 152, 154, 154, 156, 156, 158, 158, 160, 160, 162, 162, 164, 164, 166, 166, 168, 168, 88, 162, 170, 170, 172, 172, 174, 174, 176, 176, 178, 140, 180, 180, 182, 182, 184, 184, 186, 186, 188, 188, 190, 190, 192, 192, 194, 194, 10 ],
				"width": 536,
				"height": 840
			}
		},
		"kinh": {
			"kinh": { "x": -9.76, "y": -21.03, "rotation": -109.14, "width": 131, "height": 65 }
		},
		"tay": {
			"tay": {
				"type": "mesh",
				"uvs": [ 1, 0.07644, 0.95107, 0.02043, 0.84276, 0, 0.72567, 0, 0.58515, 0.0403, 0.50319, 0.12523, 0.45098, 0.23188, 0.34267, 0.33307, 0.2285, 0.4198, 0.13775, 0.53002, 0.06457, 0.69625, 0, 0.76853, 0, 0.8643, 0.02944, 0.93657, 0.14946, 0.96548, 0.28705, 0.94922, 0.36023, 0.85888, 0.4744, 0.79021, 0.64126, 0.65108, 0.74957, 0.54809, 0.82861, 0.45594, 0.934, 0.3674, 1, 0.25462, 1, 0.14621 ],
				"triangles": [ 1, 0, 23, 23, 2, 1, 23, 21, 2, 22, 21, 23, 21, 20, 3, 21, 3, 2, 4, 3, 20, 5, 4, 20, 6, 5, 20, 19, 6, 20, 19, 7, 6, 18, 7, 19, 18, 8, 7, 17, 8, 18, 9, 8, 17, 16, 10, 9, 17, 16, 9, 12, 11, 10, 12, 14, 13, 14, 12, 10, 16, 15, 10, 10, 15, 14 ],
				"vertices": [ -20.21, 16.4, -30.13, 0.84, -25.87, -18.98, -15.67, -37.28, 6.78, -53.57, 35.44, -54.4, 67.01, -47.5, 102.08, -50.16, 134, -55.77, 169.82, -54.4, 218.31, -42.38, 242.25, -42.27, 266.51, -28.75, 282.25, -13.95, 279.12, 8.9, 263.01, 28.12, 233.75, 26.81, 206.41, 34.97, 156.62, 41.42, 121.09, 43.82, 90.86, 43.17, 59.25, 47.15, 24.93, 41.55, -2.53, 26.25 ],
				"hull": 24,
				"edges": [ 0, 2, 2, 4, 4, 6, 6, 8, 8, 10, 10, 12, 12, 14, 14, 16, 16, 18, 18, 20, 20, 22, 22, 24, 24, 26, 26, 28, 28, 30, 30, 32, 32, 34, 34, 36, 36, 38, 38, 40, 40, 42, 42, 44, 44, 46, 0, 46 ],
				"width": 179,
				"height": 290
			}
		},
		"vai": {
			"vai": { "x": 97.39, "y": 6.49, "rotation": -125.46, "width": 167, "height": 283 }
		}
	}
},
"animations": {
	"animation": {
		"slots": {
			"Layer 1": {
				"attachment": [
					{ "time": 0, "name": "Layer 1" }
				]
			},
			"Layer 2": {
				"attachment": [
					{ "time": 0, "name": "Layer 2" }
				]
			},
			"Layer 3": {
				"attachment": [
					{ "time": 0, "name": "Layer 3" }
				]
			},
			"Layer 4": {
				"attachment": [
					{ "time": 0, "name": "Layer 4" }
				]
			},
			"Layer 6": {
				"attachment": [
					{ "time": 0, "name": "Layer 6" }
				]
			},
			"ao": {
				"attachment": [
					{ "time": 0, "name": "ao" }
				]
			},
			"ao sau": {
				"attachment": [
					{ "time": 0, "name": "ao sau" }
				]
			},
			"bbody": {
				"attachment": [
					{ "time": 0, "name": "bbody" }
				]
			},
			"kinh": {
				"attachment": [
					{ "time": 0, "name": "kinh" }
				]
			},
			"vai": {
				"attachment": [
					{ "time": 0, "name": "vai" }
				]
			}
		},
		"bones": {
			"root": {
				"rotate": [
					{ "time": 0, "angle": 0, "curve": "stepped" },
					{ "time": 2, "angle": 0 }
				],
				"translate": [
					{ "time": 0, "x": 0, "y": 0, "curve": "stepped" },
					{ "time": 2, "x": 0, "y": 0 }
				],
				"scale": [
					{ "time": 0, "x": 1, "y": 1, "curve": "stepped" },
					{ "time": 2, "x": 1, "y": 1 }
				]
			},
			"bone": {
				"rotate": [
					{ "time": 0, "angle": 0, "curve": "stepped" },
					{ "time": 2, "angle": 0 }
				],
				"translate": [
					{ "time": 0, "x": 0, "y": 0, "curve": "stepped" },
					{ "time": 2, "x": 0, "y": 0 }
				],
				"scale": [
					{ "time": 0, "x": 1, "y": 1, "curve": "stepped" },
					{ "time": 2, "x": 1, "y": 1 }
				]
			},
			"bbody": {
				"rotate": [
					{ "time": 0, "angle": 0, "curve": "stepped" },
					{ "time": 2, "angle": 0 }
				],
				"translate": [
					{ "time": 0, "x": 0, "y": 0, "curve": "stepped" },
					{ "time": 2, "x": 0, "y": 0 }
				],
				"scale": [
					{ "time": 0, "x": 1, "y": 1, "curve": "stepped" },
					{ "time": 2, "x": 1, "y": 1 }
				]
			},
			"bbody2": {
				"rotate": [
					{
						"time": 0,
						"angle": 0,
						"curve": [ 0.25, 0, 0.75, 1 ]
					},
					{
						"time": 1,
						"angle": -9.15,
						"curve": [ 0.25, 0, 0.75, 1 ]
					},
					{ "time": 2, "angle": 0 }
				],
				"translate": [
					{ "time": 0, "x": 0, "y": 0, "curve": "stepped" },
					{ "time": 2, "x": 0, "y": 0 }
				],
				"scale": [
					{ "time": 0, "x": 1, "y": 1, "curve": "stepped" },
					{ "time": 2, "x": 1, "y": 1 }
				]
			},
			"bbody3": {
				"rotate": [
					{
						"time": 0,
						"angle": 0.17,
						"curve": [ 0.352, 0.65, 0.687, 1 ]
					},
					{
						"time": 0.0667,
						"angle": 0,
						"curve": [ 0.25, 0, 0.75, 1 ]
					},
					{
						"time": 1.0667,
						"angle": 8.18,
						"curve": [ 0.245, 0, 0.711, 0.83 ]
					},
					{
						"time": 1.9667,
						"angle": 0.35,
						"curve": [ 0.341, 0.39, 0.675, 0.73 ]
					},
					{ "time": 2, "angle": 0.17 }
				],
				"translate": [
					{ "time": 0, "x": 0, "y": 0, "curve": "stepped" },
					{ "time": 0.0667, "x": 0, "y": 0, "curve": "stepped" },
					{ "time": 1.9667, "x": 0, "y": 0, "curve": "stepped" },
					{ "time": 2, "x": 0, "y": 0 }
				],
				"scale": [
					{ "time": 0, "x": 1, "y": 1, "curve": "stepped" },
					{ "time": 0.0667, "x": 1, "y": 1, "curve": "stepped" },
					{ "time": 1.9667, "x": 1, "y": 1, "curve": "stepped" },
					{ "time": 2, "x": 1, "y": 1 }
				]
			},
			"Layer 3": {
				"rotate": [
					{
						"time": 0,
						"angle": -0.33,
						"curve": [ 0.351, 0.42, 0.686, 0.76 ]
					},
					{
						"time": 0.1,
						"angle": -0.11,
						"curve": [ 0.36, 0.64, 0.695, 1 ]
					},
					{
						"time": 0.2,
						"angle": 0,
						"curve": [ 0.25, 0, 0.75, 1 ]
					},
					{
						"time": 1.2,
						"angle": -2.58,
						"curve": [ 0.243, 0, 0.68, 0.71 ]
					},
					{ "time": 2, "angle": -0.33 }
				],
				"translate": [
					{ "time": 0, "x": 0, "y": 0, "curve": "stepped" },
					{ "time": 0.1, "x": 0, "y": 0, "curve": "stepped" },
					{ "time": 0.2, "x": 0, "y": 0, "curve": "stepped" },
					{ "time": 2, "x": 0, "y": 0 }
				],
				"scale": [
					{ "time": 0, "x": 1, "y": 1, "curve": "stepped" },
					{ "time": 0.1, "x": 1, "y": 1, "curve": "stepped" },
					{ "time": 0.2, "x": 1, "y": 1, "curve": "stepped" },
					{ "time": 2, "x": 1, "y": 1 }
				]
			},
			"Layer 2": {
				"rotate": [
					{
						"time": 0,
						"angle": -0.61,
						"curve": [ 0.345, 0.38, 0.68, 0.71 ]
					},
					{
						"time": 0.1,
						"angle": -0.33,
						"curve": [ 0.351, 0.42, 0.686, 0.76 ]
					},
					{
						"time": 0.2,
						"angle": -0.11,
						"curve": [ 0.36, 0.64, 0.695, 1 ]
					},
					{
						"time": 0.3,
						"angle": 0,
						"curve": [ 0.25, 0, 0.75, 1 ]
					},
					{
						"time": 1.3,
						"angle": -2.58,
						"curve": [ 0.243, 0, 0.655, 0.62 ]
					},
					{ "time": 2, "angle": -0.61 }
				],
				"translate": [
					{ "time": 0, "x": 0, "y": 0, "curve": "stepped" },
					{ "time": 0.1, "x": 0, "y": 0, "curve": "stepped" },
					{ "time": 0.2, "x": 0, "y": 0, "curve": "stepped" },
					{ "time": 0.3, "x": 0, "y": 0, "curve": "stepped" },
					{ "time": 2, "x": 0, "y": 0 }
				],
				"scale": [
					{ "time": 0, "x": 1, "y": 1, "curve": "stepped" },
					{ "time": 0.1, "x": 1, "y": 1, "curve": "stepped" },
					{ "time": 0.2, "x": 1, "y": 1, "curve": "stepped" },
					{ "time": 0.3, "x": 1, "y": 1, "curve": "stepped" },
					{ "time": 2, "x": 1, "y": 1 }
				]
			},
			"bbody4": {
				"rotate": [
					{ "time": 0, "angle": 0, "curve": "stepped" },
					{ "time": 2, "angle": 0 }
				],
				"translate": [
					{ "time": 0, "x": 0, "y": 0, "curve": "stepped" },
					{ "time": 2, "x": 0, "y": 0 }
				],
				"scale": [
					{ "time": 0, "x": 1, "y": 1, "curve": "stepped" },
					{ "time": 2, "x": 1, "y": 1 }
				]
			},
			"bbody5": {
				"rotate": [
					{ "time": 0, "angle": 0, "curve": "stepped" },
					{ "time": 2, "angle": 0 }
				],
				"translate": [
					{ "time": 0, "x": 0, "y": 0, "curve": "stepped" },
					{ "time": 2, "x": 0, "y": 0 }
				],
				"scale": [
					{ "time": 0, "x": 1, "y": 1, "curve": "stepped" },
					{ "time": 2, "x": 1, "y": 1 }
				]
			},
			"bbody6": {
				"rotate": [
					{
						"time": 0,
						"angle": 0,
						"curve": [ 0.25, 0, 0.75, 1 ]
					},
					{
						"time": 1,
						"angle": -4.94,
						"curve": [ 0.25, 0, 0.75, 1 ]
					},
					{ "time": 2, "angle": 0 }
				],
				"translate": [
					{ "time": 0, "x": 0, "y": 0, "curve": "stepped" },
					{ "time": 2, "x": 0, "y": 0 }
				],
				"scale": [
					{ "time": 0, "x": 1, "y": 1, "curve": "stepped" },
					{ "time": 2, "x": 1, "y": 1 }
				]
			},
			"bbody7": {
				"rotate": [
					{
						"time": 0,
						"angle": 0,
						"curve": [ 0.25, 0, 0.75, 1 ]
					},
					{
						"time": 1,
						"angle": 2.4,
						"curve": [ 0.25, 0, 0.75, 1 ]
					},
					{ "time": 2, "angle": 0 }
				],
				"translate": [
					{ "time": 0, "x": 0, "y": 0, "curve": "stepped" },
					{ "time": 2, "x": 0, "y": 0 }
				],
				"scale": [
					{ "time": 0, "x": 1, "y": 1, "curve": "stepped" },
					{ "time": 2, "x": 1, "y": 1 }
				]
			},
			"bbody8": {
				"rotate": [
					{
						"time": 0,
						"angle": 0,
						"curve": [ 0.25, 0, 0.75, 1 ]
					},
					{
						"time": 1,
						"angle": 2.4,
						"curve": [ 0.25, 0, 0.75, 1 ]
					},
					{ "time": 2, "angle": 0 }
				],
				"translate": [
					{ "time": 0, "x": 0, "y": 0, "curve": "stepped" },
					{ "time": 2, "x": 0, "y": 0 }
				],
				"scale": [
					{ "time": 0, "x": 1, "y": 1, "curve": "stepped" },
					{ "time": 2, "x": 1, "y": 1 }
				]
			},
			"vai": {
				"rotate": [
					{ "time": 0, "angle": 0, "curve": "stepped" },
					{ "time": 2, "angle": 0 }
				],
				"translate": [
					{ "time": 0, "x": 0, "y": 0, "curve": "stepped" },
					{ "time": 2, "x": 0, "y": 0 }
				],
				"scale": [
					{ "time": 0, "x": 1, "y": 1, "curve": "stepped" },
					{ "time": 2, "x": 1, "y": 1 }
				]
			},
			"bbody9": {
				"rotate": [
					{ "time": 0, "angle": 0, "curve": "stepped" },
					{ "time": 2, "angle": 0 }
				],
				"translate": [
					{
						"time": 0,
						"x": 0,
						"y": 0,
						"curve": [ 0.25, 0, 0.625, 0.5 ]
					},
					{
						"time": 1,
						"x": -19.1,
						"y": 0,
						"curve": [ 0.375, 0.5, 0.75, 1 ]
					},
					{ "time": 2, "x": 0, "y": 0 }
				],
				"scale": [
					{ "time": 0, "x": 1, "y": 1, "curve": "stepped" },
					{ "time": 2, "x": 1, "y": 1 }
				]
			},
			"bbody10": {
				"rotate": [
					{ "time": 0, "angle": 0, "curve": "stepped" },
					{ "time": 2, "angle": 0 }
				],
				"translate": [
					{
						"time": 0,
						"x": 0,
						"y": 0,
						"curve": [ 0.25, 0, 0.625, 0.5 ]
					},
					{
						"time": 1,
						"x": -14.45,
						"y": -6.73,
						"curve": [ 0.375, 0.5, 0.75, 1 ]
					},
					{ "time": 2, "x": 0, "y": 0 }
				],
				"scale": [
					{
						"time": 0,
						"x": 1,
						"y": 1,
						"curve": [ 0.25, 0, 0.75, 1 ]
					},
					{
						"time": 1,
						"x": 1.261,
						"y": 1.261,
						"curve": [ 0.25, 0, 0.75, 1 ]
					},
					{ "time": 2, "x": 1, "y": 1 }
				]
			},
			"tay": {
				"rotate": [
					{
						"time": 0,
						"angle": 0,
						"curve": [ 0.25, 0, 0.75, 1 ]
					},
					{
						"time": 1,
						"angle": -6.35,
						"curve": [ 0.25, 0, 0.75, 1 ]
					},
					{ "time": 2, "angle": 0 }
				],
				"translate": [
					{ "time": 0, "x": 0, "y": 0, "curve": "stepped" },
					{ "time": 2, "x": 0, "y": 0 }
				],
				"scale": [
					{ "time": 0, "x": 1, "y": 1, "curve": "stepped" },
					{ "time": 2, "x": 1, "y": 1 }
				]
			},
			"Layer 5": {
				"rotate": [
					{
						"time": 0,
						"angle": -0.49,
						"curve": [ 0.25, 0, 0.75, 1 ]
					},
					{
						"time": 1,
						"angle": 9.73,
						"curve": [ 0.25, 0, 0.75, 1 ]
					},
					{ "time": 2, "angle": -0.49 }
				],
				"translate": [
					{ "time": 0, "x": 0, "y": 0, "curve": "stepped" },
					{ "time": 2, "x": 0, "y": 0 }
				],
				"scale": [
					{ "time": 0, "x": 1, "y": 1, "curve": "stepped" },
					{ "time": 2, "x": 1, "y": 1 }
				]
			},
			"Layer 6": {
				"rotate": [
					{
						"time": 0,
						"angle": -3.33,
						"curve": [ 0.25, 0, 0.75, 1 ]
					},
					{
						"time": 1,
						"angle": -9.67,
						"curve": [ 0.25, 0, 0.75, 1 ]
					},
					{ "time": 2, "angle": -3.33 }
				],
				"translate": [
					{ "time": 0, "x": 0, "y": 0, "curve": "stepped" },
					{ "time": 2, "x": 0, "y": 0 }
				],
				"scale": [
					{ "time": 0, "x": 1, "y": 1, "curve": "stepped" },
					{ "time": 2, "x": 1, "y": 1 }
				]
			},
			"Layer 7": {
				"rotate": [
					{ "time": 0, "angle": 0, "curve": "stepped" },
					{ "time": 2, "angle": 0 }
				],
				"translate": [
					{ "time": 0, "x": 0, "y": 0, "curve": "stepped" },
					{ "time": 2, "x": 0, "y": 0 }
				],
				"scale": [
					{ "time": 0, "x": 1, "y": 1, "curve": "stepped" },
					{ "time": 2, "x": 1, "y": 1 }
				]
			},
			"Layer 1": {
				"rotate": [
					{ "time": 0, "angle": 0, "curve": "stepped" },
					{ "time": 2, "angle": 0 }
				],
				"translate": [
					{ "time": 0, "x": 0, "y": 0, "curve": "stepped" },
					{ "time": 2, "x": 0, "y": 0 }
				],
				"scale": [
					{ "time": 0, "x": 1, "y": 1, "curve": "stepped" },
					{ "time": 2, "x": 1, "y": 1 }
				]
			},
			"Layer 4": {
				"rotate": [
					{
						"time": 0,
						"angle": 0,
						"curve": [ 0.25, 0, 0.75, 1 ]
					},
					{
						"time": 1,
						"angle": -0.21,
						"curve": [ 0.25, 0, 0.75, 1 ]
					},
					{ "time": 2, "angle": 0 }
				],
				"translate": [
					{ "time": 0, "x": 0, "y": 0, "curve": "stepped" },
					{ "time": 2, "x": 0, "y": 0 }
				],
				"scale": [
					{ "time": 0, "x": 1, "y": 1, "curve": "stepped" },
					{ "time": 2, "x": 1, "y": 1 }
				]
			},
			"Layer 8": {
				"rotate": [
					{
						"time": 0,
						"angle": 0.57,
						"curve": [ 0.369, 0.63, 0.706, 1 ]
					},
					{ "time": 0.1667, "angle": 0 },
					{
						"time": 1.1667,
						"angle": 9.12,
						"curve": [ 0.244, 0, 0.694, 0.77 ]
					},
					{ "time": 2, "angle": 0.57 }
				],
				"translate": [
					{ "time": 0, "x": 0, "y": 0, "curve": "stepped" },
					{ "time": 0.1667, "x": 0, "y": 0, "curve": "stepped" },
					{ "time": 2, "x": 0, "y": 0 }
				],
				"scale": [
					{ "time": 0, "x": 1, "y": 1, "curve": "stepped" },
					{ "time": 0.1667, "x": 1, "y": 1, "curve": "stepped" },
					{ "time": 2, "x": 1, "y": 1 }
				]
			},
			"Layer 9": {
				"rotate": [
					{
						"time": 0,
						"angle": 0.11,
						"curve": [ 0.352, 0.41, 0.689, 0.75 ]
					},
					{
						"time": 0.1667,
						"angle": 0.04,
						"curve": [ 0.369, 0.63, 0.706, 1 ]
					},
					{ "time": 0.3, "angle": 0 },
					{
						"time": 1.3,
						"angle": 0.45,
						"curve": [ 0.243, 0, 0.655, 0.63 ]
					},
					{ "time": 2, "angle": 0.11 }
				],
				"translate": [
					{ "time": 0, "x": 0, "y": 0, "curve": "stepped" },
					{ "time": 0.1667, "x": 0, "y": 0, "curve": "stepped" },
					{ "time": 0.3, "x": 0, "y": 0, "curve": "stepped" },
					{ "time": 2, "x": 0, "y": 0 }
				],
				"scale": [
					{ "time": 0, "x": 1, "y": 1, "curve": "stepped" },
					{ "time": 0.1667, "x": 1, "y": 1, "curve": "stepped" },
					{ "time": 0.3, "x": 1, "y": 1, "curve": "stepped" },
					{ "time": 2, "x": 1, "y": 1 }
				]
			},
			"Layer 10": {
				"rotate": [
					{
						"time": 0,
						"angle": 5.94,
						"curve": [ 0.34, 0.35, 0.677, 0.7 ]
					},
					{
						"time": 0.1667,
						"angle": 3.31,
						"curve": [ 0.352, 0.41, 0.689, 0.75 ]
					},
					{
						"time": 0.3,
						"angle": 1.15,
						"curve": [ 0.369, 0.63, 0.706, 1 ]
					},
					{ "time": 0.4667, "angle": 0 },
					{
						"time": 1.4667,
						"angle": 13.85,
						"curve": [ 0.247, 0, 0.63, 0.53 ]
					},
					{ "time": 2, "angle": 5.94 }
				],
				"translate": [
					{ "time": 0, "x": 0, "y": 0, "curve": "stepped" },
					{ "time": 0.1667, "x": 0, "y": 0, "curve": "stepped" },
					{ "time": 0.3, "x": 0, "y": 0, "curve": "stepped" },
					{ "time": 0.4667, "x": 0, "y": 0, "curve": "stepped" },
					{ "time": 2, "x": 0, "y": 0 }
				],
				"scale": [
					{ "time": 0, "x": 1, "y": 1, "curve": "stepped" },
					{ "time": 0.1667, "x": 1, "y": 1, "curve": "stepped" },
					{ "time": 0.3, "x": 1, "y": 1, "curve": "stepped" },
					{ "time": 0.4667, "x": 1, "y": 1, "curve": "stepped" },
					{ "time": 2, "x": 1, "y": 1 }
				]
			},
			"Layer 11": {
				"rotate": [
					{
						"time": 0,
						"angle": 8.7,
						"curve": [ 0.33, 0.32, 0.667, 0.67 ]
					},
					{
						"time": 0.1667,
						"angle": 5.93,
						"curve": [ 0.34, 0.35, 0.677, 0.7 ]
					},
					{
						"time": 0.3,
						"angle": 3.3,
						"curve": [ 0.352, 0.41, 0.689, 0.75 ]
					},
					{
						"time": 0.4667,
						"angle": 1.15,
						"curve": [ 0.369, 0.63, 0.706, 1 ]
					},
					{ "time": 0.6, "angle": 0 },
					{
						"time": 1.6,
						"angle": 13.84,
						"curve": [ 0.258, 0, 0.619, 0.45 ]
					},
					{ "time": 2, "angle": 8.7 }
				],
				"translate": [
					{ "time": 0, "x": 0, "y": 0, "curve": "stepped" },
					{ "time": 0.1667, "x": 0, "y": 0, "curve": "stepped" },
					{ "time": 0.3, "x": 0, "y": 0, "curve": "stepped" },
					{ "time": 0.4667, "x": 0, "y": 0, "curve": "stepped" },
					{ "time": 0.6, "x": 0, "y": 0, "curve": "stepped" },
					{ "time": 2, "x": 0, "y": 0 }
				],
				"scale": [
					{ "time": 0, "x": 1, "y": 1, "curve": "stepped" },
					{ "time": 0.1667, "x": 1, "y": 1, "curve": "stepped" },
					{ "time": 0.3, "x": 1, "y": 1, "curve": "stepped" },
					{ "time": 0.4667, "x": 1, "y": 1, "curve": "stepped" },
					{ "time": 0.6, "x": 1, "y": 1, "curve": "stepped" },
					{ "time": 2, "x": 1, "y": 1 }
				]
			},
			"Layer 12": {
				"rotate": [
					{
						"time": 0,
						"angle": 11.29,
						"curve": [ 0.319, 0.29, 0.656, 0.63 ]
					},
					{
						"time": 0.1667,
						"angle": 8.7,
						"curve": [ 0.33, 0.32, 0.667, 0.67 ]
					},
					{
						"time": 0.3,
						"angle": 5.93,
						"curve": [ 0.34, 0.35, 0.677, 0.7 ]
					},
					{
						"time": 0.4667,
						"angle": 3.3,
						"curve": [ 0.352, 0.41, 0.689, 0.75 ]
					},
					{
						"time": 0.6,
						"angle": 1.15,
						"curve": [ 0.369, 0.63, 0.706, 1 ]
					},
					{
						"time": 0.7667,
						"angle": 0,
						"curve": [ 0.25, 0, 0.75, 1 ]
					},
					{
						"time": 1.7667,
						"angle": 13.84,
						"curve": [ 0.276, 0, 0.621, 0.4 ]
					},
					{ "time": 2, "angle": 11.29 }
				],
				"translate": [
					{ "time": 0, "x": 0, "y": 0, "curve": "stepped" },
					{ "time": 0.1667, "x": 0, "y": 0, "curve": "stepped" },
					{ "time": 0.3, "x": 0, "y": 0, "curve": "stepped" },
					{ "time": 0.4667, "x": 0, "y": 0, "curve": "stepped" },
					{ "time": 0.6, "x": 0, "y": 0, "curve": "stepped" },
					{ "time": 0.7667, "x": 0, "y": 0, "curve": "stepped" },
					{ "time": 2, "x": 0, "y": 0 }
				],
				"scale": [
					{ "time": 0, "x": 1, "y": 1, "curve": "stepped" },
					{ "time": 0.1667, "x": 1, "y": 1, "curve": "stepped" },
					{ "time": 0.3, "x": 1, "y": 1, "curve": "stepped" },
					{ "time": 0.4667, "x": 1, "y": 1, "curve": "stepped" },
					{ "time": 0.6, "x": 1, "y": 1, "curve": "stepped" },
					{ "time": 0.7667, "x": 1, "y": 1, "curve": "stepped" },
					{ "time": 2, "x": 1, "y": 1 }
				]
			},
			"Layer 13": {
				"rotate": [
					{
						"time": 0,
						"angle": 13.29,
						"curve": [ 0.306, 0.21, 0.643, 0.56 ]
					},
					{
						"time": 0.1667,
						"angle": 11.29,
						"curve": [ 0.319, 0.29, 0.656, 0.63 ]
					},
					{
						"time": 0.3,
						"angle": 8.7,
						"curve": [ 0.33, 0.32, 0.667, 0.67 ]
					},
					{
						"time": 0.4667,
						"angle": 5.93,
						"curve": [ 0.34, 0.35, 0.677, 0.7 ]
					},
					{
						"time": 0.6,
						"angle": 3.3,
						"curve": [ 0.352, 0.41, 0.689, 0.75 ]
					},
					{
						"time": 0.7667,
						"angle": 1.15,
						"curve": [ 0.369, 0.63, 0.706, 1 ]
					},
					{
						"time": 0.9,
						"angle": 0,
						"curve": [ 0.25, 0, 0.75, 1 ]
					},
					{
						"time": 1.9,
						"angle": 13.84,
						"curve": [ 0.305, 0, 0.64, 0.36 ]
					},
					{ "time": 2, "angle": 13.29 }
				],
				"translate": [
					{ "time": 0, "x": 0, "y": 0, "curve": "stepped" },
					{ "time": 0.1667, "x": 0, "y": 0, "curve": "stepped" },
					{ "time": 0.3, "x": 0, "y": 0, "curve": "stepped" },
					{ "time": 0.4667, "x": 0, "y": 0, "curve": "stepped" },
					{ "time": 0.6, "x": 0, "y": 0, "curve": "stepped" },
					{ "time": 0.7667, "x": 0, "y": 0, "curve": "stepped" },
					{ "time": 0.9, "x": 0, "y": 0, "curve": "stepped" },
					{ "time": 2, "x": 0, "y": 0 }
				],
				"scale": [
					{ "time": 0, "x": 1, "y": 1, "curve": "stepped" },
					{ "time": 0.1667, "x": 1, "y": 1, "curve": "stepped" },
					{ "time": 0.3, "x": 1, "y": 1, "curve": "stepped" },
					{ "time": 0.4667, "x": 1, "y": 1, "curve": "stepped" },
					{ "time": 0.6, "x": 1, "y": 1, "curve": "stepped" },
					{ "time": 0.7667, "x": 1, "y": 1, "curve": "stepped" },
					{ "time": 0.9, "x": 1, "y": 1, "curve": "stepped" },
					{ "time": 2, "x": 1, "y": 1 }
				]
			},
			"Layer 14": {
				"rotate": [
					{ "time": 0, "angle": 13.15 },
					{
						"time": 0.0667,
						"angle": 13.84,
						"curve": [ 0.305, 0, 0.64, 0.36 ]
					},
					{
						"time": 0.1667,
						"angle": 13.29,
						"curve": [ 0.306, 0.21, 0.643, 0.56 ]
					},
					{
						"time": 0.3,
						"angle": 11.29,
						"curve": [ 0.319, 0.29, 0.656, 0.63 ]
					},
					{
						"time": 0.4667,
						"angle": 8.7,
						"curve": [ 0.33, 0.32, 0.667, 0.67 ]
					},
					{
						"time": 0.6,
						"angle": 5.93,
						"curve": [ 0.34, 0.35, 0.677, 0.7 ]
					},
					{ "time": 0.7667, "angle": 3.3 },
					{
						"time": 0.9,
						"angle": 1.15,
						"curve": [ 0.369, 0.63, 0.706, 1 ]
					},
					{ "time": 1.0667, "angle": 0 },
					{ "time": 2, "angle": 13.15 }
				],
				"translate": [
					{ "time": 0, "x": 0, "y": 0, "curve": "stepped" },
					{ "time": 0.1667, "x": 0, "y": 0, "curve": "stepped" },
					{ "time": 0.3, "x": 0, "y": 0, "curve": "stepped" },
					{ "time": 0.4667, "x": 0, "y": 0, "curve": "stepped" },
					{ "time": 0.6, "x": 0, "y": 0, "curve": "stepped" },
					{ "time": 0.7667, "x": 0, "y": 0, "curve": "stepped" },
					{ "time": 0.9, "x": 0, "y": 0, "curve": "stepped" },
					{ "time": 1.0667, "x": 0, "y": 0, "curve": "stepped" },
					{ "time": 2, "x": 0, "y": 0 }
				],
				"scale": [
					{ "time": 0, "x": 1, "y": 1, "curve": "stepped" },
					{ "time": 0.1667, "x": 1, "y": 1, "curve": "stepped" },
					{ "time": 0.3, "x": 1, "y": 1, "curve": "stepped" },
					{ "time": 0.4667, "x": 1, "y": 1, "curve": "stepped" },
					{ "time": 0.6, "x": 1, "y": 1, "curve": "stepped" },
					{ "time": 0.7667, "x": 1, "y": 1, "curve": "stepped" },
					{ "time": 0.9, "x": 1, "y": 1, "curve": "stepped" },
					{ "time": 1.0667, "x": 1, "y": 1, "curve": "stepped" },
					{ "time": 2, "x": 1, "y": 1 }
				]
			},
			"bbody11": {
				"rotate": [
					{ "time": 0, "angle": 0, "curve": "stepped" },
					{ "time": 2, "angle": 0 }
				],
				"translate": [
					{ "time": 0, "x": 0, "y": 0, "curve": "stepped" },
					{ "time": 2, "x": 0, "y": 0 }
				],
				"scale": [
					{ "time": 0, "x": 1, "y": 1, "curve": "stepped" },
					{ "time": 2, "x": 1, "y": 1 }
				]
			},
			"bbody12": {
				"rotate": [
					{
						"time": 0,
						"angle": 0,
						"curve": [ 0.25, 0, 0.75, 1 ]
					},
					{
						"time": 1,
						"angle": -8.27,
						"curve": [ 0.25, 0, 0.75, 1 ]
					},
					{ "time": 2, "angle": 0 }
				],
				"translate": [
					{ "time": 0, "x": 0, "y": 0, "curve": "stepped" },
					{ "time": 2, "x": 0, "y": 0 }
				],
				"scale": [
					{ "time": 0, "x": 1, "y": 1, "curve": "stepped" },
					{ "time": 2, "x": 1, "y": 1 }
				]
			},
			"bbody13": {
				"rotate": [
					{
						"time": 0,
						"angle": -0.35,
						"curve": [ 0.36, 0.64, 0.695, 1 ]
					},
					{
						"time": 0.1,
						"angle": 0,
						"curve": [ 0.25, 0, 0.75, 1 ]
					},
					{
						"time": 1.1,
						"angle": -8.27,
						"curve": [ 0.245, 0, 0.711, 0.83 ]
					},
					{ "time": 2, "angle": -0.35 }
				],
				"translate": [
					{ "time": 0, "x": 0, "y": 0, "curve": "stepped" },
					{ "time": 0.1, "x": 0, "y": 0, "curve": "stepped" },
					{ "time": 2, "x": 0, "y": 0 }
				],
				"scale": [
					{ "time": 0, "x": 1, "y": 1, "curve": "stepped" },
					{ "time": 0.1, "x": 1, "y": 1, "curve": "stepped" },
					{ "time": 2, "x": 1, "y": 1 }
				]
			},
			"bbody14": {
				"rotate": [
					{
						"time": 0,
						"angle": -1.05,
						"curve": [ 0.351, 0.42, 0.686, 0.76 ]
					},
					{
						"time": 0.1,
						"angle": -0.35,
						"curve": [ 0.36, 0.64, 0.695, 1 ]
					},
					{
						"time": 0.2,
						"angle": 0,
						"curve": [ 0.25, 0, 0.75, 1 ]
					},
					{
						"time": 1.2,
						"angle": -8.27,
						"curve": [ 0.243, 0, 0.68, 0.71 ]
					},
					{ "time": 2, "angle": -1.05 }
				],
				"translate": [
					{ "time": 0, "x": 0, "y": 0, "curve": "stepped" },
					{ "time": 0.1, "x": 0, "y": 0, "curve": "stepped" },
					{ "time": 0.2, "x": 0, "y": 0, "curve": "stepped" },
					{ "time": 2, "x": 0, "y": 0 }
				],
				"scale": [
					{ "time": 0, "x": 1, "y": 1, "curve": "stepped" },
					{ "time": 0.1, "x": 1, "y": 1, "curve": "stepped" },
					{ "time": 0.2, "x": 1, "y": 1, "curve": "stepped" },
					{ "time": 2, "x": 1, "y": 1 }
				]
			},
			"bbody15": {
				"rotate": [
					{
						"time": 0,
						"angle": -5.68,
						"curve": [ 0.348, 0.38, 0.685, 0.73 ]
					},
					{
						"time": 0.1667,
						"angle": -2.42,
						"curve": [ 0.351, 0.42, 0.686, 0.76 ]
					},
					{
						"time": 0.2667,
						"angle": -0.81,
						"curve": [ 0.36, 0.64, 0.695, 1 ]
					},
					{ "time": 0.3667, "angle": 0 },
					{
						"time": 1.3667,
						"angle": -19.11,
						"curve": [ 0.244, 0, 0.646, 0.59 ]
					},
					{ "time": 2, "angle": -5.68 }
				],
				"translate": [
					{ "time": 0, "x": 0, "y": 0, "curve": "stepped" },
					{ "time": 0.1667, "x": 0, "y": 0, "curve": "stepped" },
					{ "time": 0.2667, "x": 0, "y": 0, "curve": "stepped" },
					{ "time": 0.3667, "x": 0, "y": 0, "curve": "stepped" },
					{ "time": 2, "x": 0, "y": 0 }
				],
				"scale": [
					{ "time": 0, "x": 1, "y": 1, "curve": "stepped" },
					{ "time": 0.1667, "x": 1, "y": 1, "curve": "stepped" },
					{ "time": 0.2667, "x": 1, "y": 1, "curve": "stepped" },
					{ "time": 0.3667, "x": 1, "y": 1, "curve": "stepped" },
					{ "time": 2, "x": 1, "y": 1 }
				]
			},
			"bbody16": {
				"rotate": [
					{
						"time": 0,
						"angle": -9.44,
						"curve": [ 0.337, 0.34, 0.673, 0.69 ]
					},
					{
						"time": 0.1667,
						"angle": -5.68,
						"curve": [ 0.348, 0.38, 0.685, 0.73 ]
					},
					{
						"time": 0.3,
						"angle": -2.42,
						"curve": [ 0.351, 0.42, 0.686, 0.76 ]
					},
					{
						"time": 0.4,
						"angle": -0.81,
						"curve": [ 0.36, 0.64, 0.695, 1 ]
					},
					{
						"time": 0.5,
						"angle": 0,
						"curve": [ 0.25, 0, 0.75, 1 ]
					},
					{
						"time": 1.5,
						"angle": -19.11,
						"curve": [ 0.25, 0, 0.625, 0.5 ]
					},
					{ "time": 2, "angle": -9.44 }
				],
				"translate": [
					{ "time": 0, "x": 0, "y": 0, "curve": "stepped" },
					{ "time": 0.1667, "x": 0, "y": 0, "curve": "stepped" },
					{ "time": 0.3, "x": 0, "y": 0, "curve": "stepped" },
					{ "time": 0.4, "x": 0, "y": 0, "curve": "stepped" },
					{ "time": 0.5, "x": 0, "y": 0, "curve": "stepped" },
					{ "time": 2, "x": 0, "y": 0 }
				],
				"scale": [
					{ "time": 0, "x": 1, "y": 1, "curve": "stepped" },
					{ "time": 0.1667, "x": 1, "y": 1, "curve": "stepped" },
					{ "time": 0.3, "x": 1, "y": 1, "curve": "stepped" },
					{ "time": 0.4, "x": 1, "y": 1, "curve": "stepped" },
					{ "time": 0.5, "x": 1, "y": 1, "curve": "stepped" },
					{ "time": 2, "x": 1, "y": 1 }
				]
			},
			"bbody17": {
				"rotate": [
					{
						"time": 0,
						"angle": -13.24,
						"curve": [ 0.327, 0.31, 0.663, 0.66 ]
					},
					{
						"time": 0.1667,
						"angle": -9.44,
						"curve": [ 0.337, 0.34, 0.673, 0.69 ]
					},
					{
						"time": 0.3,
						"angle": -5.68,
						"curve": [ 0.348, 0.38, 0.685, 0.73 ]
					},
					{
						"time": 0.4667,
						"angle": -2.42,
						"curve": [ 0.351, 0.42, 0.686, 0.76 ]
					},
					{
						"time": 0.5667,
						"angle": -0.81,
						"curve": [ 0.36, 0.64, 0.695, 1 ]
					},
					{
						"time": 0.6667,
						"angle": 0,
						"curve": [ 0.25, 0, 0.75, 1 ]
					},
					{
						"time": 1.6667,
						"angle": -19.11,
						"curve": [ 0.263, 0, 0.618, 0.43 ]
					},
					{ "time": 2, "angle": -13.24 }
				],
				"translate": [
					{ "time": 0, "x": 0, "y": 0, "curve": "stepped" },
					{ "time": 0.1667, "x": 0, "y": 0, "curve": "stepped" },
					{ "time": 0.3, "x": 0, "y": 0, "curve": "stepped" },
					{ "time": 0.4667, "x": 0, "y": 0, "curve": "stepped" },
					{ "time": 0.5667, "x": 0, "y": 0, "curve": "stepped" },
					{ "time": 0.6667, "x": 0, "y": 0, "curve": "stepped" },
					{ "time": 2, "x": 0, "y": 0 }
				],
				"scale": [
					{ "time": 0, "x": 1, "y": 1, "curve": "stepped" },
					{ "time": 0.1667, "x": 1, "y": 1, "curve": "stepped" },
					{ "time": 0.3, "x": 1, "y": 1, "curve": "stepped" },
					{ "time": 0.4667, "x": 1, "y": 1, "curve": "stepped" },
					{ "time": 0.5667, "x": 1, "y": 1, "curve": "stepped" },
					{ "time": 0.6667, "x": 1, "y": 1, "curve": "stepped" },
					{ "time": 2, "x": 1, "y": 1 }
				]
			},
			"bbody18": {
				"rotate": [
					{
						"time": 0,
						"angle": -16.64,
						"curve": [ 0.315, 0.27, 0.652, 0.62 ]
					},
					{
						"time": 0.1667,
						"angle": -13.24,
						"curve": [ 0.327, 0.31, 0.663, 0.66 ]
					},
					{
						"time": 0.3,
						"angle": -9.44,
						"curve": [ 0.337, 0.34, 0.673, 0.69 ]
					},
					{
						"time": 0.4667,
						"angle": -5.68,
						"curve": [ 0.348, 0.38, 0.685, 0.73 ]
					},
					{
						"time": 0.6,
						"angle": -2.42,
						"curve": [ 0.351, 0.42, 0.686, 0.76 ]
					},
					{
						"time": 0.7,
						"angle": -0.81,
						"curve": [ 0.36, 0.64, 0.695, 1 ]
					},
					{ "time": 0.8, "angle": 0 },
					{
						"time": 1.8,
						"angle": -19.11,
						"curve": [ 0.284, 0, 0.625, 0.38 ]
					},
					{ "time": 2, "angle": -16.64 }
				],
				"translate": [
					{ "time": 0, "x": 0, "y": 0, "curve": "stepped" },
					{ "time": 0.1667, "x": 0, "y": 0, "curve": "stepped" },
					{ "time": 0.3, "x": 0, "y": 0, "curve": "stepped" },
					{ "time": 0.4667, "x": 0, "y": 0, "curve": "stepped" },
					{ "time": 0.6, "x": 0, "y": 0, "curve": "stepped" },
					{ "time": 0.7, "x": 0, "y": 0, "curve": "stepped" },
					{ "time": 0.8, "x": 0, "y": 0, "curve": "stepped" },
					{ "time": 2, "x": 0, "y": 0 }
				],
				"scale": [
					{ "time": 0, "x": 1, "y": 1, "curve": "stepped" },
					{ "time": 0.1667, "x": 1, "y": 1, "curve": "stepped" },
					{ "time": 0.3, "x": 1, "y": 1, "curve": "stepped" },
					{ "time": 0.4667, "x": 1, "y": 1, "curve": "stepped" },
					{ "time": 0.6, "x": 1, "y": 1, "curve": "stepped" },
					{ "time": 0.7, "x": 1, "y": 1, "curve": "stepped" },
					{ "time": 0.8, "x": 1, "y": 1, "curve": "stepped" },
					{ "time": 2, "x": 1, "y": 1 }
				]
			},
			"bbody19": {
				"rotate": [
					{
						"time": 0,
						"angle": 0,
						"curve": [ 0.25, 0, 0.75, 1 ]
					},
					{
						"time": 1,
						"angle": -8.27,
						"curve": [ 0.25, 0, 0.75, 1 ]
					},
					{ "time": 2, "angle": 0 }
				],
				"translate": [
					{ "time": 0, "x": 0, "y": 0, "curve": "stepped" },
					{ "time": 2, "x": 0, "y": 0 }
				],
				"scale": [
					{ "time": 0, "x": 1, "y": 1, "curve": "stepped" },
					{ "time": 2, "x": 1, "y": 1 }
				]
			},
			"bbody20": {
				"rotate": [
					{
						"time": 0,
						"angle": 0,
						"curve": [ 0.25, 0, 0.75, 1 ]
					},
					{
						"time": 1,
						"angle": -8.27,
						"curve": [ 0.25, 0, 0.75, 1 ]
					},
					{ "time": 2, "angle": 0 }
				],
				"translate": [
					{ "time": 0, "x": 0, "y": 0, "curve": "stepped" },
					{ "time": 2, "x": 0, "y": 0 }
				],
				"scale": [
					{ "time": 0, "x": 1, "y": 1, "curve": "stepped" },
					{ "time": 2, "x": 1, "y": 1 }
				]
			},
			"bbody21": {
				"rotate": [
					{
						"time": 0,
						"angle": 0,
						"curve": [ 0.25, 0, 0.75, 1 ]
					},
					{
						"time": 1,
						"angle": -19.11,
						"curve": [ 0.25, 0, 0.75, 1 ]
					},
					{ "time": 2, "angle": 0 }
				],
				"translate": [
					{ "time": 0, "x": 0, "y": 0, "curve": "stepped" },
					{ "time": 2, "x": 0, "y": 0 }
				],
				"scale": [
					{ "time": 0, "x": 1, "y": 1, "curve": "stepped" },
					{ "time": 2, "x": 1, "y": 1 }
				]
			},
			"bbody22": {
				"rotate": [
					{
						"time": 0,
						"angle": 0,
						"curve": [ 0.25, 0, 0.75, 1 ]
					},
					{
						"time": 1,
						"angle": -19.11,
						"curve": [ 0.25, 0, 0.75, 1 ]
					},
					{ "time": 2, "angle": 0 }
				],
				"translate": [
					{ "time": 0, "x": 0, "y": 0, "curve": "stepped" },
					{ "time": 2, "x": 0, "y": 0 }
				],
				"scale": [
					{ "time": 0, "x": 1, "y": 1, "curve": "stepped" },
					{ "time": 2, "x": 1, "y": 1 }
				]
			},
			"bbody23": {
				"rotate": [
					{
						"time": 0,
						"angle": 0,
						"curve": [ 0.25, 0, 0.75, 1 ]
					},
					{
						"time": 1,
						"angle": -19.11,
						"curve": [ 0.25, 0, 0.75, 1 ]
					},
					{ "time": 2, "angle": 0 }
				],
				"translate": [
					{ "time": 0, "x": 0, "y": 0, "curve": "stepped" },
					{ "time": 2, "x": 0, "y": 0 }
				],
				"scale": [
					{ "time": 0, "x": 1, "y": 1, "curve": "stepped" },
					{ "time": 2, "x": 1, "y": 1 }
				]
			},
			"bbody24": {
				"rotate": [
					{
						"time": 0,
						"angle": 0,
						"curve": [ 0.25, 0, 0.75, 1 ]
					},
					{
						"time": 1,
						"angle": -19.11,
						"curve": [ 0.25, 0, 0.75, 1 ]
					},
					{ "time": 2, "angle": 0 }
				],
				"translate": [
					{ "time": 0, "x": 0, "y": 0, "curve": "stepped" },
					{ "time": 2, "x": 0, "y": 0 }
				],
				"scale": [
					{ "time": 0, "x": 1, "y": 1, "curve": "stepped" },
					{ "time": 2, "x": 1, "y": 1 }
				]
			},
			"kinh": {
				"rotate": [
					{ "time": 0, "angle": 0 }
				],
				"translate": [
					{ "time": 0, "x": 0, "y": 0 }
				],
				"scale": [
					{ "time": 0, "x": 1, "y": 1 }
				]
			},
			"Layer 16": {
				"rotate": [
					{ "time": 0, "angle": 0 }
				],
				"translate": [
					{ "time": 0, "x": 0, "y": 0 }
				],
				"scale": [
					{ "time": 0, "x": 1, "y": 1 }
				]
			}
		},
		"deform": {
			"default": {
				"Layer 1": {
					"Layer 1": [
						{ "time": 0 }
					]
				},
				"Layer 2": {
					"Layer 2": [
						{ "time": 0 },
						{
							"time": 1,
							"offset": 74,
							"vertices": [ 1.61963, -6.0E-5, 2.1004, 6.0E-5, 2.33154, -6.0E-5, 1.15619, 0, -0.30627, 6.0E-5, -1.6142, 0, -2.23944, -1.2E-4, -2.23639, -6.0E-5, -1.25732, 0, 0.14276, 0, 0, 0, 0, 0, 0, 0, 0, 0, 0, 0, 0, 0, 0, 0, 0, 0, 0, 0, 0, 0, 0, 0, 0, 0, 0, 0, 0, 0, 0, 0, 0, 0, 0, 0, 0, 0, 0, 0, 0, 0, 0, 0, 0, 0, 0.39447, 0, -1.16827, 0, 1.98865, 0, 2.69171, -1.2E-4, 2.61462, 0, 2.08734, -6.0E-5, 1.0932, -6.0E-5, -0.68811, -6.0E-5, -1.77167, -1.2E-4, -2.44989, 0, -2.60822, 0, -2.47314, 0, 0, 0, 0, 0, 0, 0, 0, 0, 0, 0, 0, 0, -1.73761, -0.00165, -1.73761, -0.00165, 2.4E-4, -5.65759, 2.4E-4, -5.65759, 2.70795, -1.8E-4, 2.70795, -1.8E-4, -3.42029, -1.40942 ]
						},
						{
							"time": 1.0667,
							"offset": 74,
							"vertices": [ -6.29291, -6.0E-5, -8.16516, 1.2E-4, -9.06586, 6.0E-5, -4.48749, 1.8E-4, 1.20758, 1.2E-4, 6.30151, 6.0E-5, 8.73706, -6.0E-5, 8.72498, 0, 4.91211, 0, -0.54108, 1.2E-4, 0, 0, 0, 0, 0, 0, 0, 0, 0, 0, 0, 0, 0, 0, 0, 0, 0, 0, 0, 0, 0, 0, 0, 0, 0, 0, 0, 0, 0, 0, 0, 0, 0, 0, 0, 0, 0, 0, 0, 0, 0, 0, 0, 0, -1.62762, 1.2E-4, 4.84937, 6.0E-5, -8.2345, 1.2E-4, -11.14832, -6.0E-5, -10.82947, 1.2E-4, -8.64343, 6.0E-5, -4.52356, 6.0E-5, 2.8595, -1.2E-4, 7.35016, -6.0E-5, 10.16107, 1.2E-4, 10.81677, 6.0E-5, 10.25757, 0, 0, 0, 0, 0, 0, 0, 0, 0, 0, 0, 0, 0, -1.73761, -0.00165, -1.73761, -0.00165, 2.4E-4, -5.65759, 2.4E-4, -5.65759, 2.70795, -1.8E-4, 2.70795, -1.8E-4, -3.42029, -1.40942 ]
						},
						{
							"time": 1.1667,
							"offset": 74,
							"vertices": [ 1.61963, -6.0E-5, 2.1004, 6.0E-5, 2.33154, -6.0E-5, 1.15619, 0, -0.30627, 6.0E-5, -1.6142, 0, -2.23944, -1.2E-4, -2.23639, -6.0E-5, -1.25732, 0, 0.14276, 0, 0, 0, 0, 0, 0, 0, 0, 0, 0, 0, 0, 0, 0, 0, 0, 0, 0, 0, 0, 0, 0, 0, 0, 0, 0, 0, 0, 0, 0, 0, 0, 0, 0, 0, 0, 0, 0, 0, 0, 0, 0, 0, 0, 0, 0.39447, 0, -1.16827, 0, 1.98865, 0, 2.69171, -1.2E-4, 2.61462, 0, 2.08734, -6.0E-5, 1.0932, -6.0E-5, -0.68811, -6.0E-5, -1.77167, -1.2E-4, -2.44989, 0, -2.60822, 0, -2.47314, 0, 0, 0, 0, 0, 0, 0, 0, 0, 0, 0, 0, 0, -1.73761, -0.00165, -1.73761, -0.00165, 2.4E-4, -5.65759, 2.4E-4, -5.65759, 2.70795, -1.8E-4, 2.70795, -1.8E-4, -3.42029, -1.40942 ]
						},
						{ "time": 2 }
					]
				},
				"ao": {
					"ao": [
						{ "time": 0 }
					]
				},
				"ao sau": {
					"ao sau": [
						{ "time": 0 }
					]
				},
				"bbody": {
					"bbody": [
						{ "time": 0 }
					]
				}
			}
		}
	}
}
}