%YAML 1.1
%TAG !u! tag:unity3d.com,2011:
--- !u!74 &7400000
AnimationClip:
  m_ObjectHideFlags: 0
  m_CorrespondingSourceObject: {fileID: 0}
  m_PrefabInternal: {fileID: 0}
  m_Name: BlastBug_Idle
  serializedVersion: 6
  m_Legacy: 0
  m_Compressed: 0
  m_UseHighQualityCurve: 1
  m_RotationCurves: []
  m_CompressedRotationCurves: []
  m_EulerCurves: []
  m_PositionCurves: []
  m_ScaleCurves: []
  m_FloatCurves: []
  m_PPtrCurves:
  - curve:
    - time: 0
      value: {fileID: 21300000, guid: c13874e8e39790a4f89163cae5d9a4c0, type: 3}
    - time: 0.125
      value: {fileID: 21300000, guid: d847e885167a8be4d8ffe2cdc6de3b6d, type: 3}
    - time: 0.25
      value: {fileID: 21300000, guid: ab1a37c57d571c24382fdad7f4ceddad, type: 3}
    - time: 0.375
      value: {fileID: 21300000, guid: 4a915c8dbbb9747478002b00f20c8ff7, type: 3}
    - time: 0.5
      value: {fileID: 21300000, guid: 9471456f49361fb43b679f1b97990be7, type: 3}
    attribute: m_Sprite
    path: 
    classID: 212
    script: {fileID: 0}
  m_SampleRate: 8
  m_WrapMode: 0
  m_Bounds:
    m_Center: {x: 0, y: 0, z: 0}
    m_Extent: {x: 0, y: 0, z: 0}
  m_ClipBindingConstant:
    genericBindings:
    - serializedVersion: 2
      path: 0
      attribute: 0
      script: {fileID: 0}
      typeID: 212
      customType: 23
      isPPtrCurve: 1
    pptrCurveMapping:
    - {fileID: 21300000, guid: c13874e8e39790a4f89163cae5d9a4c0, type: 3}
    - {fileID: 21300000, guid: d847e885167a8be4d8ffe2cdc6de3b6d, type: 3}
    - {fileID: 21300000, guid: ab1a37c57d571c24382fdad7f4ceddad, type: 3}
    - {fileID: 21300000, guid: 4a915c8dbbb9747478002b00f20c8ff7, type: 3}
    - {fileID: 21300000, guid: 9471456f49361fb43b679f1b97990be7, type: 3}
  m_AnimationClipSettings:
    serializedVersion: 2
    m_AdditiveReferencePoseClip: {fileID: 0}
    m_AdditiveReferencePoseTime: 0
    m_StartTime: 0
    m_StopTime: 0.625
    m_OrientationOffsetY: 0
    m_Level: 0
    m_CycleOffset: 0
    m_HasAdditiveReferencePose: 0
    m_LoopTime: 1
    m_LoopBlend: 0
    m_LoopBlendOrientation: 0
    m_LoopBlendPositionY: 0
    m_LoopBlendPositionXZ: 0
    m_KeepOriginalOrientation: 0
    m_KeepOriginalPositionY: 1
    m_KeepOriginalPositionXZ: 0
    m_HeightFromFeet: 0
    m_Mirror: 0
  m_EditorCurves: []
  m_EulerEditorCurves: []
  m_HasGenericRootTransform: 0
  m_HasMotionFloatCurves: 0
  m_GenerateMotionCurves: 0
  m_Events: []
