%YAML 1.1
%TAG !u! tag:unity3d.com,2011:
--- !u!74 &7400000
AnimationClip:
  m_ObjectHideFlags: 0
  m_CorrespondingSourceObject: {fileID: 0}
  m_PrefabInternal: {fileID: 0}
  m_Name: ShieldCounterBug_Yellow
  serializedVersion: 6
  m_Legacy: 0
  m_Compressed: 0
  m_UseHighQualityCurve: 1
  m_RotationCurves: []
  m_CompressedRotationCurves: []
  m_EulerCurves: []
  m_PositionCurves: []
  m_ScaleCurves: []
  m_FloatCurves: []
  m_PPtrCurves:
  - curve:
    - time: 0
      value: {fileID: 21300000, guid: 4463a60a1a419a04bb6c349c0c801cc8, type: 3}
    - time: 0.125
      value: {fileID: 21300000, guid: f9c8e7d46c494a9469fb499ddf163210, type: 3}
    - time: 0.25
      value: {fileID: 21300000, guid: e9ca2e33828cdfe4fa8c08e6af18ff16, type: 3}
    - time: 0.375
      value: {fileID: 21300000, guid: 84a8b485dfb1bdb4b9cb9e0067773fa7, type: 3}
    - time: 0.5
      value: {fileID: 21300000, guid: 6f0e181035c09f64d9e60d68a8689e4b, type: 3}
    - time: 0.625
      value: {fileID: 21300000, guid: ccb20d60d701aa347b6a8d02dce26ba4, type: 3}
    - time: 0.75
      value: {fileID: 21300000, guid: 99cc6ab2b78c5a64492401108fe95866, type: 3}
    - time: 0.875
      value: {fileID: 21300000, guid: 9bdeec4ac2792b142ae909f56b263dae, type: 3}
    attribute: m_Sprite
    path: 
    classID: 212
    script: {fileID: 0}
  m_SampleRate: 8
  m_WrapMode: 0
  m_Bounds:
    m_Center: {x: 0, y: 0, z: 0}
    m_Extent: {x: 0, y: 0, z: 0}
  m_ClipBindingConstant:
    genericBindings:
    - serializedVersion: 2
      path: 0
      attribute: 0
      script: {fileID: 0}
      typeID: 212
      customType: 23
      isPPtrCurve: 1
    pptrCurveMapping:
    - {fileID: 21300000, guid: 4463a60a1a419a04bb6c349c0c801cc8, type: 3}
    - {fileID: 21300000, guid: f9c8e7d46c494a9469fb499ddf163210, type: 3}
    - {fileID: 21300000, guid: e9ca2e33828cdfe4fa8c08e6af18ff16, type: 3}
    - {fileID: 21300000, guid: 84a8b485dfb1bdb4b9cb9e0067773fa7, type: 3}
    - {fileID: 21300000, guid: 6f0e181035c09f64d9e60d68a8689e4b, type: 3}
    - {fileID: 21300000, guid: ccb20d60d701aa347b6a8d02dce26ba4, type: 3}
    - {fileID: 21300000, guid: 99cc6ab2b78c5a64492401108fe95866, type: 3}
    - {fileID: 21300000, guid: 9bdeec4ac2792b142ae909f56b263dae, type: 3}
  m_AnimationClipSettings:
    serializedVersion: 2
    m_AdditiveReferencePoseClip: {fileID: 0}
    m_AdditiveReferencePoseTime: 0
    m_StartTime: 0
    m_StopTime: 1
    m_OrientationOffsetY: 0
    m_Level: 0
    m_CycleOffset: 0
    m_HasAdditiveReferencePose: 0
    m_LoopTime: 1
    m_LoopBlend: 0
    m_LoopBlendOrientation: 0
    m_LoopBlendPositionY: 0
    m_LoopBlendPositionXZ: 0
    m_KeepOriginalOrientation: 0
    m_KeepOriginalPositionY: 1
    m_KeepOriginalPositionXZ: 0
    m_HeightFromFeet: 0
    m_Mirror: 0
  m_EditorCurves: []
  m_EulerEditorCurves: []
  m_HasGenericRootTransform: 0
  m_HasMotionFloatCurves: 0
  m_GenerateMotionCurves: 0
  m_Events: []
