%YAML 1.1
%TAG !u! tag:unity3d.com,2011:
--- !u!114 &11400000
MonoBehaviour:
  m_ObjectHideFlags: 0
  m_CorrespondingSourceObject: {fileID: 0}
  m_PrefabInternal: {fileID: 0}
  m_GameObject: {fileID: 0}
  m_Enabled: 1
  m_EditorHideFlags: 0
  m_Script: {fileID: 11500000, guid: 125b9f6e6906d6e4897a443b3c12729c, type: 3}
  m_Name: Pause_Setting_Other
  m_EditorClassIdentifier: 
  material: {fileID: 2100000, guid: d0aacbf9af00fae4c8d0c59f7f8e3ab7, type: 2}
  mSprites:
  - name: bar_sensivity
    x: 589
    y: 19
    width: 530
    height: 16
    borderLeft: 0
    borderRight: 0
    borderTop: 0
    borderBottom: 0
    paddingLeft: 0
    paddingRight: 0
    paddingTop: 0
    paddingBottom: 0
  - name: bar_sensivity_filled
    x: 1120
    y: 7
    width: 530
    height: 16
    borderLeft: 0
    borderRight: 0
    borderTop: 0
    borderBottom: 0
    paddingLeft: 0
    paddingRight: 0
    paddingTop: 0
    paddingBottom: 0
  - name: bbtn_restore_IAP
    x: 903
    y: 243
    width: 168
    height: 44
    borderLeft: 0
    borderRight: 0
    borderTop: 0
    borderBottom: 0
    paddingLeft: 0
    paddingRight: 0
    paddingTop: 0
    paddingBottom: 1
  - name: bootom_bar
    x: 0
    y: 167
    width: 720
    height: 102
    borderLeft: 0
    borderRight: 0
    borderTop: 0
    borderBottom: 0
    paddingLeft: 0
    paddingRight: 0
    paddingTop: 0
    paddingBottom: 0
  - name: btn_arrow1
    x: 1511
    y: 976
    width: 30
    height: 48
    borderLeft: 0
    borderRight: 0
    borderTop: 0
    borderBottom: 0
    paddingLeft: 18
    paddingRight: 18
    paddingTop: 9
    paddingBottom: 9
  - name: btn_back
    x: 1261
    y: 203
    width: 78
    height: 78
    borderLeft: 0
    borderRight: 0
    borderTop: 0
    borderBottom: 0
    paddingLeft: 0
    paddingRight: 0
    paddingTop: 0
    paddingBottom: 0
  - name: btn_backtohome
    x: 1340
    y: 204
    width: 78
    height: 78
    borderLeft: 0
    borderRight: 0
    borderTop: 0
    borderBottom: 0
    paddingLeft: 0
    paddingRight: 0
    paddingTop: 0
    paddingBottom: 0
  - name: btn_blue
    x: 1178
    y: 104
    width: 168
    height: 66
    borderLeft: 0
    borderRight: 0
    borderTop: 0
    borderBottom: 0
    paddingLeft: 0
    paddingRight: 0
    paddingTop: 0
    paddingBottom: 0
  - name: Btn_ControlScheme_L
    x: 1310
    y: 24
    width: 117
    height: 79
    borderLeft: 0
    borderRight: 0
    borderTop: 0
    borderBottom: 0
    paddingLeft: 0
    paddingRight: 0
    paddingTop: 0
    paddingBottom: 0
  - name: Btn_ControlScheme_R
    x: 1171
    y: 282
    width: 117
    height: 79
    borderLeft: 0
    borderRight: 0
    borderTop: 0
    borderBottom: 0
    paddingLeft: 0
    paddingRight: 0
    paddingTop: 0
    paddingBottom: 0
  - name: btn_exit
    x: 1182
    y: 203
    width: 78
    height: 78
    borderLeft: 0
    borderRight: 0
    borderTop: 0
    borderBottom: 0
    paddingLeft: 0
    paddingRight: 0
    paddingTop: 0
    paddingBottom: 0
  - name: btn_giftcode
    x: 1072
    y: 237
    width: 84
    height: 69
    borderLeft: 0
    borderRight: 0
    borderTop: 0
    borderBottom: 0
    paddingLeft: 0
    paddingRight: 0
    paddingTop: 0
    paddingBottom: 0
  - name: Btn_hand_control_L
    x: 1542
    y: 99
    width: 36
    height: 66
    borderLeft: 0
    borderRight: 0
    borderTop: 0
    borderBottom: 0
    paddingLeft: 0
    paddingRight: 0
    paddingTop: 0
    paddingBottom: 0
  - name: btn_leaderboad
    x: 1419
    y: 228
    width: 78
    height: 60
    borderLeft: 0
    borderRight: 0
    borderTop: 0
    borderBottom: 0
    paddingLeft: 0
    paddingRight: 0
    paddingTop: 0
    paddingBottom: 0
  - name: btn_music
    x: 1513
    y: 24
    width: 84
    height: 28
    borderLeft: 0
    borderRight: 0
    borderTop: 0
    borderBottom: 0
    paddingLeft: 0
    paddingRight: 0
    paddingTop: 0
    paddingBottom: 0
  - name: btn_musicoff
    x: 1542
    y: 70
    width: 84
    height: 28
    borderLeft: 0
    borderRight: 0
    borderTop: 0
    borderBottom: 0
    paddingLeft: 0
    paddingRight: 0
    paddingTop: 0
    paddingBottom: 0
  - name: btn_nextstage
    x: 1032
    y: 307
    width: 138
    height: 109
    borderLeft: 0
    borderRight: 0
    borderTop: 0
    borderBottom: 0
    paddingLeft: 2
    paddingRight: 4
    paddingTop: 16
    paddingBottom: 19
  - name: btn_off
    x: 1651
    y: 12
    width: 84
    height: 28
    borderLeft: 0
    borderRight: 0
    borderTop: 0
    borderBottom: 0
    paddingLeft: 0
    paddingRight: 0
    paddingTop: 0
    paddingBottom: 0
  - name: btn_on
    x: 1598
    y: 41
    width: 84
    height: 28
    borderLeft: 0
    borderRight: 0
    borderTop: 0
    borderBottom: 0
    paddingLeft: 0
    paddingRight: 0
    paddingTop: 0
    paddingBottom: 0
  - name: btn_quit_match
    x: 1289
    y: 283
    width: 78
    height: 78
    borderLeft: 0
    borderRight: 0
    borderTop: 0
    borderBottom: 0
    paddingLeft: 0
    paddingRight: 0
    paddingTop: 0
    paddingBottom: 0
  - name: btn_rate
    x: 1368
    y: 289
    width: 75
    height: 72
    borderLeft: 0
    borderRight: 0
    borderTop: 0
    borderBottom: 0
    paddingLeft: 0
    paddingRight: 0
    paddingTop: 0
    paddingBottom: 0
  - name: btn_restore_IAP_tau
    x: 721
    y: 417
    width: 441
    height: 93
    borderLeft: 0
    borderRight: 0
    borderTop: 0
    borderBottom: 0
    paddingLeft: 0
    paddingRight: 0
    paddingTop: 0
    paddingBottom: 0
  - name: btn_restore_purchase
    x: 1347
    y: 128
    width: 69
    height: 75
    borderLeft: 0
    borderRight: 0
    borderTop: 0
    borderBottom: 0
    paddingLeft: 0
    paddingRight: 0
    paddingTop: 0
    paddingBottom: 1
  - name: btn_sound
    x: 1182
    y: 174
    width: 84
    height: 28
    borderLeft: 0
    borderRight: 0
    borderTop: 0
    borderBottom: 0
    paddingLeft: 0
    paddingRight: 0
    paddingTop: 0
    paddingBottom: 0
  - name: btn_soundoff
    x: 1428
    y: 24
    width: 84
    height: 28
    borderLeft: 0
    borderRight: 0
    borderTop: 0
    borderBottom: 0
    paddingLeft: 0
    paddingRight: 0
    paddingTop: 0
    paddingBottom: 0
  - name: btn_store
    x: 1417
    y: 131
    width: 69
    height: 72
    borderLeft: 0
    borderRight: 0
    borderTop: 0
    borderBottom: 0
    paddingLeft: 0
    paddingRight: 0
    paddingTop: 0
    paddingBottom: 0
  - name: color_dot_violet
    x: 1032
    y: 290
    width: 16
    height: 16
    borderLeft: 0
    borderRight: 0
    borderTop: 0
    borderBottom: 0
    paddingLeft: 0
    paddingRight: 0
    paddingTop: 0
    paddingBottom: 0
  - name: icon_facebook
    x: 1550
    y: 967
    width: 30
    height: 57
    borderLeft: 0
    borderRight: 0
    borderTop: 0
    borderBottom: 0
    paddingLeft: 20
    paddingRight: 16
    paddingTop: 5
    paddingBottom: 4
  - name: icon_instargram
    x: 1498
    y: 246
    width: 51
    height: 54
    borderLeft: 0
    borderRight: 0
    borderTop: 0
    borderBottom: 0
    paddingLeft: 7
    paddingRight: 8
    paddingTop: 8
    paddingBottom: 4
  - name: icon_like
    x: 1490
    y: 53
    width: 51
    height: 51
    borderLeft: 0
    borderRight: 0
    borderTop: 0
    borderBottom: 0
    paddingLeft: 0
    paddingRight: 0
    paddingTop: 0
    paddingBottom: 0
  - name: icon_music
    x: 1683
    y: 973
    width: 42
    height: 51
    borderLeft: 0
    borderRight: 0
    borderTop: 0
    borderBottom: 0
    paddingLeft: 14
    paddingRight: 10
    paddingTop: 8
    paddingBottom: 7
  - name: icon_notifi
    x: 1736
    y: 973
    width: 42
    height: 51
    borderLeft: 0
    borderRight: 0
    borderTop: 0
    borderBottom: 0
    paddingLeft: 12
    paddingRight: 12
    paddingTop: 8
    paddingBottom: 7
  - name: icon_progress4_blue
    x: 1428
    y: 69
    width: 61
    height: 61
    borderLeft: 0
    borderRight: 0
    borderTop: 0
    borderBottom: 0
    paddingLeft: 0
    paddingRight: 1
    paddingTop: 0
    paddingBottom: 4
  - name: icon_progress4_gold
    x: 1487
    y: 166
    width: 61
    height: 61
    borderLeft: 0
    borderRight: 0
    borderTop: 0
    borderBottom: 0
    paddingLeft: 0
    paddingRight: 1
    paddingTop: 0
    paddingBottom: 4
  - name: icon_sens
    x: 1490
    y: 105
    width: 45
    height: 60
    borderLeft: 0
    borderRight: 0
    borderTop: 0
    borderBottom: 0
    paddingLeft: 4
    paddingRight: 17
    paddingTop: 3
    paddingBottom: 3
  - name: icon_sound
    x: 1628
    y: 973
    width: 42
    height: 51
    borderLeft: 0
    borderRight: 0
    borderTop: 0
    borderBottom: 0
    paddingLeft: 12
    paddingRight: 12
    paddingTop: 8
    paddingBottom: 7
  - name: icon_twiter
    x: 1579
    y: 102
    width: 48
    height: 45
    borderLeft: 0
    borderRight: 0
    borderTop: 0
    borderBottom: 0
    paddingLeft: 0
    paddingRight: 0
    paddingTop: 0
    paddingBottom: 0
  - name: Laber_saleoff
    x: 721
    y: 230
    width: 181
    height: 186
    borderLeft: 0
    borderRight: 0
    borderTop: 0
    borderBottom: 0
    paddingLeft: 0
    paddingRight: 0
    paddingTop: 0
    paddingBottom: 0
  - name: language_change
    x: 1549
    y: 197
    width: 48
    height: 48
    borderLeft: 0
    borderRight: 0
    borderTop: 0
    borderBottom: 0
    paddingLeft: 0
    paddingRight: 0
    paddingTop: 0
    paddingBottom: 0
  - name: language_change_BG
    x: 1579
    y: 148
    width: 48
    height: 48
    borderLeft: 10
    borderRight: 10
    borderTop: 10
    borderBottom: 10
    paddingLeft: 0
    paddingRight: 0
    paddingTop: 0
    paddingBottom: 0
  - name: language_icon
    x: 1444
    y: 301
    width: 66
    height: 60
    borderLeft: 0
    borderRight: 0
    borderTop: 0
    borderBottom: 0
    paddingLeft: 0
    paddingRight: 0
    paddingTop: 0
    paddingBottom: 0
  - name: line
    x: 589
    y: 4
    width: 487
    height: 2
    borderLeft: 0
    borderRight: 0
    borderTop: 0
    borderBottom: 0
    paddingLeft: 0
    paddingRight: 0
    paddingTop: 0
    paddingBottom: 0
  - name: popup_bg_blue
    x: 903
    y: 288
    width: 128
    height: 128
    borderLeft: 60
    borderRight: 60
    borderTop: 50
    borderBottom: 50
    paddingLeft: 0
    paddingRight: 0
    paddingTop: 0
    paddingBottom: 0
  - name: Popup_BG_Head_1
    x: 589
    y: 36
    width: 720
    height: 48
    borderLeft: 0
    borderRight: 0
    borderTop: 0
    borderBottom: 0
    paddingLeft: 0
    paddingRight: 0
    paddingTop: 0
    paddingBottom: 0
  - name: popup_bg_small
    x: 721
    y: 511
    width: 678
    height: 513
    borderLeft: 120
    borderRight: 120
    borderTop: 120
    borderBottom: 120
    paddingLeft: 0
    paddingRight: 0
    paddingTop: 0
    paddingBottom: 0
  - name: Popup_titler_blue
    x: 0
    y: 3
    width: 588
    height: 81
    borderLeft: 0
    borderRight: 0
    borderTop: 0
    borderBottom: 0
    paddingLeft: 0
    paddingRight: 0
    paddingTop: 0
    paddingBottom: 0
  - name: Popup_titler_red
    x: 589
    y: 85
    width: 588
    height: 81
    borderLeft: 0
    borderRight: 0
    borderTop: 0
    borderBottom: 0
    paddingLeft: 0
    paddingRight: 0
    paddingTop: 0
    paddingBottom: 0
  - name: Text_BG
    x: 1178
    y: 362
    width: 297
    height: 148
    borderLeft: 0
    borderRight: 0
    borderTop: 0
    borderBottom: 0
    paddingLeft: 0
    paddingRight: 0
    paddingTop: 0
    paddingBottom: 0
  - name: titler_BG_glow2
    x: 721
    y: 171
    width: 460
    height: 58
    borderLeft: 0
    borderRight: 0
    borderTop: 0
    borderBottom: 0
    paddingLeft: 0
    paddingRight: 0
    paddingTop: 0
    paddingBottom: 0
  - name: titler_community
    x: 0
    y: 85
    width: 588
    height: 81
    borderLeft: 0
    borderRight: 0
    borderTop: 0
    borderBottom: 0
    paddingLeft: 0
    paddingRight: 0
    paddingTop: 0
    paddingBottom: 0
  - name: videoads_BGgreen
    x: 0
    y: 270
    width: 720
    height: 754
    borderLeft: 0
    borderRight: 0
    borderTop: 0
    borderBottom: 0
    paddingLeft: 0
    paddingRight: 0
    paddingTop: 0
    paddingBottom: 0
  mPixelSize: 1
  mReplacement: {fileID: 0}
