%YAML 1.1
%TAG !u! tag:unity3d.com,2011:
--- !u!1001 &100100000
Prefab:
  m_ObjectHideFlags: 1
  serializedVersion: 2
  m_Modification:
    m_TransformParent: {fileID: 0}
    m_Modifications: []
    m_RemovedComponents: []
  m_SourcePrefab: {fileID: 0}
  m_RootGameObject: {fileID: 1015971954969744}
  m_IsPrefabAsset: 1
--- !u!1 &1015971954969744
GameObject:
  m_ObjectHideFlags: 0
  m_CorrespondingSourceObject: {fileID: 0}
  m_PrefabInternal: {fileID: 100100000}
  serializedVersion: 6
  m_Component:
  - component: {fileID: 4628526424346036}
  - component: {fileID: 114394587216606440}
  m_Layer: 0
  m_Name: Shop
  m_TagString: Untagged
  m_Icon: {fileID: 0}
  m_NavMeshLayer: 0
  m_StaticEditorFlags: 0
  m_IsActive: 1
--- !u!4 &4628526424346036
Transform:
  m_ObjectHideFlags: 1
  m_CorrespondingSourceObject: {fileID: 0}
  m_PrefabInternal: {fileID: 100100000}
  m_GameObject: {fileID: 1015971954969744}
  m_LocalRotation: {x: 0, y: 0, z: 0, w: 1}
  m_LocalPosition: {x: 0, y: 0, z: 0}
  m_LocalScale: {x: 1, y: 1, z: 1}
  m_Children: []
  m_Father: {fileID: 0}
  m_RootOrder: 0
  m_LocalEulerAnglesHint: {x: 0, y: 0, z: 0}
--- !u!114 &114394587216606440
MonoBehaviour:
  m_ObjectHideFlags: 1
  m_CorrespondingSourceObject: {fileID: 0}
  m_PrefabInternal: {fileID: 100100000}
  m_GameObject: {fileID: 1015971954969744}
  m_Enabled: 1
  m_EditorHideFlags: 0
  m_Script: {fileID: 11500000, guid: 4d0c51bb0b6e93049af5e88f93826e3b, type: 3}
  m_Name: 
  m_EditorClassIdentifier: 
  material: {fileID: 0}
  mSprites:
  - name: air_craft5_Idle_0
    x: 831
    y: 440
    width: 135
    height: 111
    borderLeft: 0
    borderRight: 0
    borderTop: 0
    borderBottom: 0
    paddingLeft: 3
    paddingRight: 3
    paddingTop: 9
    paddingBottom: 6
  - name: aircraft_1
    x: 1767
    y: 471
    width: 135
    height: 120
    borderLeft: 0
    borderRight: 0
    borderTop: 0
    borderBottom: 0
    paddingLeft: 3
    paddingRight: 3
    paddingTop: 3
    paddingBottom: 3
  - name: aircraft_xmas_1_Idle_0
    x: 1637
    y: 465
    width: 129
    height: 126
    borderLeft: 0
    borderRight: 0
    borderTop: 0
    borderBottom: 0
    paddingLeft: 6
    paddingRight: 6
    paddingTop: 0
    paddingBottom: 0
  - name: aircraft_xmas_2_Idle_0
    x: 1507
    y: 550
    width: 129
    height: 126
    borderLeft: 0
    borderRight: 0
    borderTop: 0
    borderBottom: 0
    paddingLeft: 6
    paddingRight: 6
    paddingTop: 0
    paddingBottom: 0
  - name: aircraft2_Idle_0
    x: 540
    y: 344
    width: 135
    height: 111
    borderLeft: 0
    borderRight: 0
    borderTop: 0
    borderBottom: 0
    paddingLeft: 3
    paddingRight: 3
    paddingTop: 9
    paddingBottom: 6
  - name: aircraft3_Idle_3
    x: 1850
    y: 904
    width: 135
    height: 120
    borderLeft: 0
    borderRight: 0
    borderTop: 0
    borderBottom: 0
    paddingLeft: 3
    paddingRight: 3
    paddingTop: 3
    paddingBottom: 3
  - name: aircraft4_Idle_0
    x: 1767
    y: 356
    width: 135
    height: 114
    borderLeft: 0
    borderRight: 0
    borderTop: 0
    borderBottom: 0
    paddingLeft: 3
    paddingRight: 3
    paddingTop: 6
    paddingBottom: 6
  - name: bar_upgrade_dot0
    x: 433
    y: 664
    width: 30
    height: 18
    borderLeft: 0
    borderRight: 0
    borderTop: 0
    borderBottom: 0
    paddingLeft: 0
    paddingRight: 0
    paddingTop: 0
    paddingBottom: 0
  - name: bar_upgrade_dot1
    x: 602
    y: 713
    width: 28
    height: 16
    borderLeft: 0
    borderRight: 0
    borderTop: 0
    borderBottom: 0
    paddingLeft: 0
    paddingRight: 0
    paddingTop: 0
    paddingBottom: 0
  - name: bar_upgrade_empty
    x: 1367
    y: 446
    width: 282
    height: 18
    borderLeft: 0
    borderRight: 0
    borderTop: 0
    borderBottom: 0
    paddingLeft: 0
    paddingRight: 0
    paddingTop: 0
    paddingBottom: 0
  - name: BG_tooltip
    x: 1240
    y: 903
    width: 609
    height: 121
    borderLeft: 0
    borderRight: 0
    borderTop: 0
    borderBottom: 0
    paddingLeft: 2
    paddingRight: 2
    paddingTop: 3
    paddingBottom: 2
  - name: btn_IAP_royal_pack
    x: 631
    y: 591
    width: 200
    height: 176
    borderLeft: 0
    borderRight: 0
    borderTop: 0
    borderBottom: 0
    paddingLeft: 0
    paddingRight: 0
    paddingTop: 16
    paddingBottom: 8
  - name: btn_IAPbot
    x: 1507
    y: 468
    width: 84
    height: 81
    borderLeft: 0
    borderRight: 0
    borderTop: 0
    borderBottom: 0
    paddingLeft: 0
    paddingRight: 0
    paddingTop: 0
    paddingBottom: 0
  - name: btn_restore
    x: 1240
    y: 767
    width: 510
    height: 135
    borderLeft: 0
    borderRight: 0
    borderTop: 0
    borderBottom: 0
    paddingLeft: 0
    paddingRight: 0
    paddingTop: 0
    paddingBottom: 0
  - name: btn_restore_t
    x: 405
    y: 328
    width: 107
    height: 64
    borderLeft: 0
    borderRight: 0
    borderTop: 0
    borderBottom: 0
    paddingLeft: 3
    paddingRight: 4
    paddingTop: 19
    paddingBottom: 13
  - name: btn_try
    x: 433
    y: 683
    width: 168
    height: 72
    borderLeft: 0
    borderRight: 0
    borderTop: 0
    borderBottom: 0
    paddingLeft: 0
    paddingRight: 0
    paddingTop: 0
    paddingBottom: 0
  - name: btn_upgrade_item
    x: 676
    y: 392
    width: 153
    height: 63
    borderLeft: 0
    borderRight: 0
    borderTop: 0
    borderBottom: 0
    paddingLeft: 0
    paddingRight: 0
    paddingTop: 0
    paddingBottom: 0
  - name: btn_upgrade_item_glow
    x: 1121
    y: 487
    width: 147
    height: 54
    borderLeft: 0
    borderRight: 0
    borderTop: 0
    borderBottom: 0
    paddingLeft: 0
    paddingRight: 0
    paddingTop: 0
    paddingBottom: 0
  - name: btn_upgrade_item_t
    x: 967
    y: 488
    width: 153
    height: 63
    borderLeft: 0
    borderRight: 0
    borderTop: 0
    borderBottom: 0
    paddingLeft: 0
    paddingRight: 0
    paddingTop: 0
    paddingBottom: 0
  - name: btn_VIP_info
    x: 1903
    y: 513
    width: 81
    height: 78
    borderLeft: 0
    borderRight: 0
    borderTop: 0
    borderBottom: 0
    paddingLeft: 0
    paddingRight: 0
    paddingTop: 0
    paddingBottom: 0
  - name: glow_title
    x: 832
    y: 687
    width: 415
    height: 79
    borderLeft: 0
    borderRight: 0
    borderTop: 0
    borderBottom: 0
    paddingLeft: 48
    paddingRight: 49
    paddingTop: 0
    paddingBottom: 0
  - name: goldroy_BG9p
    x: 485
    y: 51
    width: 18
    height: 276
    borderLeft: 0
    borderRight: 0
    borderTop: 0
    borderBottom: 0
    paddingLeft: 0
    paddingRight: 0
    paddingTop: 0
    paddingBottom: 0
  - name: goldscreen_BG
    x: 0
    y: 756
    width: 630
    height: 268
    borderLeft: 0
    borderRight: 0
    borderTop: 0
    borderBottom: 0
    paddingLeft: 0
    paddingRight: 0
    paddingTop: 0
    paddingBottom: 0
  - name: hangar_2ndWp_S
    x: 405
    y: 251
    width: 79
    height: 76
    borderLeft: 0
    borderRight: 0
    borderTop: 0
    borderBottom: 0
    paddingLeft: 0
    paddingRight: 0
    paddingTop: 0
    paddingBottom: 0
  - name: icon_active_item
    x: 593
    y: 267
    width: 79
    height: 76
    borderLeft: 0
    borderRight: 0
    borderTop: 0
    borderBottom: 0
    paddingLeft: 0
    paddingRight: 0
    paddingTop: 0
    paddingBottom: 0
  - name: icon_bonusscore
    x: 80
    y: 235
    width: 79
    height: 76
    borderLeft: 0
    borderRight: 0
    borderTop: 0
    borderBottom: 0
    paddingLeft: 0
    paddingRight: 0
    paddingTop: 0
    paddingBottom: 0
  - name: icon_bow_bullet
    x: 0
    y: 235
    width: 79
    height: 76
    borderLeft: 0
    borderRight: 0
    borderTop: 0
    borderBottom: 0
    paddingLeft: 0
    paddingRight: 0
    paddingTop: 0
    paddingBottom: 0
  - name: icon_chest_in_royalpack
    x: 1269
    y: 493
    width: 50
    height: 48
    borderLeft: 0
    borderRight: 0
    borderTop: 0
    borderBottom: 0
    paddingLeft: 0
    paddingRight: 0
    paddingTop: 0
    paddingBottom: 0
  - name: icon_coinandgem
    x: 830
    y: 363
    width: 79
    height: 76
    borderLeft: 0
    borderRight: 0
    borderTop: 0
    borderBottom: 0
    paddingLeft: 0
    paddingRight: 0
    paddingTop: 0
    paddingBottom: 0
  - name: icon_damge
    x: 967
    y: 396
    width: 79
    height: 76
    borderLeft: 0
    borderRight: 0
    borderTop: 0
    borderBottom: 0
    paddingLeft: 0
    paddingRight: 0
    paddingTop: 0
    paddingBottom: 0
  - name: icon_duration
    x: 513
    y: 267
    width: 79
    height: 76
    borderLeft: 0
    borderRight: 0
    borderTop: 0
    borderBottom: 0
    paddingLeft: 0
    paddingRight: 0
    paddingTop: 0
    paddingBottom: 0
  - name: icon_ene_in_royalpack
    x: 1367
    y: 497
    width: 50
    height: 44
    borderLeft: 0
    borderRight: 0
    borderTop: 0
    borderBottom: 0
    paddingLeft: 0
    paddingRight: 0
    paddingTop: 0
    paddingBottom: 0
  - name: icon_gem
    x: 1320
    y: 489
    width: 46
    height: 52
    borderLeft: 0
    borderRight: 0
    borderTop: 0
    borderBottom: 0
    paddingLeft: 0
    paddingRight: 0
    paddingTop: 0
    paddingBottom: 0
  - name: icon_gold
    x: 513
    y: 365
    width: 24
    height: 27
    borderLeft: 0
    borderRight: 0
    borderTop: 0
    borderBottom: 0
    paddingLeft: 4
    paddingRight: 4
    paddingTop: 1
    paddingBottom: 4
  - name: icon_homing
    x: 676
    y: 315
    width: 79
    height: 76
    borderLeft: 0
    borderRight: 0
    borderTop: 0
    borderBottom: 0
    paddingLeft: 0
    paddingRight: 0
    paddingTop: 0
    paddingBottom: 0
  - name: icon_laze
    x: 1207
    y: 396
    width: 79
    height: 76
    borderLeft: 0
    borderRight: 0
    borderTop: 0
    borderBottom: 0
    paddingLeft: 0
    paddingRight: 0
    paddingTop: 0
    paddingBottom: 0
  - name: icon_life
    x: 1127
    y: 396
    width: 79
    height: 76
    borderLeft: 0
    borderRight: 0
    borderTop: 0
    borderBottom: 0
    paddingLeft: 0
    paddingRight: 0
    paddingTop: 0
    paddingBottom: 0
  - name: icon_magnet
    x: 1287
    y: 396
    width: 79
    height: 76
    borderLeft: 0
    borderRight: 0
    borderTop: 0
    borderBottom: 0
    paddingLeft: 0
    paddingRight: 0
    paddingTop: 0
    paddingBottom: 0
  - name: icon_mainweapon
    x: 1047
    y: 396
    width: 79
    height: 76
    borderLeft: 0
    borderRight: 0
    borderTop: 0
    borderBottom: 0
    paddingLeft: 0
    paddingRight: 0
    paddingTop: 0
    paddingBottom: 0
  - name: icon_plus
    x: 602
    y: 730
    width: 25
    height: 25
    borderLeft: 0
    borderRight: 0
    borderTop: 0
    borderBottom: 0
    paddingLeft: 0
    paddingRight: 1
    paddingTop: 0
    paddingBottom: 1
  - name: icon_quantity
    x: 160
    y: 235
    width: 79
    height: 76
    borderLeft: 0
    borderRight: 0
    borderTop: 0
    borderBottom: 0
    paddingLeft: 0
    paddingRight: 0
    paddingTop: 0
    paddingBottom: 0
  - name: icon_revive
    x: 561
    y: 632
    width: 50
    height: 50
    borderLeft: 0
    borderRight: 0
    borderTop: 0
    borderBottom: 0
    paddingLeft: 0
    paddingRight: 0
    paddingTop: 0
    paddingBottom: 0
  - name: icon_royal
    x: 1751
    y: 727
    width: 234
    height: 175
    borderLeft: 0
    borderRight: 0
    borderTop: 0
    borderBottom: 0
    paddingLeft: 0
    paddingRight: 0
    paddingTop: 0
    paddingBottom: 0
  - name: icon_shield
    x: 240
    y: 235
    width: 79
    height: 76
    borderLeft: 0
    borderRight: 0
    borderTop: 0
    borderBottom: 0
    paddingLeft: 0
    paddingRight: 0
    paddingTop: 0
    paddingBottom: 0
  - name: icon_speed
    x: 320
    y: 235
    width: 79
    height: 76
    borderLeft: 0
    borderRight: 0
    borderTop: 0
    borderBottom: 0
    paddingLeft: 0
    paddingRight: 0
    paddingTop: 0
    paddingBottom: 0
  - name: icon_superweapon
    x: 1903
    y: 282
    width: 79
    height: 76
    borderLeft: 0
    borderRight: 0
    borderTop: 0
    borderBottom: 0
    paddingLeft: 0
    paddingRight: 0
    paddingTop: 0
    paddingBottom: 0
  - name: icon_upgrade_2ndwp
    x: 1903
    y: 436
    width: 79
    height: 76
    borderLeft: 0
    borderRight: 0
    borderTop: 0
    borderBottom: 0
    paddingLeft: 0
    paddingRight: 0
    paddingTop: 0
    paddingBottom: 0
  - name: icon_upgrade_drone
    x: 1903
    y: 359
    width: 79
    height: 76
    borderLeft: 0
    borderRight: 0
    borderTop: 0
    borderBottom: 0
    paddingLeft: 0
    paddingRight: 0
    paddingTop: 0
    paddingBottom: 0
  - name: leverupgrade_BG
    x: 1670
    y: 741
    width: 75
    height: 25
    borderLeft: 0
    borderRight: 0
    borderTop: 0
    borderBottom: 0
    paddingLeft: 0
    paddingRight: 0
    paddingTop: 0
    paddingBottom: 0
  - name: line_in_popup
    x: 967
    y: 473
    width: 525
    height: 13
    borderLeft: 0
    borderRight: 0
    borderTop: 0
    borderBottom: 0
    paddingLeft: 33
    paddingRight: 34
    paddingTop: 0
    paddingBottom: 0
  - name: Progress_piece_load_empty2
    x: 1248
    y: 722
    width: 421
    height: 44
    borderLeft: 16
    borderRight: 16
    borderTop: 0
    borderBottom: 0
    paddingLeft: 0
    paddingRight: 0
    paddingTop: 0
    paddingBottom: 0
  - name: Progress_piece_load_fill2
    x: 1248
    y: 677
    width: 421
    height: 44
    borderLeft: 10
    borderRight: 10
    borderTop: 0
    borderBottom: 0
    paddingLeft: 0
    paddingRight: 0
    paddingTop: 0
    paddingBottom: 0
  - name: Royalpack_vio_BG
    x: 1986
    y: 305
    width: 32
    height: 719
    borderLeft: 0
    borderRight: 0
    borderTop: 0
    borderBottom: 0
    paddingLeft: 0
    paddingRight: 0
    paddingTop: 0
    paddingBottom: 0
  - name: Shop_BG_box3
    x: 631
    y: 768
    width: 608
    height: 256
    borderLeft: 0
    borderRight: 0
    borderTop: 0
    borderBottom: 0
    paddingLeft: 0
    paddingRight: 0
    paddingTop: 0
    paddingBottom: 0
  - name: skeleton-animation_0
    x: 832
    y: 552
    width: 134
    height: 134
    borderLeft: 0
    borderRight: 0
    borderTop: 0
    borderBottom: 0
    paddingLeft: 0
    paddingRight: 0
    paddingTop: 0
    paddingBottom: 0
  - name: skeleton-animation_1
    x: 0
    y: 447
    width: 134
    height: 134
    borderLeft: 0
    borderRight: 0
    borderTop: 0
    borderBottom: 0
    paddingLeft: 0
    paddingRight: 0
    paddingTop: 0
    paddingBottom: 0
  - name: skeleton-animation_10
    x: 405
    y: 393
    width: 134
    height: 134
    borderLeft: 0
    borderRight: 0
    borderTop: 0
    borderBottom: 0
    paddingLeft: 0
    paddingRight: 0
    paddingTop: 0
    paddingBottom: 0
  - name: skeleton-animation_11
    x: 0
    y: 312
    width: 134
    height: 134
    borderLeft: 0
    borderRight: 0
    borderTop: 0
    borderBottom: 0
    paddingLeft: 0
    paddingRight: 0
    paddingTop: 0
    paddingBottom: 0
  - name: skeleton-animation_12
    x: 561
    y: 456
    width: 134
    height: 134
    borderLeft: 0
    borderRight: 0
    borderTop: 0
    borderBottom: 0
    paddingLeft: 0
    paddingRight: 0
    paddingTop: 0
    paddingBottom: 0
  - name: skeleton-animation_13
    x: 696
    y: 456
    width: 134
    height: 134
    borderLeft: 0
    borderRight: 0
    borderTop: 0
    borderBottom: 0
    paddingLeft: 0
    paddingRight: 0
    paddingTop: 0
    paddingBottom: 0
  - name: skeleton-animation_14
    x: 426
    y: 528
    width: 134
    height: 134
    borderLeft: 0
    borderRight: 0
    borderTop: 0
    borderBottom: 0
    paddingLeft: 0
    paddingRight: 0
    paddingTop: 0
    paddingBottom: 0
  - name: skeleton-animation_15
    x: 1805
    y: 592
    width: 134
    height: 134
    borderLeft: 0
    borderRight: 0
    borderTop: 0
    borderBottom: 0
    paddingLeft: 0
    paddingRight: 0
    paddingTop: 0
    paddingBottom: 0
  - name: skeleton-animation_16
    x: 1670
    y: 592
    width: 134
    height: 134
    borderLeft: 0
    borderRight: 0
    borderTop: 0
    borderBottom: 0
    paddingLeft: 0
    paddingRight: 0
    paddingTop: 0
    paddingBottom: 0
  - name: skeleton-animation_2
    x: 967
    y: 552
    width: 134
    height: 134
    borderLeft: 0
    borderRight: 0
    borderTop: 0
    borderBottom: 0
    paddingLeft: 0
    paddingRight: 0
    paddingTop: 0
    paddingBottom: 0
  - name: skeleton-animation_3
    x: 1237
    y: 542
    width: 134
    height: 134
    borderLeft: 0
    borderRight: 0
    borderTop: 0
    borderBottom: 0
    paddingLeft: 0
    paddingRight: 0
    paddingTop: 0
    paddingBottom: 0
  - name: skeleton-animation_4
    x: 1372
    y: 542
    width: 134
    height: 134
    borderLeft: 0
    borderRight: 0
    borderTop: 0
    borderBottom: 0
    paddingLeft: 0
    paddingRight: 0
    paddingTop: 0
    paddingBottom: 0
  - name: skeleton-animation_5
    x: 270
    y: 312
    width: 134
    height: 134
    borderLeft: 0
    borderRight: 0
    borderTop: 0
    borderBottom: 0
    paddingLeft: 0
    paddingRight: 0
    paddingTop: 0
    paddingBottom: 0
  - name: skeleton-animation_6
    x: 1102
    y: 552
    width: 134
    height: 134
    borderLeft: 0
    borderRight: 0
    borderTop: 0
    borderBottom: 0
    paddingLeft: 0
    paddingRight: 0
    paddingTop: 0
    paddingBottom: 0
  - name: skeleton-animation_7
    x: 270
    y: 447
    width: 134
    height: 134
    borderLeft: 0
    borderRight: 0
    borderTop: 0
    borderBottom: 0
    paddingLeft: 0
    paddingRight: 0
    paddingTop: 0
    paddingBottom: 0
  - name: skeleton-animation_8
    x: 135
    y: 312
    width: 134
    height: 134
    borderLeft: 0
    borderRight: 0
    borderTop: 0
    borderBottom: 0
    paddingLeft: 0
    paddingRight: 0
    paddingTop: 0
    paddingBottom: 0
  - name: skeleton-animation_9
    x: 135
    y: 447
    width: 134
    height: 134
    borderLeft: 0
    borderRight: 0
    borderTop: 0
    borderBottom: 0
    paddingLeft: 0
    paddingRight: 0
    paddingTop: 0
    paddingBottom: 0
  - name: title_Prpack
    x: 0
    y: 582
    width: 425
    height: 80
    borderLeft: 0
    borderRight: 0
    borderTop: 0
    borderBottom: 0
    paddingLeft: 42
    paddingRight: 45
    paddingTop: 8
    paddingBottom: 8
  - name: title_shop
    x: 0
    y: 663
    width: 432
    height: 92
    borderLeft: 0
    borderRight: 0
    borderTop: 0
    borderBottom: 0
    paddingLeft: 40
    paddingRight: 40
    paddingTop: 4
    paddingBottom: 0
  - name: whitedot
    x: 513
    y: 354
    width: 10
    height: 10
    borderLeft: 4
    borderRight: 4
    borderTop: 4
    borderBottom: 4
    paddingLeft: 0
    paddingRight: 0
    paddingTop: 0
    paddingBottom: 0
  mPixelSize: 1
  mReplacement: {fileID: 11400000, guid: 67b28b3d6e3a4f44fa19b4c54253ed6a, type: 2}
  mCoordinates: 0
  sprites: []
