%YAML 1.1
%TAG !u! tag:unity3d.com,2011:
--- !u!1001 &100100000
Prefab:
  m_ObjectHideFlags: 1
  serializedVersion: 2
  m_Modification:
    m_TransformParent: {fileID: 0}
    m_Modifications: []
    m_RemovedComponents: []
  m_SourcePrefab: {fileID: 0}
  m_RootGameObject: {fileID: 1443468364239618}
  m_IsPrefabAsset: 1
--- !u!1 &1443468364239618
GameObject:
  m_ObjectHideFlags: 0
  m_CorrespondingSourceObject: {fileID: 0}
  m_PrefabInternal: {fileID: 100100000}
  serializedVersion: 6
  m_Component:
  - component: {fileID: 4485360065971224}
  - component: {fileID: 114191198539776578}
  m_Layer: 0
  m_Name: World Summer BOSS 1
  m_TagString: Untagged
  m_Icon: {fileID: 0}
  m_NavMeshLayer: 0
  m_StaticEditorFlags: 0
  m_IsActive: 1
--- !u!1 &1546924810952330
GameObject:
  m_ObjectHideFlags: 0
  m_CorrespondingSourceObject: {fileID: 0}
  m_PrefabInternal: {fileID: 100100000}
  serializedVersion: 6
  m_Component:
  - component: {fileID: 4736679268944886}
  - component: {fileID: 114759496111708374}
  m_Layer: 0
  m_Name: BossEvent
  m_TagString: Untagged
  m_Icon: {fileID: 0}
  m_NavMeshLayer: 0
  m_StaticEditorFlags: 0
  m_IsActive: 1
--- !u!4 &4485360065971224
Transform:
  m_ObjectHideFlags: 1
  m_CorrespondingSourceObject: {fileID: 0}
  m_PrefabInternal: {fileID: 100100000}
  m_GameObject: {fileID: 1443468364239618}
  m_LocalRotation: {x: -0, y: -0, z: -0, w: 1}
  m_LocalPosition: {x: 0, y: 0, z: 0}
  m_LocalScale: {x: 1, y: 1, z: 1}
  m_Children:
  - {fileID: 4736679268944886}
  m_Father: {fileID: 0}
  m_RootOrder: 0
  m_LocalEulerAnglesHint: {x: 0, y: 0, z: 0}
--- !u!4 &4736679268944886
Transform:
  m_ObjectHideFlags: 1
  m_CorrespondingSourceObject: {fileID: 0}
  m_PrefabInternal: {fileID: 100100000}
  m_GameObject: {fileID: 1546924810952330}
  m_LocalRotation: {x: -0, y: -0, z: -0, w: 1}
  m_LocalPosition: {x: 0, y: 10, z: 0}
  m_LocalScale: {x: 1, y: 1, z: 1}
  m_Children: []
  m_Father: {fileID: 4485360065971224}
  m_RootOrder: 0
  m_LocalEulerAnglesHint: {x: 0, y: 0, z: 0}
--- !u!114 &114191198539776578
MonoBehaviour:
  m_ObjectHideFlags: 1
  m_CorrespondingSourceObject: {fileID: 0}
  m_PrefabInternal: {fileID: 100100000}
  m_GameObject: {fileID: 1443468364239618}
  m_Enabled: 1
  m_EditorHideFlags: 0
  m_Script: {fileID: 11500000, guid: fc7a5de42f2567642b9024df07f4b5dd, type: 3}
  m_Name: 
  m_EditorClassIdentifier: 
  StartTurnAsync: 0
  uid: 0
  mTM: []
--- !u!114 &114759496111708374
MonoBehaviour:
  m_ObjectHideFlags: 1
  m_CorrespondingSourceObject: {fileID: 0}
  m_PrefabInternal: {fileID: 100100000}
  m_GameObject: {fileID: 1546924810952330}
  m_Enabled: 1
  m_EditorHideFlags: 0
  m_Script: {fileID: 11500000, guid: 759cc6e4e9140f445b13d21f97c413f4, type: 3}
  m_Name: 
  m_EditorClassIdentifier: 
  path: {fileID: 114948960026000054, guid: dc11be4cf87811646a8454d7a0534191, type: 2}
  timeToBegin: 0
  timeToEnd: -1
  timeToNextEnemy: 0
  totalEnemy: 1
  uid: 0
  listMiniTurn:
  - enemyPrefab: {fileID: 1189017660753902, guid: 784b9b4de60a6e547a24d347238cef4c,
      type: 2}
    properties: []
    pointAndAction:
    - listAcitonName:
      - SetNextPath
      - ShootWeaponLeftRightLoop
      - ShootWeaponMixedLoop
      - ShootWeaponSpawnEnemyLoop
      - ChangeShieldGoldLoop
      - GoOutMap
      - ChangeSpeed
      type: Dead by player
      x: 0
      actionName: DropItem
    - listAcitonName:
      - SetNextPath
      - ShootWeaponLeftRightLoop
      - ShootWeaponMixedLoop
      - ShootWeaponSpawnEnemyLoop
      - ChangeShieldGoldLoop
      - GoOutMap
      - ChangeSpeed
      type: Point = X
      x: 6
      actionName: SetNextPath
    - listAcitonName:
      - SetNextPath
      - ShootWeaponLeftRightLoop
      - ShootWeaponMixedLoop
      - ShootWeaponSpawnEnemyLoop
      - ChangeShieldGoldLoop
      - GoOutMap
      - ChangeSpeed
      type: After X Millisecond
      x: 7000
      actionName: ShootWeaponLeftRightLoop
    - listAcitonName:
      - SetNextPath
      - ShootWeaponLeftRightLoop
      - ShootWeaponMixedLoop
      - ShootWeaponSpawnEnemyLoop
      - ChangeShieldGoldLoop
      - GoOutMap
      - ChangeSpeed
      type: After X Millisecond
      x: 10000
      actionName: ShootWeaponMixedLoop
    - listAcitonName:
      - SetNextPath
      - ShootWeaponLeftRightLoop
      - ShootWeaponMixedLoop
      - ShootWeaponSpawnEnemyLoop
      - ChangeShieldGoldLoop
      - GoOutMap
      - ChangeSpeed
      type: Point = X
      x: 15000
      actionName: ShootWeaponSpawnEnemyLoop
    - listAcitonName:
      - SetNextPath
      - ShootWeaponLeftRightLoop
      - ShootWeaponMixedLoop
      - ShootWeaponSpawnEnemyLoop
      - ChangeShieldGoldLoop
      - GoOutMap
      - ChangeSpeed
      type: After X Millisecond
      x: 10000
      actionName: ChangeShieldGoldLoop
    - listAcitonName:
      - SetNextPath
      - ShootWeaponLeftRightLoop
      - ShootWeaponMixedLoop
      - ShootWeaponSpawnEnemyLoop
      - ChangeShieldGoldLoop
      - GoOutMap
      - ChangeSpeed
      type: After X Millisecond
      x: 60000
      actionName: GoOutMap
    - listAcitonName:
      - SetNextPath
      - ShootWeaponLeftRightLoop
      - ShootWeaponMixedLoop
      - ShootWeaponSpawnEnemyLoop
      - ChangeShieldGoldLoop
      - GoOutMap
      - ChangeSpeed
      type: After X Millisecond
      x: 60000
      actionName: ChangeSpeed
    newSpeed: 7
    timePauseAction: 0
    newPath: {fileID: 114348237990936550, guid: 5871cfcf5e882434f908b0a8eba09353,
      type: 2}
    posStartPathNew: {x: 0, y: 0, z: 0}
    syncAnimation: 0
    enemyStartByNumber: 1
    number: 1
    enemyStartByPosition: 0
    startPosition: []
  changeDurationCamera:
    changeSpeedCamera: 0
    speedBG: 2
    speedDecor: 2.6
    timeChange: 3
