%YAML 1.1
%TAG !u! tag:unity3d.com,2011:
--- !u!74 &7400000
AnimationClip:
  m_ObjectHideFlags: 0
  m_CorrespondingSourceObject: {fileID: 0}
  m_PrefabInternal: {fileID: 0}
  m_Name: Attack1_Boss11
  serializedVersion: 6
  m_Legacy: 0
  m_Compressed: 0
  m_UseHighQualityCurve: 1
  m_RotationCurves: []
  m_CompressedRotationCurves: []
  m_EulerCurves: []
  m_PositionCurves: []
  m_ScaleCurves: []
  m_FloatCurves: []
  m_PPtrCurves:
  - curve:
    - time: 0
      value: {fileID: 21300000, guid: 27e5121d3431f564f9642f83f0bba14d, type: 3}
    - time: 0.083333336
      value: {fileID: 21300000, guid: 404b47a5a66e0b540be65ea77d110477, type: 3}
    - time: 0.16666667
      value: {fileID: 21300000, guid: 87d74798e2121204cb49a6b2449ab2d9, type: 3}
    - time: 0.25
      value: {fileID: 21300000, guid: 96d451d9de6553b4a8e78550854558e9, type: 3}
    - time: 0.33333334
      value: {fileID: 21300000, guid: 1e7fb825c22745d4c9e56770805e340e, type: 3}
    - time: 0.41666666
      value: {fileID: 21300000, guid: 8734ed982c6d09a4ebb596d7a1a042e7, type: 3}
    - time: 0.5
      value: {fileID: 21300000, guid: 4be819703dd67ba48864b52826cbbe56, type: 3}
    - time: 0.5833333
      value: {fileID: 21300000, guid: fd2f47b94b0e58043b76dc9c7ae5b73c, type: 3}
    attribute: m_Sprite
    path: 
    classID: 212
    script: {fileID: 0}
  m_SampleRate: 12
  m_WrapMode: 0
  m_Bounds:
    m_Center: {x: 0, y: 0, z: 0}
    m_Extent: {x: 0, y: 0, z: 0}
  m_ClipBindingConstant:
    genericBindings:
    - serializedVersion: 2
      path: 0
      attribute: 0
      script: {fileID: 0}
      typeID: 212
      customType: 23
      isPPtrCurve: 1
    pptrCurveMapping:
    - {fileID: 21300000, guid: 27e5121d3431f564f9642f83f0bba14d, type: 3}
    - {fileID: 21300000, guid: 404b47a5a66e0b540be65ea77d110477, type: 3}
    - {fileID: 21300000, guid: 87d74798e2121204cb49a6b2449ab2d9, type: 3}
    - {fileID: 21300000, guid: 96d451d9de6553b4a8e78550854558e9, type: 3}
    - {fileID: 21300000, guid: 1e7fb825c22745d4c9e56770805e340e, type: 3}
    - {fileID: 21300000, guid: 8734ed982c6d09a4ebb596d7a1a042e7, type: 3}
    - {fileID: 21300000, guid: 4be819703dd67ba48864b52826cbbe56, type: 3}
    - {fileID: 21300000, guid: fd2f47b94b0e58043b76dc9c7ae5b73c, type: 3}
  m_AnimationClipSettings:
    serializedVersion: 2
    m_AdditiveReferencePoseClip: {fileID: 0}
    m_AdditiveReferencePoseTime: 0
    m_StartTime: 0
    m_StopTime: 0.6666666
    m_OrientationOffsetY: 0
    m_Level: 0
    m_CycleOffset: 0
    m_HasAdditiveReferencePose: 0
    m_LoopTime: 1
    m_LoopBlend: 0
    m_LoopBlendOrientation: 0
    m_LoopBlendPositionY: 0
    m_LoopBlendPositionXZ: 0
    m_KeepOriginalOrientation: 0
    m_KeepOriginalPositionY: 1
    m_KeepOriginalPositionXZ: 0
    m_HeightFromFeet: 0
    m_Mirror: 0
  m_EditorCurves: []
  m_EulerEditorCurves: []
  m_HasGenericRootTransform: 0
  m_HasMotionFloatCurves: 0
  m_GenerateMotionCurves: 0
  m_Events:
  - time: 0.5833333
    functionName: ChangeAtkToIdle
    data: 
    objectReferenceParameter: {fileID: 0}
    floatParameter: 0
    intParameter: 0
    messageOptions: 0
