info face="C:\Users\Admin\Google Drive\banruoi\Game_asset\Font\retro_font_33-export" size=32 bold=0 italic=0 charset="" unicode=0 stretchH=100 smooth=1 aa=1 padding=0,0,0,0 spacing=1,1
common lineHeight=48 base=26 scaleW=512 scaleH=256 pages=1 packed=0 alphaChnl=1 redChnl=0 greenChnl=0 blueChnl=0
page id=0 file="C:\Users\Admin\Google Drive\banruoi\Game_asset\Font\retro_font_33-export.png"
chars count=96
char id=33 x=349 y=125 width=13 height=32 xoffset=0 yoffset=16 xadvance=15 page=0 chnl=0 letter="!"
char id=34 x=189 y=231 width=20 height=18 xoffset=0 yoffset=11 xadvance=22 page=0 chnl=0 letter="""
char id=35 x=132 y=66 width=32 height=32 xoffset=0 yoffset=16 xadvance=34 page=0 chnl=0 letter="#"
char id=36 x=132 y=132 width=32 height=42 xoffset=0 yoffset=11 xadvance=34 page=0 chnl=0 letter="$"
char id=37 x=132 y=208 width=32 height=32 xoffset=0 yoffset=16 xadvance=34 page=0 chnl=0 letter="%"
char id=38 x=0 y=0 width=37 height=32 xoffset=0 yoffset=16 xadvance=39 page=0 chnl=0 letter="&"
char id=39 x=245 y=231 width=13 height=18 xoffset=0 yoffset=11 xadvance=15 page=0 chnl=0 letter="'"
char id=40 x=330 y=66 width=18 height=32 xoffset=0 yoffset=16 xadvance=20 page=0 chnl=0 letter="("
char id=41 x=330 y=132 width=18 height=32 xoffset=0 yoffset=16 xadvance=20 page=0 chnl=0 letter=")"
char id=42 x=210 y=231 width=20 height=21 xoffset=0 yoffset=16 xadvance=22 page=0 chnl=0 letter="*"
char id=43 x=165 y=231 width=23 height=23 xoffset=0 yoffset=21 xadvance=25 page=0 chnl=0 letter="+"
char id=44 x=231 y=231 width=13 height=16 xoffset=0 yoffset=35 xadvance=15 page=0 chnl=0 letter=","
char id=45 x=111 y=241 width=23 height=14 xoffset=0 yoffset=25 xadvance=25 page=0 chnl=0 letter="-"
char id=46 x=151 y=241 width=13 height=13 xoffset=0 yoffset=35 xadvance=15 page=0 chnl=0 letter="."
char id=47 x=198 y=165 width=32 height=32 xoffset=0 yoffset=16 xadvance=34 page=0 chnl=0 letter="/"
char id=48 x=302 y=0 width=32 height=32 xoffset=0 yoffset=16 xadvance=34 page=0 chnl=0 letter="0"
char id=49 x=345 y=198 width=18 height=32 xoffset=0 yoffset=16 xadvance=20 page=0 chnl=0 letter="1"
char id=50 x=297 y=99 width=32 height=32 xoffset=0 yoffset=16 xadvance=34 page=0 chnl=0 letter="2"
char id=51 x=165 y=99 width=32 height=32 xoffset=0 yoffset=16 xadvance=34 page=0 chnl=0 letter="3"
char id=52 x=264 y=132 width=32 height=32 xoffset=0 yoffset=16 xadvance=34 page=0 chnl=0 letter="4"
char id=53 x=297 y=33 width=32 height=32 xoffset=0 yoffset=16 xadvance=34 page=0 chnl=0 letter="5"
char id=54 x=297 y=66 width=32 height=32 xoffset=0 yoffset=16 xadvance=34 page=0 chnl=0 letter="6"
char id=55 x=264 y=66 width=32 height=32 xoffset=0 yoffset=16 xadvance=34 page=0 chnl=0 letter="7"
char id=56 x=297 y=165 width=32 height=32 xoffset=0 yoffset=16 xadvance=34 page=0 chnl=0 letter="8"
char id=57 x=297 y=132 width=32 height=32 xoffset=0 yoffset=16 xadvance=34 page=0 chnl=0 letter="9"
char id=58 x=349 y=97 width=13 height=27 xoffset=0 yoffset=21 xadvance=15 page=0 chnl=0 letter=":"
char id=59 x=349 y=66 width=13 height=30 xoffset=0 yoffset=21 xadvance=15 page=0 chnl=0 letter=";"
char id=60 x=330 y=33 width=23 height=32 xoffset=0 yoffset=16 xadvance=25 page=0 chnl=0 letter="<"
char id=61 x=33 y=231 width=27 height=23 xoffset=0 yoffset=21 xadvance=29 page=0 chnl=0 letter="="
char id=62 x=297 y=198 width=23 height=32 xoffset=0 yoffset=16 xadvance=25 page=0 chnl=0 letter=">"
char id=63 x=264 y=198 width=32 height=32 xoffset=0 yoffset=16 xadvance=34 page=0 chnl=0 letter="?"
char id=64 x=264 y=165 width=32 height=32 xoffset=0 yoffset=16 xadvance=34 page=0 chnl=0 letter="@"
char id=65 x=198 y=132 width=32 height=32 xoffset=0 yoffset=16 xadvance=34 page=0 chnl=0 letter="A"
char id=66 x=264 y=99 width=32 height=32 xoffset=0 yoffset=16 xadvance=34 page=0 chnl=0 letter="B"
char id=67 x=231 y=132 width=32 height=32 xoffset=0 yoffset=16 xadvance=34 page=0 chnl=0 letter="C"
char id=68 x=269 y=0 width=32 height=32 xoffset=0 yoffset=16 xadvance=34 page=0 chnl=0 letter="D"
char id=69 x=264 y=33 width=32 height=32 xoffset=0 yoffset=16 xadvance=34 page=0 chnl=0 letter="E"
char id=70 x=231 y=198 width=32 height=32 xoffset=0 yoffset=16 xadvance=34 page=0 chnl=0 letter="F"
char id=71 x=231 y=165 width=32 height=32 xoffset=0 yoffset=16 xadvance=34 page=0 chnl=0 letter="G"
char id=72 x=198 y=99 width=32 height=32 xoffset=0 yoffset=16 xadvance=34 page=0 chnl=0 letter="H"
char id=73 x=231 y=99 width=32 height=32 xoffset=0 yoffset=16 xadvance=34 page=0 chnl=0 letter="I"
char id=74 x=231 y=66 width=32 height=32 xoffset=0 yoffset=16 xadvance=34 page=0 chnl=0 letter="J"
char id=75 x=236 y=0 width=32 height=32 xoffset=0 yoffset=16 xadvance=34 page=0 chnl=0 letter="K"
char id=76 x=231 y=33 width=32 height=32 xoffset=0 yoffset=16 xadvance=34 page=0 chnl=0 letter="L"
char id=77 x=198 y=198 width=32 height=32 xoffset=0 yoffset=16 xadvance=34 page=0 chnl=0 letter="M"
char id=78 x=0 y=99 width=32 height=32 xoffset=0 yoffset=16 xadvance=34 page=0 chnl=0 letter="N"
char id=79 x=0 y=66 width=32 height=32 xoffset=0 yoffset=16 xadvance=34 page=0 chnl=0 letter="O"
char id=80 x=0 y=33 width=32 height=32 xoffset=0 yoffset=16 xadvance=34 page=0 chnl=0 letter="P"
char id=81 x=198 y=66 width=32 height=32 xoffset=0 yoffset=16 xadvance=34 page=0 chnl=0 letter="Q"
char id=82 x=203 y=0 width=32 height=32 xoffset=0 yoffset=16 xadvance=34 page=0 chnl=0 letter="R"
char id=83 x=198 y=33 width=32 height=32 xoffset=0 yoffset=16 xadvance=34 page=0 chnl=0 letter="S"
char id=84 x=165 y=198 width=32 height=32 xoffset=0 yoffset=16 xadvance=34 page=0 chnl=0 letter="T"
char id=85 x=165 y=165 width=32 height=32 xoffset=0 yoffset=16 xadvance=34 page=0 chnl=0 letter="U"
char id=86 x=165 y=132 width=32 height=32 xoffset=0 yoffset=16 xadvance=34 page=0 chnl=0 letter="V"
char id=87 x=132 y=99 width=32 height=32 xoffset=0 yoffset=16 xadvance=34 page=0 chnl=0 letter="W"
char id=88 x=165 y=66 width=32 height=32 xoffset=0 yoffset=16 xadvance=34 page=0 chnl=0 letter="X"
char id=89 x=170 y=0 width=32 height=32 xoffset=0 yoffset=16 xadvance=34 page=0 chnl=0 letter="Y"
char id=90 x=165 y=33 width=32 height=32 xoffset=0 yoffset=16 xadvance=34 page=0 chnl=0 letter="Z"
char id=91 x=330 y=99 width=18 height=32 xoffset=0 yoffset=16 xadvance=20 page=0 chnl=0 letter="["
char id=92 x=132 y=175 width=32 height=32 xoffset=0 yoffset=16 xadvance=34 page=0 chnl=0 letter="\"
char id=93 x=330 y=165 width=18 height=32 xoffset=0 yoffset=16 xadvance=20 page=0 chnl=0 letter="]"
char id=94 x=61 y=231 width=24 height=24 xoffset=0 yoffset=18 xadvance=26 page=0 chnl=0 letter="^"
char id=95 x=0 y=231 width=32 height=13 xoffset=0 yoffset=35 xadvance=34 page=0 chnl=0 letter="_"
char id=96 x=135 y=241 width=15 height=12 xoffset=0 yoffset=13 xadvance=17 page=0 chnl=0 letter="`"
char id=97 x=137 y=0 width=32 height=32 xoffset=0 yoffset=16 xadvance=34 page=0 chnl=0 letter="a"
char id=98 x=132 y=33 width=32 height=32 xoffset=0 yoffset=16 xadvance=34 page=0 chnl=0 letter="b"
char id=99 x=99 y=198 width=32 height=32 xoffset=0 yoffset=16 xadvance=34 page=0 chnl=0 letter="c"
char id=100 x=99 y=165 width=32 height=32 xoffset=0 yoffset=16 xadvance=34 page=0 chnl=0 letter="d"
char id=101 x=99 y=132 width=32 height=32 xoffset=0 yoffset=16 xadvance=34 page=0 chnl=0 letter="e"
char id=102 x=99 y=99 width=32 height=32 xoffset=0 yoffset=16 xadvance=34 page=0 chnl=0 letter="f"
char id=103 x=99 y=66 width=32 height=32 xoffset=0 yoffset=16 xadvance=34 page=0 chnl=0 letter="g"
char id=104 x=104 y=0 width=32 height=32 xoffset=0 yoffset=16 xadvance=34 page=0 chnl=0 letter="h"
char id=105 x=99 y=33 width=32 height=32 xoffset=0 yoffset=16 xadvance=34 page=0 chnl=0 letter="i"
char id=106 x=66 y=198 width=32 height=32 xoffset=0 yoffset=16 xadvance=34 page=0 chnl=0 letter="j"
char id=107 x=66 y=165 width=32 height=32 xoffset=0 yoffset=16 xadvance=34 page=0 chnl=0 letter="k"
char id=108 x=66 y=132 width=32 height=32 xoffset=0 yoffset=16 xadvance=34 page=0 chnl=0 letter="l"
char id=109 x=66 y=99 width=32 height=32 xoffset=0 yoffset=16 xadvance=34 page=0 chnl=0 letter="m"
char id=110 x=66 y=66 width=32 height=32 xoffset=0 yoffset=16 xadvance=34 page=0 chnl=0 letter="n"
char id=111 x=71 y=0 width=32 height=32 xoffset=0 yoffset=16 xadvance=34 page=0 chnl=0 letter="o"
char id=112 x=66 y=33 width=32 height=32 xoffset=0 yoffset=16 xadvance=34 page=0 chnl=0 letter="p"
char id=113 x=33 y=198 width=32 height=32 xoffset=0 yoffset=16 xadvance=34 page=0 chnl=0 letter="q"
char id=114 x=33 y=165 width=32 height=32 xoffset=0 yoffset=16 xadvance=34 page=0 chnl=0 letter="r"
char id=115 x=33 y=132 width=32 height=32 xoffset=0 yoffset=16 xadvance=34 page=0 chnl=0 letter="s"
char id=116 x=33 y=99 width=32 height=32 xoffset=0 yoffset=16 xadvance=34 page=0 chnl=0 letter="t"
char id=117 x=33 y=66 width=32 height=32 xoffset=0 yoffset=16 xadvance=34 page=0 chnl=0 letter="u"
char id=118 x=38 y=0 width=32 height=32 xoffset=0 yoffset=16 xadvance=34 page=0 chnl=0 letter="v"
char id=119 x=33 y=33 width=32 height=32 xoffset=0 yoffset=16 xadvance=34 page=0 chnl=0 letter="w"
char id=120 x=0 y=198 width=32 height=32 xoffset=0 yoffset=16 xadvance=34 page=0 chnl=0 letter="x"
char id=121 x=0 y=165 width=32 height=32 xoffset=0 yoffset=16 xadvance=34 page=0 chnl=0 letter="y"
char id=122 x=0 y=132 width=32 height=32 xoffset=0 yoffset=16 xadvance=34 page=0 chnl=0 letter="z"
char id=123 x=335 y=0 width=23 height=32 xoffset=0 yoffset=16 xadvance=25 page=0 chnl=0 letter="{"
char id=124 x=354 y=33 width=13 height=32 xoffset=0 yoffset=16 xadvance=15 page=0 chnl=0 letter="|"
char id=125 x=321 y=198 width=23 height=32 xoffset=0 yoffset=16 xadvance=25 page=0 chnl=0 letter="}"
char id=126 x=86 y=231 width=24 height=14 xoffset=0 yoffset=28 xadvance=26 page=0 chnl=0 letter="~"
char id=32 x=0 y=0 width=0 height=0 xoffset=0 yoffset=0 xadvance=9 page=0 chnl=0 letter=" "
char id=9 x=0 y=0 width=0 height=0 xoffset=0 yoffset=0 xadvance=72 page=0 chnl=0 letter="	"

kernings count=0
