info face="C:\Users\Admin\Google Drive\banruoi\Game_asset\Font\retro_font_18-export" size=32 bold=0 italic=0 charset="" unicode=0 stretchH=100 smooth=1 aa=1 padding=0,0,0,0 spacing=1,1
common lineHeight=22 base=26 scaleW=256 scaleH=256 pages=1 packed=0 alphaChnl=1 redChnl=0 greenChnl=0 blueChnl=0
page id=0 file="C:\Users\Admin\Google Drive\banruoi\Game_asset\Font\retro_font_18-export.png"
chars count=96
char id=33 x=158 y=22 width=12 height=21 xoffset=0 yoffset=1 xadvance=14 page=0 chnl=0 letter="!"
char id=34 x=136 y=168 width=16 height=14 xoffset=0 yoffset=-2 xadvance=18 page=0 chnl=0 letter="""
char id=35 x=0 y=22 width=22 height=21 xoffset=0 yoffset=1 xadvance=24 page=0 chnl=0 letter="#"
char id=36 x=0 y=66 width=22 height=27 xoffset=0 yoffset=-2 xadvance=24 page=0 chnl=0 letter="$"
char id=37 x=0 y=44 width=22 height=21 xoffset=0 yoffset=1 xadvance=24 page=0 chnl=0 letter="%"
char id=38 x=0 y=0 width=24 height=21 xoffset=0 yoffset=1 xadvance=26 page=0 chnl=0 letter="&"
char id=39 x=136 y=239 width=12 height=14 xoffset=0 yoffset=-2 xadvance=14 page=0 chnl=0 letter="'"
char id=40 x=153 y=168 width=14 height=21 xoffset=0 yoffset=1 xadvance=16 page=0 chnl=0 letter="("
char id=41 x=153 y=146 width=14 height=21 xoffset=0 yoffset=1 xadvance=16 page=0 chnl=0 letter=")"
char id=42 x=136 y=223 width=15 height=15 xoffset=0 yoffset=1 xadvance=17 page=0 chnl=0 letter="*"
char id=43 x=136 y=205 width=16 height=17 xoffset=0 yoffset=3 xadvance=18 page=0 chnl=0 letter="+"
char id=44 x=109 y=242 width=11 height=13 xoffset=0 yoffset=11 xadvance=13 page=0 chnl=0 letter=","
char id=45 x=65 y=242 width=17 height=11 xoffset=0 yoffset=6 xadvance=19 page=0 chnl=0 letter="-"
char id=46 x=83 y=242 width=12 height=11 xoffset=0 yoffset=11 xadvance=14 page=0 chnl=0 letter="."
char id=47 x=46 y=176 width=22 height=21 xoffset=0 yoffset=1 xadvance=24 page=0 chnl=0 letter="/"
char id=48 x=0 y=116 width=22 height=21 xoffset=0 yoffset=1 xadvance=24 page=0 chnl=0 letter="0"
char id=49 x=153 y=190 width=14 height=21 xoffset=0 yoffset=1 xadvance=16 page=0 chnl=0 letter="1"
char id=50 x=46 y=220 width=22 height=21 xoffset=0 yoffset=1 xadvance=24 page=0 chnl=0 letter="2"
char id=51 x=138 y=0 width=21 height=21 xoffset=0 yoffset=1 xadvance=23 page=0 chnl=0 letter="3"
char id=52 x=0 y=160 width=22 height=21 xoffset=0 yoffset=1 xadvance=24 page=0 chnl=0 letter="4"
char id=53 x=136 y=22 width=21 height=21 xoffset=0 yoffset=1 xadvance=23 page=0 chnl=0 letter="5"
char id=54 x=69 y=198 width=22 height=21 xoffset=0 yoffset=1 xadvance=24 page=0 chnl=0 letter="6"
char id=55 x=136 y=44 width=21 height=21 xoffset=0 yoffset=1 xadvance=23 page=0 chnl=0 letter="7"
char id=56 x=46 y=198 width=22 height=21 xoffset=0 yoffset=1 xadvance=24 page=0 chnl=0 letter="8"
char id=57 x=114 y=220 width=21 height=21 xoffset=0 yoffset=1 xadvance=23 page=0 chnl=0 letter="9"
char id=58 x=154 y=106 width=12 height=19 xoffset=0 yoffset=3 xadvance=14 page=0 chnl=0 letter=":"
char id=59 x=158 y=44 width=12 height=21 xoffset=0 yoffset=3 xadvance=14 page=0 chnl=0 letter=";"
char id=60 x=136 y=84 width=17 height=21 xoffset=0 yoffset=1 xadvance=19 page=0 chnl=0 letter="<"
char id=61 x=136 y=66 width=19 height=17 xoffset=0 yoffset=3 xadvance=21 page=0 chnl=0 letter="="
char id=62 x=136 y=146 width=16 height=21 xoffset=0 yoffset=1 xadvance=18 page=0 chnl=0 letter=">"
char id=63 x=0 y=204 width=22 height=21 xoffset=0 yoffset=1 xadvance=24 page=0 chnl=0 letter="?"
char id=64 x=23 y=22 width=22 height=21 xoffset=0 yoffset=1 xadvance=24 page=0 chnl=0 letter="@"
char id=65 x=23 y=44 width=22 height=21 xoffset=0 yoffset=1 xadvance=24 page=0 chnl=0 letter="A"
char id=66 x=114 y=88 width=21 height=21 xoffset=0 yoffset=1 xadvance=23 page=0 chnl=0 letter="B"
char id=67 x=23 y=88 width=22 height=21 xoffset=0 yoffset=1 xadvance=24 page=0 chnl=0 letter="C"
char id=68 x=114 y=44 width=21 height=21 xoffset=0 yoffset=1 xadvance=23 page=0 chnl=0 letter="D"
char id=69 x=23 y=132 width=22 height=21 xoffset=0 yoffset=1 xadvance=24 page=0 chnl=0 letter="E"
char id=70 x=114 y=22 width=21 height=21 xoffset=0 yoffset=1 xadvance=23 page=0 chnl=0 letter="F"
char id=71 x=23 y=176 width=22 height=21 xoffset=0 yoffset=1 xadvance=24 page=0 chnl=0 letter="G"
char id=72 x=92 y=198 width=21 height=21 xoffset=0 yoffset=1 xadvance=23 page=0 chnl=0 letter="H"
char id=73 x=69 y=44 width=22 height=21 xoffset=0 yoffset=1 xadvance=24 page=0 chnl=0 letter="I"
char id=74 x=92 y=154 width=21 height=21 xoffset=0 yoffset=1 xadvance=23 page=0 chnl=0 letter="J"
char id=75 x=71 y=0 width=22 height=21 xoffset=0 yoffset=1 xadvance=24 page=0 chnl=0 letter="K"
char id=76 x=92 y=110 width=21 height=21 xoffset=0 yoffset=1 xadvance=23 page=0 chnl=0 letter="L"
char id=77 x=69 y=132 width=22 height=21 xoffset=0 yoffset=1 xadvance=24 page=0 chnl=0 letter="M"
char id=78 x=92 y=66 width=21 height=21 xoffset=0 yoffset=1 xadvance=23 page=0 chnl=0 letter="N"
char id=79 x=69 y=176 width=22 height=21 xoffset=0 yoffset=1 xadvance=24 page=0 chnl=0 letter="O"
char id=80 x=114 y=198 width=21 height=21 xoffset=0 yoffset=1 xadvance=23 page=0 chnl=0 letter="P"
char id=81 x=69 y=220 width=22 height=21 xoffset=0 yoffset=1 xadvance=24 page=0 chnl=0 letter="Q"
char id=82 x=92 y=132 width=21 height=21 xoffset=0 yoffset=1 xadvance=23 page=0 chnl=0 letter="R"
char id=83 x=69 y=88 width=22 height=21 xoffset=0 yoffset=1 xadvance=24 page=0 chnl=0 letter="S"
char id=84 x=92 y=22 width=21 height=21 xoffset=0 yoffset=1 xadvance=23 page=0 chnl=0 letter="T"
char id=85 x=69 y=154 width=22 height=21 xoffset=0 yoffset=1 xadvance=24 page=0 chnl=0 letter="U"
char id=86 x=94 y=0 width=21 height=21 xoffset=0 yoffset=1 xadvance=23 page=0 chnl=0 letter="V"
char id=87 x=69 y=110 width=22 height=21 xoffset=0 yoffset=1 xadvance=24 page=0 chnl=0 letter="W"
char id=88 x=92 y=44 width=21 height=21 xoffset=0 yoffset=1 xadvance=23 page=0 chnl=0 letter="X"
char id=89 x=69 y=66 width=22 height=21 xoffset=0 yoffset=1 xadvance=24 page=0 chnl=0 letter="Y"
char id=90 x=114 y=176 width=21 height=21 xoffset=0 yoffset=1 xadvance=23 page=0 chnl=0 letter="Z"
char id=91 x=152 y=223 width=14 height=21 xoffset=0 yoffset=1 xadvance=16 page=0 chnl=0 letter="["
char id=92 x=69 y=22 width=22 height=21 xoffset=0 yoffset=1 xadvance=24 page=0 chnl=0 letter="\"
char id=93 x=154 y=84 width=14 height=21 xoffset=0 yoffset=1 xadvance=16 page=0 chnl=0 letter="]"
char id=94 x=136 y=106 width=17 height=17 xoffset=0 yoffset=2 xadvance=19 page=0 chnl=0 letter="^"
char id=95 x=23 y=242 width=22 height=11 xoffset=0 yoffset=11 xadvance=24 page=0 chnl=0 letter="_"
char id=96 x=96 y=242 width=12 height=11 xoffset=0 yoffset=-1 xadvance=14 page=0 chnl=0 letter="`"
char id=97 x=46 y=154 width=22 height=21 xoffset=0 yoffset=1 xadvance=24 page=0 chnl=0 letter="a"
char id=98 x=46 y=132 width=22 height=21 xoffset=0 yoffset=1 xadvance=24 page=0 chnl=0 letter="b"
char id=99 x=46 y=110 width=22 height=21 xoffset=0 yoffset=1 xadvance=24 page=0 chnl=0 letter="c"
char id=100 x=46 y=88 width=22 height=21 xoffset=0 yoffset=1 xadvance=24 page=0 chnl=0 letter="d"
char id=101 x=46 y=66 width=22 height=21 xoffset=0 yoffset=1 xadvance=24 page=0 chnl=0 letter="e"
char id=102 x=46 y=44 width=22 height=21 xoffset=0 yoffset=1 xadvance=24 page=0 chnl=0 letter="f"
char id=103 x=48 y=0 width=22 height=21 xoffset=0 yoffset=1 xadvance=24 page=0 chnl=0 letter="g"
char id=104 x=46 y=22 width=22 height=21 xoffset=0 yoffset=1 xadvance=24 page=0 chnl=0 letter="h"
char id=105 x=23 y=220 width=22 height=21 xoffset=0 yoffset=1 xadvance=24 page=0 chnl=0 letter="i"
char id=106 x=23 y=198 width=22 height=21 xoffset=0 yoffset=1 xadvance=24 page=0 chnl=0 letter="j"
char id=107 x=92 y=88 width=21 height=21 xoffset=0 yoffset=1 xadvance=23 page=0 chnl=0 letter="k"
char id=108 x=23 y=154 width=22 height=21 xoffset=0 yoffset=1 xadvance=24 page=0 chnl=0 letter="l"
char id=109 x=92 y=176 width=21 height=21 xoffset=0 yoffset=1 xadvance=23 page=0 chnl=0 letter="m"
char id=110 x=23 y=110 width=22 height=21 xoffset=0 yoffset=1 xadvance=24 page=0 chnl=0 letter="n"
char id=111 x=92 y=220 width=21 height=21 xoffset=0 yoffset=1 xadvance=23 page=0 chnl=0 letter="o"
char id=112 x=23 y=66 width=22 height=21 xoffset=0 yoffset=1 xadvance=24 page=0 chnl=0 letter="p"
char id=113 x=116 y=0 width=21 height=21 xoffset=0 yoffset=1 xadvance=23 page=0 chnl=0 letter="q"
char id=114 x=25 y=0 width=22 height=21 xoffset=0 yoffset=1 xadvance=24 page=0 chnl=0 letter="r"
char id=115 x=114 y=66 width=21 height=21 xoffset=0 yoffset=1 xadvance=23 page=0 chnl=0 letter="s"
char id=116 x=0 y=226 width=22 height=21 xoffset=0 yoffset=1 xadvance=24 page=0 chnl=0 letter="t"
char id=117 x=114 y=110 width=21 height=21 xoffset=0 yoffset=1 xadvance=23 page=0 chnl=0 letter="u"
char id=118 x=0 y=182 width=22 height=21 xoffset=0 yoffset=1 xadvance=24 page=0 chnl=0 letter="v"
char id=119 x=114 y=132 width=21 height=21 xoffset=0 yoffset=1 xadvance=23 page=0 chnl=0 letter="w"
char id=120 x=0 y=138 width=22 height=21 xoffset=0 yoffset=1 xadvance=24 page=0 chnl=0 letter="x"
char id=121 x=114 y=154 width=21 height=21 xoffset=0 yoffset=1 xadvance=23 page=0 chnl=0 letter="y"
char id=122 x=0 y=94 width=22 height=21 xoffset=0 yoffset=1 xadvance=24 page=0 chnl=0 letter="z"
char id=123 x=136 y=183 width=16 height=21 xoffset=0 yoffset=1 xadvance=18 page=0 chnl=0 letter="{"
char id=124 x=160 y=0 width=11 height=21 xoffset=0 yoffset=1 xadvance=13 page=0 chnl=0 letter="|"
char id=125 x=136 y=124 width=17 height=21 xoffset=0 yoffset=1 xadvance=19 page=0 chnl=0 letter="}"
char id=126 x=46 y=242 width=18 height=12 xoffset=0 yoffset=7 xadvance=20 page=0 chnl=0 letter="~"
char id=32 x=0 y=0 width=0 height=0 xoffset=0 yoffset=0 xadvance=9 page=0 chnl=0 letter=" "
char id=9 x=0 y=0 width=0 height=0 xoffset=0 yoffset=0 xadvance=72 page=0 chnl=0 letter="	"

kernings count=0
