%YAML 1.1
%TAG !u! tag:unity3d.com,2011:
--- !u!114 &11400000
MonoBehaviour:
  m_ObjectHideFlags: 0
  m_CorrespondingSourceObject: {fileID: 0}
  m_PrefabInternal: {fileID: 0}
  m_GameObject: {fileID: 0}
  m_Enabled: 1
  m_EditorHideFlags: 0
  m_Script: {fileID: 11500000, guid: 125b9f6e6906d6e4897a443b3c12729c, type: 3}
  m_Name: MinhSelectLevelUI
  m_EditorClassIdentifier: 
  material: {fileID: 2100000, guid: 39ec87f6633322d4daad69c4a5d50dac, type: 2}
  mSprites:
  - name: AC_lock
    x: 1018
    y: 802
    width: 48
    height: 48
    borderLeft: 0
    borderRight: 0
    borderTop: 0
    borderBottom: 0
    paddingLeft: 0
    paddingRight: 0
    paddingTop: 0
    paddingBottom: 0
  - name: aircraft_xmas_1_Idle_0
    x: 691
    y: 664
    width: 129
    height: 126
    borderLeft: 0
    borderRight: 0
    borderTop: 0
    borderBottom: 0
    paddingLeft: 6
    paddingRight: 6
    paddingTop: 0
    paddingBottom: 0
  - name: aircraft_xmas_2_Idle_0
    x: 691
    y: 537
    width: 129
    height: 126
    borderLeft: 0
    borderRight: 0
    borderTop: 0
    borderBottom: 0
    paddingLeft: 6
    paddingRight: 6
    paddingTop: 0
    paddingBottom: 0
  - name: Arrow_up__0
    x: 1104
    y: 1048
    width: 79
    height: 83
    borderLeft: 0
    borderRight: 0
    borderTop: 0
    borderBottom: 0
    paddingLeft: 10
    paddingRight: 7
    paddingTop: 13
    paddingBottom: 21
  - name: Arrow_up__1
    x: 943
    y: 1582
    width: 85
    height: 86
    borderLeft: 0
    borderRight: 0
    borderTop: 0
    borderBottom: 0
    paddingLeft: 7
    paddingRight: 4
    paddingTop: 10
    paddingBottom: 21
  - name: Arrow_up__2
    x: 922
    y: 1471
    width: 85
    height: 89
    borderLeft: 0
    borderRight: 0
    borderTop: 0
    borderBottom: 0
    paddingLeft: 7
    paddingRight: 4
    paddingTop: 7
    paddingBottom: 21
  - name: Arrow_up__3
    x: 827
    y: 1089
    width: 85
    height: 95
    borderLeft: 0
    borderRight: 0
    borderTop: 0
    borderBottom: 0
    paddingLeft: 7
    paddingRight: 4
    paddingTop: 1
    paddingBottom: 21
  - name: Arrow_up__4
    x: 827
    y: 1185
    width: 85
    height: 96
    borderLeft: 0
    borderRight: 0
    borderTop: 0
    borderBottom: 0
    paddingLeft: 7
    paddingRight: 4
    paddingTop: 0
    paddingBottom: 21
  - name: Arrow_up__5
    x: 913
    y: 1096
    width: 82
    height: 96
    borderLeft: 0
    borderRight: 0
    borderTop: 0
    borderBottom: 0
    paddingLeft: 7
    paddingRight: 7
    paddingTop: 0
    paddingBottom: 21
  - name: Arrow_up__6
    x: 1104
    y: 951
    width: 67
    height: 96
    borderLeft: 0
    borderRight: 0
    borderTop: 0
    borderBottom: 0
    paddingLeft: 22
    paddingRight: 7
    paddingTop: 0
    paddingBottom: 21
  - name: Arrow_up__7
    x: 1240
    y: 1445
    width: 45
    height: 75
    borderLeft: 0
    borderRight: 0
    borderTop: 0
    borderBottom: 0
    paddingLeft: 27
    paddingRight: 24
    paddingTop: 21
    paddingBottom: 21
  - name: Arrow_up__8
    x: 1188
    y: 1588
    width: 67
    height: 75
    borderLeft: 0
    borderRight: 0
    borderTop: 0
    borderBottom: 0
    paddingLeft: 16
    paddingRight: 13
    paddingTop: 21
    paddingBottom: 21
  - name: Arrow_up__9
    x: 1164
    y: 1507
    width: 73
    height: 80
    borderLeft: 0
    borderRight: 0
    borderTop: 0
    borderBottom: 0
    paddingLeft: 13
    paddingRight: 10
    paddingTop: 16
    paddingBottom: 21
  - name: BG_box_level
    x: 976
    y: 151
    width: 99
    height: 138
    borderLeft: 46
    borderRight: 46
    borderTop: 97
    borderBottom: 36
    paddingLeft: 0
    paddingRight: 0
    paddingTop: 0
    paddingBottom: 0
  - name: Blue_steam
    x: 646
    y: 298
    width: 77
    height: 28
    borderLeft: 23
    borderRight: 39
    borderTop: 0
    borderBottom: 0
    paddingLeft: 0
    paddingRight: 0
    paddingTop: 0
    paddingBottom: 0
  - name: Box_Extra
    x: 1040
    y: 1
    width: 81
    height: 72
    borderLeft: 0
    borderRight: 0
    borderTop: 0
    borderBottom: 0
    paddingLeft: 0
    paddingRight: 0
    paddingTop: 0
    paddingBottom: 0
  - name: Box_Extra_a
    x: 1005
    y: 1214
    width: 91
    height: 82
    borderLeft: 0
    borderRight: 0
    borderTop: 0
    borderBottom: 0
    paddingLeft: 0
    paddingRight: 0
    paddingTop: 0
    paddingBottom: 0
  - name: Box_Extra_d
    x: 360
    y: 3
    width: 81
    height: 72
    borderLeft: 0
    borderRight: 0
    borderTop: 0
    borderBottom: 0
    paddingLeft: 0
    paddingRight: 0
    paddingTop: 0
    paddingBottom: 0
  - name: Box_Hard_1
    x: 1075
    y: 630
    width: 81
    height: 75
    borderLeft: 0
    borderRight: 0
    borderTop: 0
    borderBottom: 0
    paddingLeft: 0
    paddingRight: 0
    paddingTop: 0
    paddingBottom: 0
  - name: Box_Hard_1_a
    x: 930
    y: 1010
    width: 91
    height: 85
    borderLeft: 0
    borderRight: 0
    borderTop: 0
    borderBottom: 0
    paddingLeft: 0
    paddingRight: 0
    paddingTop: 0
    paddingBottom: 0
  - name: Box_Hard_1_d
    x: 1075
    y: 554
    width: 81
    height: 75
    borderLeft: 0
    borderRight: 0
    borderTop: 0
    borderBottom: 0
    paddingLeft: 0
    paddingRight: 0
    paddingTop: 0
    paddingBottom: 0
  - name: Box_Hard_2
    x: 1119
    y: 872
    width: 81
    height: 78
    borderLeft: 0
    borderRight: 0
    borderTop: 0
    borderBottom: 0
    paddingLeft: 0
    paddingRight: 0
    paddingTop: 0
    paddingBottom: 0
  - name: Box_Hard_2_a
    x: 838
    y: 1000
    width: 91
    height: 88
    borderLeft: 0
    borderRight: 0
    borderTop: 0
    borderBottom: 0
    paddingLeft: 0
    paddingRight: 0
    paddingTop: 0
    paddingBottom: 0
  - name: Box_Hard_2_d
    x: 1172
    y: 969
    width: 81
    height: 78
    borderLeft: 0
    borderRight: 0
    borderTop: 0
    borderBottom: 0
    paddingLeft: 0
    paddingRight: 0
    paddingTop: 0
    paddingBottom: 0
  - name: Box_Hard_3
    x: 1022
    y: 1025
    width: 81
    height: 81
    borderLeft: 0
    borderRight: 0
    borderTop: 0
    borderBottom: 0
    paddingLeft: 0
    paddingRight: 0
    paddingTop: 0
    paddingBottom: 0
  - name: Box_Hard_3_a
    x: 827
    y: 1282
    width: 91
    height: 91
    borderLeft: 0
    borderRight: 0
    borderTop: 0
    borderBottom: 0
    paddingLeft: 0
    paddingRight: 0
    paddingTop: 0
    paddingBottom: 0
  - name: Box_Hard_3_d
    x: 1037
    y: 861
    width: 81
    height: 81
    borderLeft: 0
    borderRight: 0
    borderTop: 0
    borderBottom: 0
    paddingLeft: 0
    paddingRight: 0
    paddingTop: 0
    paddingBottom: 0
  - name: Box_Hell_1
    x: 1103
    y: 402
    width: 81
    height: 75
    borderLeft: 0
    borderRight: 0
    borderTop: 0
    borderBottom: 0
    paddingLeft: 0
    paddingRight: 0
    paddingTop: 0
    paddingBottom: 0
  - name: Box_Hell_1_a
    x: 996
    y: 1107
    width: 91
    height: 85
    borderLeft: 0
    borderRight: 0
    borderTop: 0
    borderBottom: 0
    paddingLeft: 0
    paddingRight: 0
    paddingTop: 0
    paddingBottom: 0
  - name: Box_Hell_1_d
    x: 1103
    y: 326
    width: 81
    height: 75
    borderLeft: 0
    borderRight: 0
    borderTop: 0
    borderBottom: 0
    paddingLeft: 0
    paddingRight: 0
    paddingTop: 0
    paddingBottom: 0
  - name: Box_Hell_2
    x: 1075
    y: 782
    width: 81
    height: 78
    borderLeft: 0
    borderRight: 0
    borderTop: 0
    borderBottom: 0
    paddingLeft: 0
    paddingRight: 0
    paddingTop: 0
    paddingBottom: 0
  - name: Box_Hell_2_a
    x: 913
    y: 1193
    width: 91
    height: 88
    borderLeft: 0
    borderRight: 0
    borderTop: 0
    borderBottom: 0
    paddingLeft: 0
    paddingRight: 0
    paddingTop: 0
    paddingBottom: 0
  - name: Box_Hell_2_d
    x: 1011
    y: 1310
    width: 81
    height: 78
    borderLeft: 0
    borderRight: 0
    borderTop: 0
    borderBottom: 0
    paddingLeft: 0
    paddingRight: 0
    paddingTop: 0
    paddingBottom: 0
  - name: Box_Hell_3
    x: 1088
    y: 1132
    width: 81
    height: 81
    borderLeft: 0
    borderRight: 0
    borderTop: 0
    borderBottom: 0
    paddingLeft: 0
    paddingRight: 0
    paddingTop: 0
    paddingBottom: 0
  - name: Box_Hell_3_a
    x: 827
    y: 1374
    width: 91
    height: 91
    borderLeft: 0
    borderRight: 0
    borderTop: 0
    borderBottom: 0
    paddingLeft: 0
    paddingRight: 0
    paddingTop: 0
    paddingBottom: 0
  - name: Box_Hell_3_d
    x: 1022
    y: 943
    width: 81
    height: 81
    borderLeft: 0
    borderRight: 0
    borderTop: 0
    borderBottom: 0
    paddingLeft: 0
    paddingRight: 0
    paddingTop: 0
    paddingBottom: 0
  - name: Box_Normal_1
    x: 838
    y: 930
    width: 81
    height: 69
    borderLeft: 0
    borderRight: 0
    borderTop: 0
    borderBottom: 0
    paddingLeft: 0
    paddingRight: 0
    paddingTop: 0
    paddingBottom: 0
  - name: Box_Normal_1_a
    x: 930
    y: 930
    width: 91
    height: 79
    borderLeft: 0
    borderRight: 0
    borderTop: 0
    borderBottom: 0
    paddingLeft: 0
    paddingRight: 0
    paddingTop: 0
    paddingBottom: 0
  - name: Box_Normal_1_d
    x: 1122
    y: 4
    width: 81
    height: 69
    borderLeft: 0
    borderRight: 0
    borderTop: 0
    borderBottom: 0
    paddingLeft: 0
    paddingRight: 0
    paddingTop: 0
    paddingBottom: 0
  - name: Box_Normal_2
    x: 442
    y: 3
    width: 81
    height: 72
    borderLeft: 0
    borderRight: 0
    borderTop: 0
    borderBottom: 0
    paddingLeft: 0
    paddingRight: 0
    paddingTop: 0
    paddingBottom: 0
  - name: Box_Normal_2_a
    x: 919
    y: 1297
    width: 91
    height: 82
    borderLeft: 0
    borderRight: 0
    borderTop: 0
    borderBottom: 0
    paddingLeft: 0
    paddingRight: 0
    paddingTop: 0
    paddingBottom: 0
  - name: Box_Normal_2_d
    x: 958
    y: 1
    width: 81
    height: 72
    borderLeft: 0
    borderRight: 0
    borderTop: 0
    borderBottom: 0
    paddingLeft: 0
    paddingRight: 0
    paddingTop: 0
    paddingBottom: 0
  - name: Box_Normal_3
    x: 1092
    y: 478
    width: 81
    height: 75
    borderLeft: 0
    borderRight: 0
    borderTop: 0
    borderBottom: 0
    paddingLeft: 0
    paddingRight: 0
    paddingTop: 0
    paddingBottom: 0
  - name: Box_Normal_3_a
    x: 919
    y: 1380
    width: 91
    height: 85
    borderLeft: 0
    borderRight: 0
    borderTop: 0
    borderBottom: 0
    paddingLeft: 0
    paddingRight: 0
    paddingTop: 0
    paddingBottom: 0
  - name: Box_Normal_3_d
    x: 1075
    y: 706
    width: 81
    height: 75
    borderLeft: 0
    borderRight: 0
    borderTop: 0
    borderBottom: 0
    paddingLeft: 0
    paddingRight: 0
    paddingTop: 0
    paddingBottom: 0
  - name: btn_add_pecies_2
    x: 951
    y: 805
    width: 66
    height: 45
    borderLeft: 0
    borderRight: 0
    borderTop: 0
    borderBottom: 0
    paddingLeft: 0
    paddingRight: 0
    paddingTop: 0
    paddingBottom: 0
  - name: btn_add_pecies1
    x: 1008
    y: 1479
    width: 66
    height: 102
    borderLeft: 0
    borderRight: 0
    borderTop: 0
    borderBottom: 0
    paddingLeft: 0
    paddingRight: 0
    paddingTop: 0
    paddingBottom: 0
  - name: btn_info
    x: 724
    y: 284
    width: 42
    height: 42
    borderLeft: 0
    borderRight: 0
    borderTop: 0
    borderBottom: 0
    paddingLeft: 0
    paddingRight: 0
    paddingTop: 0
    paddingBottom: 0
  - name: btn_up_pieces
    x: 524
    y: 9
    width: 66
    height: 66
    borderLeft: 0
    borderRight: 0
    borderTop: 0
    borderBottom: 0
    paddingLeft: 0
    paddingRight: 0
    paddingTop: 0
    paddingBottom: 0
  - name: card_0
    x: 1184
    y: 1048
    width: 79
    height: 76
    borderLeft: 0
    borderRight: 0
    borderTop: 0
    borderBottom: 0
    paddingLeft: 0
    paddingRight: 0
    paddingTop: 0
    paddingBottom: 0
  - name: card_A0
    x: 1254
    y: 971
    width: 79
    height: 76
    borderLeft: 0
    borderRight: 0
    borderTop: 0
    borderBottom: 0
    paddingLeft: 0
    paddingRight: 0
    paddingTop: 0
    paddingBottom: 0
  - name: card_A1
    x: 1170
    y: 1202
    width: 79
    height: 76
    borderLeft: 0
    borderRight: 0
    borderTop: 0
    borderBottom: 0
    paddingLeft: 0
    paddingRight: 0
    paddingTop: 0
    paddingBottom: 0
  - name: card_A2
    x: 1184
    y: 1125
    width: 79
    height: 76
    borderLeft: 0
    borderRight: 0
    borderTop: 0
    borderBottom: 0
    paddingLeft: 0
    paddingRight: 0
    paddingTop: 0
    paddingBottom: 0
  - name: card_A3
    x: 1281
    y: 894
    width: 79
    height: 76
    borderLeft: 0
    borderRight: 0
    borderTop: 0
    borderBottom: 0
    paddingLeft: 0
    paddingRight: 0
    paddingTop: 0
    paddingBottom: 0
  - name: card_A6
    x: 1317
    y: 663
    width: 79
    height: 76
    borderLeft: 0
    borderRight: 0
    borderTop: 0
    borderBottom: 0
    paddingLeft: 0
    paddingRight: 0
    paddingTop: 0
    paddingBottom: 0
  - name: card_A7
    x: 1317
    y: 586
    width: 79
    height: 76
    borderLeft: 0
    borderRight: 0
    borderTop: 0
    borderBottom: 0
    paddingLeft: 0
    paddingRight: 0
    paddingTop: 0
    paddingBottom: 0
  - name: card_A8
    x: 1317
    y: 817
    width: 79
    height: 76
    borderLeft: 0
    borderRight: 0
    borderTop: 0
    borderBottom: 0
    paddingLeft: 0
    paddingRight: 0
    paddingTop: 0
    paddingBottom: 0
  - name: card_A9
    x: 1317
    y: 740
    width: 79
    height: 76
    borderLeft: 0
    borderRight: 0
    borderTop: 0
    borderBottom: 0
    paddingLeft: 0
    paddingRight: 0
    paddingTop: 0
    paddingBottom: 0
  - name: card_D0
    x: 966
    y: 1741
    width: 79
    height: 76
    borderLeft: 0
    borderRight: 0
    borderTop: 0
    borderBottom: 0
    paddingLeft: 0
    paddingRight: 0
    paddingTop: 0
    paddingBottom: 0
  - name: card_D1
    x: 1029
    y: 1664
    width: 79
    height: 76
    borderLeft: 0
    borderRight: 0
    borderTop: 0
    borderBottom: 0
    paddingLeft: 0
    paddingRight: 0
    paddingTop: 0
    paddingBottom: 0
  - name: card_D2
    x: 966
    y: 1895
    width: 79
    height: 76
    borderLeft: 0
    borderRight: 0
    borderTop: 0
    borderBottom: 0
    paddingLeft: 0
    paddingRight: 0
    paddingTop: 0
    paddingBottom: 0
  - name: card_D3
    x: 966
    y: 1818
    width: 79
    height: 76
    borderLeft: 0
    borderRight: 0
    borderTop: 0
    borderBottom: 0
    paddingLeft: 0
    paddingRight: 0
    paddingTop: 0
    paddingBottom: 0
  - name: card_D4
    x: 1029
    y: 1587
    width: 79
    height: 76
    borderLeft: 0
    borderRight: 0
    borderTop: 0
    borderBottom: 0
    paddingLeft: 0
    paddingRight: 0
    paddingTop: 0
    paddingBottom: 0
  - name: card_D5
    x: 1093
    y: 1356
    width: 79
    height: 76
    borderLeft: 0
    borderRight: 0
    borderTop: 0
    borderBottom: 0
    paddingLeft: 0
    paddingRight: 0
    paddingTop: 0
    paddingBottom: 0
  - name: card_D6
    x: 1097
    y: 1279
    width: 79
    height: 76
    borderLeft: 0
    borderRight: 0
    borderTop: 0
    borderBottom: 0
    paddingLeft: 0
    paddingRight: 0
    paddingTop: 0
    paddingBottom: 0
  - name: card_W0
    x: 1075
    y: 1510
    width: 79
    height: 76
    borderLeft: 0
    borderRight: 0
    borderTop: 0
    borderBottom: 0
    paddingLeft: 0
    paddingRight: 0
    paddingTop: 0
    paddingBottom: 0
  - name: card_W1
    x: 1084
    y: 1433
    width: 79
    height: 76
    borderLeft: 0
    borderRight: 0
    borderTop: 0
    borderBottom: 0
    paddingLeft: 0
    paddingRight: 0
    paddingTop: 0
    paddingBottom: 0
  - name: card_W2
    x: 1109
    y: 1664
    width: 79
    height: 76
    borderLeft: 0
    borderRight: 0
    borderTop: 0
    borderBottom: 0
    paddingLeft: 0
    paddingRight: 0
    paddingTop: 0
    paddingBottom: 0
  - name: card_W3
    x: 1046
    y: 1741
    width: 79
    height: 76
    borderLeft: 0
    borderRight: 0
    borderTop: 0
    borderBottom: 0
    paddingLeft: 0
    paddingRight: 0
    paddingTop: 0
    paddingBottom: 0
  - name: coin_gold_1
    x: 1478
    y: 3
    width: 43
    height: 43
    borderLeft: 0
    borderRight: 0
    borderTop: 0
    borderBottom: 0
    paddingLeft: 16
    paddingRight: 19
    paddingTop: 19
    paddingBottom: 16
  - name: dron1_Idle_0
    x: 1173
    y: 1376
    width: 63
    height: 66
    borderLeft: 0
    borderRight: 0
    borderTop: 0
    borderBottom: 0
    paddingLeft: 21
    paddingRight: 21
    paddingTop: 15
    paddingBottom: 6
  - name: dron2_Idle_0
    x: 1164
    y: 1443
    width: 75
    height: 63
    borderLeft: 0
    borderRight: 0
    borderTop: 0
    borderBottom: 0
    paddingLeft: 15
    paddingRight: 15
    paddingTop: 15
    paddingBottom: 9
  - name: dron3_Idle_0
    x: 1204
    y: 7
    width: 81
    height: 66
    borderLeft: 0
    borderRight: 0
    borderTop: 0
    borderBottom: 0
    paddingLeft: 12
    paddingRight: 12
    paddingTop: 15
    paddingBottom: 6
  - name: dron4_Idle_0
    x: 1177
    y: 1321
    width: 69
    height: 54
    borderLeft: 0
    borderRight: 0
    borderTop: 0
    borderBottom: 0
    paddingLeft: 18
    paddingRight: 18
    paddingTop: 18
    paddingBottom: 15
  - name: dron5_Idle_0
    x: 1097
    y: 1221
    width: 69
    height: 57
    borderLeft: 0
    borderRight: 0
    borderTop: 0
    borderBottom: 0
    paddingLeft: 18
    paddingRight: 18
    paddingTop: 15
    paddingBottom: 15
  - name: Evol_BG
    x: 0
    y: 1026
    width: 678
    height: 1022
    borderLeft: 0
    borderRight: 0
    borderTop: 0
    borderBottom: 0
    paddingLeft: 0
    paddingRight: 0
    paddingTop: 0
    paddingBottom: 0
  - name: Evol_icon_pieces
    x: 951
    y: 851
    width: 85
    height: 78
    borderLeft: 0
    borderRight: 0
    borderTop: 0
    borderBottom: 0
    paddingLeft: 0
    paddingRight: 0
    paddingTop: 0
    paddingBottom: 0
  - name: evol_lightup
    x: 0
    y: 519
    width: 690
    height: 506
    borderLeft: 0
    borderRight: 0
    borderTop: 0
    borderBottom: 0
    paddingLeft: 0
    paddingRight: 0
    paddingTop: 0
    paddingBottom: 0
  - name: Gem_Green_small
    x: 1440
    y: 12
    width: 30
    height: 32
    borderLeft: 0
    borderRight: 0
    borderTop: 0
    borderBottom: 0
    paddingLeft: 0
    paddingRight: 0
    paddingTop: 0
    paddingBottom: 0
  - name: Glow_A
    x: 784
    y: 135
    width: 191
    height: 191
    borderLeft: 0
    borderRight: 0
    borderTop: 0
    borderBottom: 0
    paddingLeft: 0
    paddingRight: 0
    paddingTop: 0
    paddingBottom: 0
  - name: Glow_B
    x: 646
    y: 327
    width: 191
    height: 191
    borderLeft: 0
    borderRight: 0
    borderTop: 0
    borderBottom: 0
    paddingLeft: 0
    paddingRight: 0
    paddingTop: 0
    paddingBottom: 0
  - name: Glow_S
    x: 679
    y: 1665
    width: 191
    height: 191
    borderLeft: 0
    borderRight: 0
    borderTop: 0
    borderBottom: 0
    paddingLeft: 0
    paddingRight: 0
    paddingTop: 0
    paddingBottom: 0
  - name: Glow_SS
    x: 679
    y: 1857
    width: 191
    height: 191
    borderLeft: 0
    borderRight: 0
    borderTop: 0
    borderBottom: 0
    paddingLeft: 0
    paddingRight: 0
    paddingTop: 0
    paddingBottom: 0
  - name: Glow_SSS
    x: 592
    y: 92
    width: 191
    height: 191
    borderLeft: 0
    borderRight: 0
    borderTop: 0
    borderBottom: 0
    paddingLeft: 0
    paddingRight: 0
    paddingTop: 0
    paddingBottom: 0
  - name: Gold_small
    x: 1286
    y: 43
    width: 30
    height: 30
    borderLeft: 0
    borderRight: 0
    borderTop: 0
    borderBottom: 0
    paddingLeft: 0
    paddingRight: 0
    paddingTop: 1
    paddingBottom: 1
  - name: Green_steam
    x: 784
    y: 106
    width: 77
    height: 28
    borderLeft: 38
    borderRight: 39
    borderTop: 0
    borderBottom: 0
    paddingLeft: 0
    paddingRight: 0
    paddingTop: 0
    paddingBottom: 0
  - name: hangar_2ndWp_0
    x: 1416
    y: 278
    width: 79
    height: 76
    borderLeft: 0
    borderRight: 0
    borderTop: 0
    borderBottom: 0
    paddingLeft: 0
    paddingRight: 0
    paddingTop: 0
    paddingBottom: 0
  - name: hangar_2ndWp_B
    x: 1334
    y: 509
    width: 79
    height: 76
    borderLeft: 0
    borderRight: 0
    borderTop: 0
    borderBottom: 0
    paddingLeft: 0
    paddingRight: 0
    paddingTop: 0
    paddingBottom: 0
  - name: hangar_2ndWp_E
    x: 1345
    y: 432
    width: 79
    height: 76
    borderLeft: 0
    borderRight: 0
    borderTop: 0
    borderBottom: 0
    paddingLeft: 0
    paddingRight: 0
    paddingTop: 0
    paddingBottom: 0
  - name: hangar_2ndWp_R
    x: 1416
    y: 201
    width: 79
    height: 76
    borderLeft: 0
    borderRight: 0
    borderTop: 0
    borderBottom: 0
    paddingLeft: 0
    paddingRight: 0
    paddingTop: 0
    paddingBottom: 0
  - name: hangar_2ndWp_S
    x: 1046
    y: 1972
    width: 79
    height: 76
    borderLeft: 0
    borderRight: 0
    borderTop: 0
    borderBottom: 0
    paddingLeft: 0
    paddingRight: 0
    paddingTop: 0
    paddingBottom: 0
  - name: hangar_atk_bonus
    x: 903
    y: 94
    width: 40
    height: 40
    borderLeft: 0
    borderRight: 0
    borderTop: 0
    borderBottom: 0
    paddingLeft: 0
    paddingRight: 0
    paddingTop: 0
    paddingBottom: 0
  - name: hangar_bonus_BG
    x: 0
    y: 76
    width: 591
    height: 89
    borderLeft: 0
    borderRight: 0
    borderTop: 0
    borderBottom: 0
    paddingLeft: 0
    paddingRight: 0
    paddingTop: 0
    paddingBottom: 0
  - name: hangar_bullet_0
    x: 1046
    y: 1895
    width: 79
    height: 76
    borderLeft: 0
    borderRight: 0
    borderTop: 0
    borderBottom: 0
    paddingLeft: 0
    paddingRight: 0
    paddingTop: 0
    paddingBottom: 0
  - name: hangar_card_0
    x: 1478
    y: 124
    width: 79
    height: 76
    borderLeft: 0
    borderRight: 0
    borderTop: 0
    borderBottom: 0
    paddingLeft: 0
    paddingRight: 0
    paddingTop: 0
    paddingBottom: 0
  - name: hangar_drone_0
    x: 1478
    y: 47
    width: 79
    height: 76
    borderLeft: 0
    borderRight: 0
    borderTop: 0
    borderBottom: 0
    paddingLeft: 0
    paddingRight: 0
    paddingTop: 0
    paddingBottom: 0
  - name: hangar_drone_1
    x: 966
    y: 1972
    width: 79
    height: 76
    borderLeft: 0
    borderRight: 0
    borderTop: 0
    borderBottom: 0
    paddingLeft: 0
    paddingRight: 0
    paddingTop: 0
    paddingBottom: 0
  - name: hangar_drone_2
    x: 1176
    y: 172
    width: 79
    height: 76
    borderLeft: 0
    borderRight: 0
    borderTop: 0
    borderBottom: 0
    paddingLeft: 0
    paddingRight: 0
    paddingTop: 0
    paddingBottom: 0
  - name: hangar_drone_3
    x: 1176
    y: 249
    width: 79
    height: 76
    borderLeft: 0
    borderRight: 0
    borderTop: 0
    borderBottom: 0
    paddingLeft: 0
    paddingRight: 0
    paddingTop: 0
    paddingBottom: 0
  - name: hangar_drone_4
    x: 1157
    y: 795
    width: 79
    height: 76
    borderLeft: 0
    borderRight: 0
    borderTop: 0
    borderBottom: 0
    paddingLeft: 0
    paddingRight: 0
    paddingTop: 0
    paddingBottom: 0
  - name: hangar_drone_5
    x: 1157
    y: 718
    width: 79
    height: 76
    borderLeft: 0
    borderRight: 0
    borderTop: 0
    borderBottom: 0
    paddingLeft: 0
    paddingRight: 0
    paddingTop: 0
    paddingBottom: 0
  - name: hangar_drone_6
    x: 1201
    y: 892
    width: 79
    height: 76
    borderLeft: 0
    borderRight: 0
    borderTop: 0
    borderBottom: 0
    paddingLeft: 0
    paddingRight: 0
    paddingTop: 0
    paddingBottom: 0
  - name: hangar_item_2dnwp_b
    x: 1076
    y: 163
    width: 99
    height: 126
    borderLeft: 0
    borderRight: 0
    borderTop: 0
    borderBottom: 0
    paddingLeft: 0
    paddingRight: 0
    paddingTop: 0
    paddingBottom: 0
  - name: hangar_item_2dnwp_e
    x: 827
    y: 1561
    width: 115
    height: 103
    borderLeft: 0
    borderRight: 0
    borderTop: 0
    borderBottom: 0
    paddingLeft: 0
    paddingRight: 0
    paddingTop: 0
    paddingBottom: 0
  - name: hangar_item_2dnwp_r
    x: 838
    y: 330
    width: 109
    height: 76
    borderLeft: 0
    borderRight: 0
    borderTop: 0
    borderBottom: 0
    paddingLeft: 2
    paddingRight: 2
    paddingTop: 3
    paddingBottom: 0
  - name: hangar_item_2dnwp_s
    x: 1011
    y: 1389
    width: 72
    height: 89
    borderLeft: 0
    borderRight: 0
    borderTop: 0
    borderBottom: 0
    paddingLeft: 5
    paddingRight: 2
    paddingTop: 0
    paddingBottom: 0
  - name: hangar_item_BG
    x: 679
    y: 1371
    width: 147
    height: 146
    borderLeft: 0
    borderRight: 0
    borderTop: 0
    borderBottom: 0
    paddingLeft: 0
    paddingRight: 0
    paddingTop: 0
    paddingBottom: 0
  - name: hangar_item_BG_off
    x: 679
    y: 1518
    width: 147
    height: 146
    borderLeft: 0
    borderRight: 0
    borderTop: 0
    borderBottom: 0
    paddingLeft: 0
    paddingRight: 0
    paddingTop: 0
    paddingBottom: 0
  - name: hangar_item_BG1
    x: 691
    y: 930
    width: 146
    height: 146
    borderLeft: 0
    borderRight: 0
    borderTop: 0
    borderBottom: 0
    paddingLeft: 0
    paddingRight: 0
    paddingTop: 0
    paddingBottom: 0
  - name: hangar_item_BG2
    x: 679
    y: 1224
    width: 147
    height: 146
    borderLeft: 0
    borderRight: 0
    borderTop: 0
    borderBottom: 0
    paddingLeft: 0
    paddingRight: 0
    paddingTop: 0
    paddingBottom: 0
  - name: hangar_item_BG3
    x: 679
    y: 1077
    width: 147
    height: 146
    borderLeft: 0
    borderRight: 0
    borderTop: 0
    borderBottom: 0
    paddingLeft: 0
    paddingRight: 0
    paddingTop: 0
    paddingBottom: 0
  - name: hangar_life_bonus
    x: 862
    y: 94
    width: 40
    height: 40
    borderLeft: 0
    borderRight: 0
    borderTop: 0
    borderBottom: 0
    paddingLeft: 0
    paddingRight: 0
    paddingTop: 0
    paddingBottom: 0
  - name: hangar_main_1
    x: 1254
    y: 507
    width: 79
    height: 76
    borderLeft: 0
    borderRight: 0
    borderTop: 0
    borderBottom: 0
    paddingLeft: 0
    paddingRight: 0
    paddingTop: 0
    paddingBottom: 0
  - name: hangar_main_2
    x: 1265
    y: 430
    width: 79
    height: 76
    borderLeft: 0
    borderRight: 0
    borderTop: 0
    borderBottom: 0
    paddingLeft: 0
    paddingRight: 0
    paddingTop: 0
    paddingBottom: 0
  - name: hangar_main_3
    x: 1237
    y: 584
    width: 79
    height: 76
    borderLeft: 0
    borderRight: 0
    borderTop: 0
    borderBottom: 0
    paddingLeft: 0
    paddingRight: 0
    paddingTop: 0
    paddingBottom: 0
  - name: hangar_main_4
    x: 1237
    y: 738
    width: 79
    height: 76
    borderLeft: 0
    borderRight: 0
    borderTop: 0
    borderBottom: 0
    paddingLeft: 0
    paddingRight: 0
    paddingTop: 0
    paddingBottom: 0
  - name: hangar_main_5
    x: 1237
    y: 661
    width: 79
    height: 76
    borderLeft: 0
    borderRight: 0
    borderTop: 0
    borderBottom: 0
    paddingLeft: 0
    paddingRight: 0
    paddingTop: 0
    paddingBottom: 0
  - name: hangar_main_6
    x: 1398
    y: 122
    width: 79
    height: 76
    borderLeft: 0
    borderRight: 0
    borderTop: 0
    borderBottom: 0
    paddingLeft: 0
    paddingRight: 0
    paddingTop: 0
    paddingBottom: 0
  - name: hangar_main_7
    x: 1398
    y: 45
    width: 79
    height: 76
    borderLeft: 0
    borderRight: 0
    borderTop: 0
    borderBottom: 0
    paddingLeft: 0
    paddingRight: 0
    paddingTop: 0
    paddingBottom: 0
  - name: hangar_note
    x: 1172
    y: 952
    width: 28
    height: 16
    borderLeft: 0
    borderRight: 0
    borderTop: 0
    borderBottom: 0
    paddingLeft: 0
    paddingRight: 0
    paddingTop: 0
    paddingBottom: 0
  - name: hangar_POS_icon
    x: 1238
    y: 1521
    width: 66
    height: 66
    borderLeft: 0
    borderRight: 0
    borderTop: 0
    borderBottom: 0
    paddingLeft: 0
    paddingRight: 0
    paddingTop: 0
    paddingBottom: 0
  - name: hangar_rank_A
    x: 948
    y: 343
    width: 24
    height: 25
    borderLeft: 0
    borderRight: 0
    borderTop: 0
    borderBottom: 0
    paddingLeft: 21
    paddingRight: 20
    paddingTop: 1
    paddingBottom: 1
  - name: hangar_rank_B
    x: 1336
    y: 179
    width: 18
    height: 19
    borderLeft: 0
    borderRight: 0
    borderTop: 0
    borderBottom: 0
    paddingLeft: 24
    paddingRight: 23
    paddingTop: 4
    paddingBottom: 4
  - name: hangar_rank_C
    x: 1201
    y: 872
    width: 18
    height: 19
    borderLeft: 0
    borderRight: 0
    borderTop: 0
    borderBottom: 0
    paddingLeft: 24
    paddingRight: 23
    paddingTop: 4
    paddingBottom: 4
  - name: hangar_rank_S
    x: 1134
    y: 137
    width: 24
    height: 25
    borderLeft: 0
    borderRight: 0
    borderTop: 0
    borderBottom: 0
    paddingLeft: 21
    paddingRight: 20
    paddingTop: 1
    paddingBottom: 1
  - name: hangar_rank_SS
    x: 1522
    y: 21
    width: 46
    height: 25
    borderLeft: 0
    borderRight: 0
    borderTop: 0
    borderBottom: 0
    paddingLeft: 10
    paddingRight: 9
    paddingTop: 1
    paddingBottom: 1
  - name: hangar_rank_SSS
    x: 1103
    y: 300
    width: 68
    height: 25
    borderLeft: 0
    borderRight: 0
    borderTop: 0
    borderBottom: 0
    paddingLeft: 10
    paddingRight: 12
    paddingTop: 1
    paddingBottom: 1
  - name: hangar_skill_0
    x: 1265
    y: 353
    width: 79
    height: 76
    borderLeft: 0
    borderRight: 0
    borderTop: 0
    borderBottom: 0
    paddingLeft: 0
    paddingRight: 0
    paddingTop: 0
    paddingBottom: 0
  - name: hangar_wing_1
    x: 1336
    y: 276
    width: 79
    height: 76
    borderLeft: 0
    borderRight: 0
    borderTop: 0
    borderBottom: 0
    paddingLeft: 0
    paddingRight: 0
    paddingTop: 0
    paddingBottom: 0
  - name: hangar_wing_2
    x: 1185
    y: 410
    width: 79
    height: 76
    borderLeft: 0
    borderRight: 0
    borderTop: 0
    borderBottom: 0
    paddingLeft: 0
    paddingRight: 0
    paddingTop: 0
    paddingBottom: 0
  - name: home_Dron_empty_slot
    x: 1185
    y: 333
    width: 79
    height: 76
    borderLeft: 0
    borderRight: 0
    borderTop: 0
    borderBottom: 0
    paddingLeft: 0
    paddingRight: 0
    paddingTop: 0
    paddingBottom: 0
  - name: home_locked_slot
    x: 1174
    y: 487
    width: 79
    height: 76
    borderLeft: 0
    borderRight: 0
    borderTop: 0
    borderBottom: 0
    paddingLeft: 0
    paddingRight: 0
    paddingTop: 0
    paddingBottom: 0
  - name: home_SWeapon_empty_slot
    x: 1157
    y: 641
    width: 79
    height: 76
    borderLeft: 0
    borderRight: 0
    borderTop: 0
    borderBottom: 0
    paddingLeft: 0
    paddingRight: 0
    paddingTop: 0
    paddingBottom: 0
  - name: home_Wing_empty_slot
    x: 1157
    y: 564
    width: 79
    height: 76
    borderLeft: 0
    borderRight: 0
    borderTop: 0
    borderBottom: 0
    paddingLeft: 0
    paddingRight: 0
    paddingTop: 0
    paddingBottom: 0
  - name: icon_aircraft_Pieces
    x: 1109
    y: 1588
    width: 78
    height: 75
    borderLeft: 0
    borderRight: 0
    borderTop: 0
    borderBottom: 0
    paddingLeft: 0
    paddingRight: 0
    paddingTop: 0
    paddingBottom: 0
  - name: icon_check_level
    x: 966
    y: 1693
    width: 59
    height: 47
    borderLeft: 0
    borderRight: 0
    borderTop: 0
    borderBottom: 0
    paddingLeft: 0
    paddingRight: 0
    paddingTop: 0
    paddingBottom: 0
  - name: icon_coin
    x: 1237
    y: 815
    width: 79
    height: 76
    borderLeft: 0
    borderRight: 0
    borderTop: 0
    borderBottom: 0
    paddingLeft: 0
    paddingRight: 0
    paddingTop: 0
    paddingBottom: 0
  - name: icon_daily_quest_gem
    x: 1318
    y: 102
    width: 79
    height: 76
    borderLeft: 0
    borderRight: 0
    borderTop: 0
    borderBottom: 0
    paddingLeft: 0
    paddingRight: 0
    paddingTop: 0
    paddingBottom: 0
  - name: icon_dailyquest_boom
    x: 1256
    y: 256
    width: 79
    height: 76
    borderLeft: 0
    borderRight: 0
    borderTop: 0
    borderBottom: 0
    paddingLeft: 0
    paddingRight: 0
    paddingTop: 0
    paddingBottom: 0
  - name: icon_dailyquest_enegy
    x: 1256
    y: 179
    width: 79
    height: 76
    borderLeft: 0
    borderRight: 0
    borderTop: 0
    borderBottom: 0
    paddingLeft: 0
    paddingRight: 0
    paddingTop: 0
    paddingBottom: 0
  - name: icon_dailyquest_life
    x: 1345
    y: 355
    width: 79
    height: 76
    borderLeft: 0
    borderRight: 0
    borderTop: 0
    borderBottom: 0
    paddingLeft: 0
    paddingRight: 0
    paddingTop: 0
    paddingBottom: 0
  - name: icon_dailyquest_powerup
    x: 1046
    y: 1818
    width: 79
    height: 76
    borderLeft: 0
    borderRight: 0
    borderTop: 0
    borderBottom: 0
    paddingLeft: 0
    paddingRight: 0
    paddingTop: 0
    paddingBottom: 0
  - name: icon_dailyquest_time
    x: 1318
    y: 25
    width: 79
    height: 76
    borderLeft: 0
    borderRight: 0
    borderTop: 0
    borderBottom: 0
    paddingLeft: 0
    paddingRight: 0
    paddingTop: 0
    paddingBottom: 0
  - name: Icon_enegy1
    x: 1286
    y: 10
    width: 28
    height: 32
    borderLeft: 0
    borderRight: 0
    borderTop: 0
    borderBottom: 0
    paddingLeft: 0
    paddingRight: 0
    paddingTop: 0
    paddingBottom: 0
  - name: icon_exclamation_mark
    x: 944
    y: 96
    width: 12
    height: 38
    borderLeft: 0
    borderRight: 0
    borderTop: 0
    borderBottom: 0
    paddingLeft: 0
    paddingRight: 0
    paddingTop: 0
    paddingBottom: 0
  - name: Item_laber_L
    x: 966
    y: 1670
    width: 22
    height: 22
    borderLeft: 0
    borderRight: 0
    borderTop: 0
    borderBottom: 0
    paddingLeft: 0
    paddingRight: 0
    paddingTop: 0
    paddingBottom: 0
  - name: Item_laber_R
    x: 989
    y: 1670
    width: 22
    height: 22
    borderLeft: 0
    borderRight: 0
    borderTop: 0
    borderBottom: 0
    paddingLeft: 0
    paddingRight: 0
    paddingTop: 0
    paddingBottom: 0
  - name: level_blue
    x: 838
    y: 407
    width: 126
    height: 127
    borderLeft: 0
    borderRight: 0
    borderTop: 0
    borderBottom: 0
    paddingLeft: 0
    paddingRight: 0
    paddingTop: 0
    paddingBottom: 0
  - name: level_blue_t
    x: 965
    y: 418
    width: 126
    height: 127
    borderLeft: 0
    borderRight: 0
    borderTop: 0
    borderBottom: 0
    paddingLeft: 0
    paddingRight: 0
    paddingTop: 0
    paddingBottom: 0
  - name: level_red
    x: 821
    y: 535
    width: 126
    height: 127
    borderLeft: 0
    borderRight: 0
    borderTop: 0
    borderBottom: 0
    paddingLeft: 0
    paddingRight: 0
    paddingTop: 0
    paddingBottom: 0
  - name: level_red_t
    x: 824
    y: 802
    width: 126
    height: 127
    borderLeft: 0
    borderRight: 0
    borderTop: 0
    borderBottom: 0
    paddingLeft: 0
    paddingRight: 0
    paddingTop: 0
    paddingBottom: 0
  - name: level_vio
    x: 976
    y: 290
    width: 126
    height: 127
    borderLeft: 0
    borderRight: 0
    borderTop: 0
    borderBottom: 0
    paddingLeft: 0
    paddingRight: 0
    paddingTop: 0
    paddingBottom: 0
  - name: level_vio_t
    x: 948
    y: 674
    width: 126
    height: 127
    borderLeft: 0
    borderRight: 0
    borderTop: 0
    borderBottom: 0
    paddingLeft: 0
    paddingRight: 0
    paddingTop: 0
    paddingBottom: 0
  - name: level_yellow
    x: 821
    y: 663
    width: 126
    height: 127
    borderLeft: 0
    borderRight: 0
    borderTop: 0
    borderBottom: 0
    paddingLeft: 0
    paddingRight: 0
    paddingTop: 0
    paddingBottom: 0
  - name: level_yellow_t
    x: 948
    y: 546
    width: 126
    height: 127
    borderLeft: 0
    borderRight: 0
    borderTop: 0
    borderBottom: 0
    paddingLeft: 0
    paddingRight: 0
    paddingTop: 0
    paddingBottom: 0
  - name: newskillchange
    x: 0
    y: 166
    width: 579
    height: 117
    borderLeft: 0
    borderRight: 0
    borderTop: 0
    borderBottom: 0
    paddingLeft: 0
    paddingRight: 0
    paddingTop: 0
    paddingBottom: 0
  - name: number_BG
    x: 1076
    y: 138
    width: 57
    height: 24
    borderLeft: 0
    borderRight: 0
    borderTop: 0
    borderBottom: 0
    paddingLeft: 0
    paddingRight: 0
    paddingTop: 0
    paddingBottom: 0
  - name: nunberbbx_BG
    x: 1176
    y: 147
    width: 115
    height: 24
    borderLeft: 22
    borderRight: 22
    borderTop: 11
    borderBottom: 0
    paddingLeft: 0
    paddingRight: 0
    paddingTop: 0
    paddingBottom: 0
  - name: Progress_piece_load_empty
    x: 592
    y: 22
    width: 365
    height: 69
    borderLeft: 0
    borderRight: 0
    borderTop: 0
    borderBottom: 0
    paddingLeft: 0
    paddingRight: 0
    paddingTop: 0
    paddingBottom: 0
  - name: Progress_piece_load_fill
    x: 0
    y: 15
    width: 359
    height: 60
    borderLeft: 0
    borderRight: 0
    borderTop: 0
    borderBottom: 0
    paddingLeft: 0
    paddingRight: 0
    paddingTop: 0
    paddingBottom: 0
  - name: Progress_piece_load_fill_green
    x: 958
    y: 74
    width: 359
    height: 60
    borderLeft: 0
    borderRight: 0
    borderTop: 0
    borderBottom: 0
    paddingLeft: 0
    paddingRight: 0
    paddingTop: 0
    paddingBottom: 0
  - name: skill_assaut
    x: 871
    y: 1669
    width: 94
    height: 94
    borderLeft: 0
    borderRight: 0
    borderTop: 0
    borderBottom: 0
    paddingLeft: 0
    paddingRight: 0
    paddingTop: 0
    paddingBottom: 0
  - name: Skill_EMP
    x: 871
    y: 1859
    width: 94
    height: 94
    borderLeft: 0
    borderRight: 0
    borderTop: 0
    borderBottom: 0
    paddingLeft: 0
    paddingRight: 0
    paddingTop: 0
    paddingBottom: 0
  - name: Skill_focus
    x: 691
    y: 791
    width: 132
    height: 138
    borderLeft: 0
    borderRight: 0
    borderTop: 0
    borderBottom: 0
    paddingLeft: 0
    paddingRight: 0
    paddingTop: 0
    paddingBottom: 0
  - name: skill_laser
    x: 827
    y: 1466
    width: 94
    height: 94
    borderLeft: 0
    borderRight: 0
    borderTop: 0
    borderBottom: 0
    paddingLeft: 0
    paddingRight: 0
    paddingTop: 0
    paddingBottom: 0
  - name: skill_life
    x: 871
    y: 1764
    width: 94
    height: 94
    borderLeft: 0
    borderRight: 0
    borderTop: 0
    borderBottom: 0
    paddingLeft: 0
    paddingRight: 0
    paddingTop: 0
    paddingBottom: 0
  - name: Skill_shield
    x: 871
    y: 1954
    width: 94
    height: 94
    borderLeft: 0
    borderRight: 0
    borderTop: 0
    borderBottom: 0
    paddingLeft: 0
    paddingRight: 0
    paddingTop: 0
    paddingBottom: 0
  - name: Toolbar_BG
    x: 0
    y: 284
    width: 645
    height: 234
    borderLeft: 27
    borderRight: 27
    borderTop: 82
    borderBottom: 27
    paddingLeft: 0
    paddingRight: 0
    paddingTop: 0
    paddingBottom: 0
  - name: Upgrade_dot_off
    x: 1292
    y: 141
    width: 21
    height: 37
    borderLeft: 0
    borderRight: 0
    borderTop: 0
    borderBottom: 0
    paddingLeft: 0
    paddingRight: 0
    paddingTop: 0
    paddingBottom: 0
  - name: Upgrade_dot_on
    x: 948
    y: 369
    width: 21
    height: 37
    borderLeft: 0
    borderRight: 0
    borderTop: 0
    borderBottom: 0
    paddingLeft: 0
    paddingRight: 0
    paddingTop: 0
    paddingBottom: 0
  - name: vio_warning
    x: 1398
    y: 3
    width: 41
    height: 41
    borderLeft: 0
    borderRight: 0
    borderTop: 0
    borderBottom: 0
    paddingLeft: 0
    paddingRight: 0
    paddingTop: 0
    paddingBottom: 0
  - name: white_dot_round_corner
    x: 1177
    y: 1296
    width: 24
    height: 24
    borderLeft: 10
    borderRight: 10
    borderTop: 10
    borderBottom: 10
    paddingLeft: 0
    paddingRight: 0
    paddingTop: 0
    paddingBottom: 0
  - name: card_A10
    x: 1336
    y: 199
    width: 79
    height: 76
    borderLeft: 0
    borderRight: 0
    borderTop: 0
    borderBottom: 0
    paddingLeft: 0
    paddingRight: 0
    paddingTop: 0
    paddingBottom: 0
  mPixelSize: 1
  mReplacement: {fileID: 0}
