%YAML 1.1
%TAG !u! tag:unity3d.com,2011:
--- !u!74 &7400000
AnimationClip:
  m_ObjectHideFlags: 0
  m_PrefabParentObject: {fileID: 0}
  m_PrefabInternal: {fileID: 0}
  m_Name: Plane2_rank3 0
  serializedVersion: 6
  m_Legacy: 0
  m_Compressed: 0
  m_UseHighQualityCurve: 1
  m_RotationCurves: []
  m_CompressedRotationCurves: []
  m_EulerCurves: []
  m_PositionCurves: []
  m_ScaleCurves: []
  m_FloatCurves: []
  m_PPtrCurves:
  - curve:
    - time: 0
      value: {fileID: 21300000, guid: 492821e4ca16ada4e965c5eb6febd539, type: 3}
    - time: 0.055555556
      value: {fileID: 21300000, guid: 19e6cd6cfdfbfb44cbc477229c92540f, type: 3}
    - time: 0.11111111
      value: {fileID: 21300000, guid: 5d953176fdc09f146aa9f7ca431ad99a, type: 3}
    - time: 0.16666667
      value: {fileID: 21300000, guid: 0d721044016b1104398002e59669483e, type: 3}
    - time: 0.22222222
      value: {fileID: 21300000, guid: fd842018d861d7041b6b1ef96ba1019d, type: 3}
    attribute: m_Sprite
    path: 
    classID: 212
    script: {fileID: 0}
  m_SampleRate: 18
  m_WrapMode: 0
  m_Bounds:
    m_Center: {x: 0, y: 0, z: 0}
    m_Extent: {x: 0, y: 0, z: 0}
  m_ClipBindingConstant:
    genericBindings:
    - serializedVersion: 2
      path: 0
      attribute: 0
      script: {fileID: 0}
      typeID: 212
      customType: 23
      isPPtrCurve: 1
    pptrCurveMapping:
    - {fileID: 21300000, guid: 492821e4ca16ada4e965c5eb6febd539, type: 3}
    - {fileID: 21300000, guid: 19e6cd6cfdfbfb44cbc477229c92540f, type: 3}
    - {fileID: 21300000, guid: 5d953176fdc09f146aa9f7ca431ad99a, type: 3}
    - {fileID: 21300000, guid: 0d721044016b1104398002e59669483e, type: 3}
    - {fileID: 21300000, guid: fd842018d861d7041b6b1ef96ba1019d, type: 3}
  m_AnimationClipSettings:
    serializedVersion: 2
    m_AdditiveReferencePoseClip: {fileID: 0}
    m_AdditiveReferencePoseTime: 0
    m_StartTime: 0
    m_StopTime: 0.2777778
    m_OrientationOffsetY: 0
    m_Level: 0
    m_CycleOffset: 0
    m_HasAdditiveReferencePose: 0
    m_LoopTime: 1
    m_LoopBlend: 0
    m_LoopBlendOrientation: 0
    m_LoopBlendPositionY: 0
    m_LoopBlendPositionXZ: 0
    m_KeepOriginalOrientation: 0
    m_KeepOriginalPositionY: 1
    m_KeepOriginalPositionXZ: 0
    m_HeightFromFeet: 0
    m_Mirror: 0
  m_EditorCurves: []
  m_EulerEditorCurves: []
  m_HasGenericRootTransform: 0
  m_HasMotionFloatCurves: 0
  m_GenerateMotionCurves: 0
  m_Events: []
