%YAML 1.1
%TAG !u! tag:unity3d.com,2011:
--- !u!74 &7400000
AnimationClip:
  m_ObjectHideFlags: 0
  m_PrefabParentObject: {fileID: 0}
  m_PrefabInternal: {fileID: 0}
  m_Name: Wingman5HomingMissile 0
  serializedVersion: 6
  m_Legacy: 0
  m_Compressed: 0
  m_UseHighQualityCurve: 1
  m_RotationCurves: []
  m_CompressedRotationCurves: []
  m_EulerCurves: []
  m_PositionCurves: []
  m_ScaleCurves: []
  m_FloatCurves: []
  m_PPtrCurves:
  - curve:
    - time: 0
      value: {fileID: 21300000, guid: 60f9c956d9176a64490045f4df43efdd, type: 3}
    - time: 0.055555556
      value: {fileID: 21300000, guid: 4d386a49f4b4bd24abff9917ff235777, type: 3}
    - time: 0.11111111
      value: {fileID: 21300000, guid: 27ab4960934165a429920d8af2802e80, type: 3}
    - time: 0.16666667
      value: {fileID: 21300000, guid: 0692f20ca19300a4fa4e3b72284bba1b, type: 3}
    - time: 0.22222222
      value: {fileID: 21300000, guid: a7525454bd772b54fba8145882ab2ed3, type: 3}
    - time: 0.2777778
      value: {fileID: 21300000, guid: 08c632f7414c18749a7fe46d9e3431a2, type: 3}
    attribute: m_Sprite
    path: 
    classID: 212
    script: {fileID: 0}
  m_SampleRate: 18
  m_WrapMode: 0
  m_Bounds:
    m_Center: {x: 0, y: 0, z: 0}
    m_Extent: {x: 0, y: 0, z: 0}
  m_ClipBindingConstant:
    genericBindings:
    - serializedVersion: 2
      path: 0
      attribute: 0
      script: {fileID: 0}
      typeID: 212
      customType: 23
      isPPtrCurve: 1
    pptrCurveMapping:
    - {fileID: 21300000, guid: 60f9c956d9176a64490045f4df43efdd, type: 3}
    - {fileID: 21300000, guid: 4d386a49f4b4bd24abff9917ff235777, type: 3}
    - {fileID: 21300000, guid: 27ab4960934165a429920d8af2802e80, type: 3}
    - {fileID: 21300000, guid: 0692f20ca19300a4fa4e3b72284bba1b, type: 3}
    - {fileID: 21300000, guid: a7525454bd772b54fba8145882ab2ed3, type: 3}
    - {fileID: 21300000, guid: 08c632f7414c18749a7fe46d9e3431a2, type: 3}
  m_AnimationClipSettings:
    serializedVersion: 2
    m_AdditiveReferencePoseClip: {fileID: 0}
    m_AdditiveReferencePoseTime: 0
    m_StartTime: 0
    m_StopTime: 0.33333334
    m_OrientationOffsetY: 0
    m_Level: 0
    m_CycleOffset: 0
    m_HasAdditiveReferencePose: 0
    m_LoopTime: 1
    m_LoopBlend: 0
    m_LoopBlendOrientation: 0
    m_LoopBlendPositionY: 0
    m_LoopBlendPositionXZ: 0
    m_KeepOriginalOrientation: 0
    m_KeepOriginalPositionY: 1
    m_KeepOriginalPositionXZ: 0
    m_HeightFromFeet: 0
    m_Mirror: 0
  m_EditorCurves: []
  m_EulerEditorCurves: []
  m_HasGenericRootTransform: 0
  m_HasMotionFloatCurves: 0
  m_GenerateMotionCurves: 0
  m_Events: []
