%YAML 1.1
%TAG !u! tag:unity3d.com,2011:
--- !u!74 &7400000
AnimationClip:
  m_ObjectHideFlags: 0
  m_PrefabParentObject: {fileID: 0}
  m_PrefabInternal: {fileID: 0}
  m_Name: Enemy305Nhangnangluong_IdleNoel
  serializedVersion: 6
  m_Legacy: 0
  m_Compressed: 0
  m_UseHighQualityCurve: 1
  m_RotationCurves: []
  m_CompressedRotationCurves: []
  m_EulerCurves: []
  m_PositionCurves: []
  m_ScaleCurves: []
  m_FloatCurves: []
  m_PPtrCurves:
  - curve:
    - time: 0
      value: {fileID: 21300000, guid: 3ccb4743b985fe7499d0a6e65b864139, type: 3}
    - time: 0.16666667
      value: {fileID: 21300000, guid: 4d668a0d8f98a9647b5fc5f7a8fd461c, type: 3}
    - time: 0.33333334
      value: {fileID: 21300000, guid: a12793d60a3799449aaa14a64306bd47, type: 3}
    - time: 0.5
      value: {fileID: 21300000, guid: 67c76573fa3cd3e4e8204a14789e47f3, type: 3}
    - time: 0.6666667
      value: {fileID: 21300000, guid: b85a2d3e337f5ba4d97679bb67d65cff, type: 3}
    - time: 0.8333334
      value: {fileID: 21300000, guid: ef8ca410019731a4aa38a48828e60794, type: 3}
    attribute: m_Sprite
    path: 
    classID: 212
    script: {fileID: 0}
  m_SampleRate: 6
  m_WrapMode: 0
  m_Bounds:
    m_Center: {x: 0, y: 0, z: 0}
    m_Extent: {x: 0, y: 0, z: 0}
  m_ClipBindingConstant:
    genericBindings:
    - serializedVersion: 2
      path: 0
      attribute: 0
      script: {fileID: 0}
      typeID: 212
      customType: 23
      isPPtrCurve: 1
    pptrCurveMapping:
    - {fileID: 21300000, guid: 3ccb4743b985fe7499d0a6e65b864139, type: 3}
    - {fileID: 21300000, guid: 4d668a0d8f98a9647b5fc5f7a8fd461c, type: 3}
    - {fileID: 21300000, guid: a12793d60a3799449aaa14a64306bd47, type: 3}
    - {fileID: 21300000, guid: 67c76573fa3cd3e4e8204a14789e47f3, type: 3}
    - {fileID: 21300000, guid: b85a2d3e337f5ba4d97679bb67d65cff, type: 3}
    - {fileID: 21300000, guid: ef8ca410019731a4aa38a48828e60794, type: 3}
  m_AnimationClipSettings:
    serializedVersion: 2
    m_AdditiveReferencePoseClip: {fileID: 0}
    m_AdditiveReferencePoseTime: 0
    m_StartTime: 0
    m_StopTime: 1
    m_OrientationOffsetY: 0
    m_Level: 0
    m_CycleOffset: 0
    m_HasAdditiveReferencePose: 0
    m_LoopTime: 1
    m_LoopBlend: 0
    m_LoopBlendOrientation: 0
    m_LoopBlendPositionY: 0
    m_LoopBlendPositionXZ: 0
    m_KeepOriginalOrientation: 0
    m_KeepOriginalPositionY: 1
    m_KeepOriginalPositionXZ: 0
    m_HeightFromFeet: 0
    m_Mirror: 0
  m_EditorCurves: []
  m_EulerEditorCurves: []
  m_HasGenericRootTransform: 0
  m_HasMotionFloatCurves: 0
  m_GenerateMotionCurves: 0
  m_Events: []
