%YAML 1.1
%TAG !u! tag:unity3d.com,2011:
--- !u!78 &1
TagManager:
  serializedVersion: 2
  tags:
  - Undefined
  - Enemy
  - posBottom
  - explosion
  - posTop
  - Bullet_HomingMissile
  - player
  - itemEnemy
  - boss
  - bulletEnemy
  - shield
  - missile
  - EnemyBullet
  - PlayerBullet
  - EnemyNhen_Child
  - LazeNhen
  - EnemyNhen
  - DeadZone
  - Item
  - Hazzard
  - EnemyMissile
  - Missile
  - ground
  - Asteroid
  - breath
  - enemy
  - Ennemy
  - PlayerBulletHoming
  - GetItem_Zone
  - Boss1
  - EnemyNhenChild
  - PlayerBulletWindSlash
  - Boss2
  - Boss3
  - Boss4
  - Boss2MissileExplosion
  - PlayerBulletBurstShot
  - PlayerBulletChainsaw
  - Boss3_Shield
  - Boss3_Shield_Core
  - Boss4SpiderSilk
  - listItem
  - listSection
  - DeadZoneBulletHell
  - FXEnemy305_Bonangluong
  - Boss5
  - glowShopReadyBuy
  - buttonShopUpgrade
  - Boss7
  - BulletBoss7_Stone
  - Boss8
  - EnemyBulletBoomerang
  - Boss9
  - Boss10
  - PlayerBulletStarbomb
  - Boss11
  - Boss10VeTinh
  - PlayerBulletIceShard
  - Wing2SmallBird
  - Undestroyablebullet
  - CounterBug
  - BulletEnemyUndestroy
  layers:
  - Default
  - TransparentFX
  - Ignore Raycast
  - 
  - Water
  - UI
  - 
  - 
  - Enemy
  - NGUI
  - EnemyLazeTarget
  - Player
  - LoadingScene
  - 
  - 
  - 
  - 
  - 
  - 
  - 
  - 
  - 
  - 
  - 
  - 
  - 
  - 
  - 
  - 
  - 
  - 
  - 
  m_SortingLayers:
  - name: Default
    uniqueID: 0
    locked: 0
  - name: laser
    uniqueID: 28378811
    locked: 0
  - name: ItemReward
    uniqueID: 1114348119
    locked: 0
  - name: ServerPush
    uniqueID: 1194433679
    locked: 0
  - name: PanelCoinGem
    uniqueID: 3461946435
    locked: 0
  - name: ItemInformation
    uniqueID: 1114446747
    locked: 0
  - name: ToastNotification
    uniqueID: 640151085
    locked: 0
  - name: LoadingScene
    uniqueID: 37075269
    locked: 0
  - name: New Layer
    uniqueID: 2255561145
    locked: 0
